lab1/task1/card7seg.gate.vcd
$date
	Fri Dec  4 10:34:37 2020
$end
$version
	ModelSim Version 10.7c
$end
$timescale
	1ps
$end

$scope module card7seg_ag $end

$scope module dut $end
$var wire 1 ! SW [3] $end
$var wire 1 " SW [2] $end
$var wire 1 # SW [1] $end
$var wire 1 $ SW [0] $end
$var wire 1 % HEX0 [6] $end
$var wire 1 & HEX0 [5] $end
$var wire 1 ' HEX0 [4] $end
$var wire 1 ( HEX0 [3] $end
$var wire 1 ) HEX0 [2] $end
$var wire 1 * HEX0 [1] $end
$var wire 1 + HEX0 [0] $end
$var wire 1 , gnd $end
$var wire 1 - vcc $end
$var wire 1 . unknown $end
$var tri1 1 / devclrn $end
$var tri1 1 0 devpor $end
$var tri1 1 1 devoe $end
$var wire 1 2 ~QUARTUS_CREATED_GND~I_combout $end
$var wire 1 3 SW[3]~input_o $end
$var wire 1 4 SW[2]~input_o $end
$var wire 1 5 SW[1]~input_o $end
$var wire 1 6 SW[0]~input_o $end
$var wire 1 7 WideOr6~0_combout $end
$var wire 1 8 WideOr5~0_combout $end
$var wire 1 9 WideOr4~0_combout $end
$var wire 1 : WideOr3~0_combout $end
$var wire 1 ; WideOr2~0_combout $end
$var wire 1 < WideOr1~0_combout $end
$var wire 1 = WideOr0~0_combout $end
$upscope $end
$upscope $end
$enddefinitions $end
#0
$dumpvars
1+
1*
1)
1(
1'
1&
1%
0,
1-
x.
1/
10
11
02
03
04
05
06
07
08
09
0:
0;
0<
0=
0$
0#
0"
0!
$end
#5
1$
16
17
18
19
1;
1<
1=
0%
0&
0'
0)
0*
0+
#10
0$
1#
06
15
09
1:
0<
1&
0(
1)
#15
1$
16
19
0;
1'
0)
#20
0$
0#
1"
06
05
14
07
0:
1<
0&
1(
1+
#25
1$
16
17
08
1:
0(
1*
0+
#30
0$
1#
06
15
1;
0'
#35
1$
16
18
0:
0;
0<
0=
1%
1&
1'
1(
0*
#40
0$
0#
0"
1!
06
05
04
13
1:
1;
1<
1=
0%
0&
0'
0(
#45
1$
16
0;
1'
#50
0$
1#
06
15
1;
0=
1%
0'
#55
1$
16
07
0<
1&
1+
#60
0$
0#
1"
06
05
14
17
0:
0;
1<
1=
0%
0&
1'
1(
0+
#65
1$
16
07
1;
0'
1+
