lab3/task1/init.gate.vcd
$date
	Tue Nov 17 10:25:04 2020
$end
$version
	ModelSim Version 10.7c
$end
$timescale
	1ps
$end

$scope module init_ag $end

$scope module dut $end
$var wire 1 ! clk $end
$var wire 1 " rst_n $end
$var wire 1 # en $end
$var wire 1 $ rdy $end
$var wire 1 % addr [7] $end
$var wire 1 & addr [6] $end
$var wire 1 ' addr [5] $end
$var wire 1 ( addr [4] $end
$var wire 1 ) addr [3] $end
$var wire 1 * addr [2] $end
$var wire 1 + addr [1] $end
$var wire 1 , addr [0] $end
$var wire 1 - wrdata [7] $end
$var wire 1 . wrdata [6] $end
$var wire 1 / wrdata [5] $end
$var wire 1 0 wrdata [4] $end
$var wire 1 1 wrdata [3] $end
$var wire 1 2 wrdata [2] $end
$var wire 1 3 wrdata [1] $end
$var wire 1 4 wrdata [0] $end
$var wire 1 5 wren $end
$var wire 1 6 gnd $end
$var wire 1 7 vcc $end
$var wire 1 8 unknown $end
$var tri1 1 9 devclrn $end
$var tri1 1 : devpor $end
$var tri1 1 ; devoe $end
$var wire 1 < ~QUARTUS_CREATED_GND~I_combout $end
$var wire 1 = clk~input_o $end
$var wire 1 > clk~inputCLKENA0_outclk $end
$var wire 1 ? en~input_o $end
$var wire 1 @ rst_n~input_o $end
$var wire 1 A Add0~1_sumout $end
$var wire 1 B Add0~26 $end
$var wire 1 C Add0~29_sumout $end
$var wire 1 D LessThan0~0_combout $end
$var wire 1 E count[0]~0_combout $end
$var wire 1 F Add0~2 $end
$var wire 1 G Add0~5_sumout $end
$var wire 1 H Add0~6 $end
$var wire 1 I Add0~9_sumout $end
$var wire 1 J Add0~10 $end
$var wire 1 K Add0~13_sumout $end
$var wire 1 L Add0~14 $end
$var wire 1 M Add0~17_sumout $end
$var wire 1 N Add0~18 $end
$var wire 1 O Add0~21_sumout $end
$var wire 1 P Add0~22 $end
$var wire 1 Q Add0~25_sumout $end
$var wire 1 R wren_out~0_combout $end
$var wire 1 S state~q $end
$var wire 1 T rdy_out~0_combout $end
$var wire 1 U rdy_out~q $end
$var wire 1 V wren_out~q $end
$var wire 1 W count [7] $end
$var wire 1 X count [6] $end
$var wire 1 Y count [5] $end
$var wire 1 Z count [4] $end
$var wire 1 [ count [3] $end
$var wire 1 \ count [2] $end
$var wire 1 ] count [1] $end
$var wire 1 ^ count [0] $end

$scope module rdy~output $end
$var wire 1 U i $end
$var tri1 1 7 oe $end
$var tri1 1 ; devoe $end
$var tri0 1 6 dynamicterminationcontrol $end
$var wire 1 $ o $end
$var wire 1 _ obar $end
$upscope $end

$scope module addr[0]~output $end
$var wire 1 ^ i $end
$var tri1 1 7 oe $end
$var tri1 1 ; devoe $end
$var tri0 1 6 dynamicterminationcontrol $end
$var wire 1 , o $end
$var wire 1 ` obar $end
$upscope $end

$scope module addr[1]~output $end
$var wire 1 ] i $end
$var tri1 1 7 oe $end
$var tri1 1 ; devoe $end
$var tri0 1 6 dynamicterminationcontrol $end
$var wire 1 + o $end
$var wire 1 a obar $end
$upscope $end

$scope module addr[2]~output $end
$var wire 1 \ i $end
$var tri1 1 7 oe $end
$var tri1 1 ; devoe $end
$var tri0 1 6 dynamicterminationcontrol $end
$var wire 1 * o $end
$var wire 1 b obar $end
$upscope $end

$scope module addr[3]~output $end
$var wire 1 [ i $end
$var tri1 1 7 oe $end
$var tri1 1 ; devoe $end
$var tri0 1 6 dynamicterminationcontrol $end
$var wire 1 ) o $end
$var wire 1 c obar $end
$upscope $end

$scope module addr[4]~output $end
$var wire 1 Z i $end
$var tri1 1 7 oe $end
$var tri1 1 ; devoe $end
$var tri0 1 6 dynamicterminationcontrol $end
$var wire 1 ( o $end
$var wire 1 d obar $end
$upscope $end

$scope module addr[5]~output $end
$var wire 1 Y i $end
$var tri1 1 7 oe $end
$var tri1 1 ; devoe $end
$var tri0 1 6 dynamicterminationcontrol $end
$var wire 1 ' o $end
$var wire 1 e obar $end
$upscope $end

$scope module addr[6]~output $end
$var wire 1 X i $end
$var tri1 1 7 oe $end
$var tri1 1 ; devoe $end
$var tri0 1 6 dynamicterminationcontrol $end
$var wire 1 & o $end
$var wire 1 f obar $end
$upscope $end

$scope module addr[7]~output $end
$var wire 1 W i $end
$var tri1 1 7 oe $end
$var tri1 1 ; devoe $end
$var tri0 1 6 dynamicterminationcontrol $end
$var wire 1 % o $end
$var wire 1 g obar $end
$upscope $end

$scope module wrdata[0]~output $end
$var wire 1 ^ i $end
$var tri1 1 7 oe $end
$var tri1 1 ; devoe $end
$var tri0 1 6 dynamicterminationcontrol $end
$var wire 1 4 o $end
$var wire 1 h obar $end
$upscope $end

$scope module wrdata[1]~output $end
$var wire 1 ] i $end
$var tri1 1 7 oe $end
$var tri1 1 ; devoe $end
$var tri0 1 6 dynamicterminationcontrol $end
$var wire 1 3 o $end
$var wire 1 i obar $end
$upscope $end

$scope module wrdata[2]~output $end
$var wire 1 \ i $end
$var tri1 1 7 oe $end
$var tri1 1 ; devoe $end
$var tri0 1 6 dynamicterminationcontrol $end
$var wire 1 2 o $end
$var wire 1 j obar $end
$upscope $end

$scope module wrdata[3]~output $end
$var wire 1 [ i $end
$var tri1 1 7 oe $end
$var tri1 1 ; devoe $end
$var tri0 1 6 dynamicterminationcontrol $end
$var wire 1 1 o $end
$var wire 1 k obar $end
$upscope $end

$scope module wrdata[4]~output $end
$var wire 1 Z i $end
$var tri1 1 7 oe $end
$var tri1 1 ; devoe $end
$var tri0 1 6 dynamicterminationcontrol $end
$var wire 1 0 o $end
$var wire 1 l obar $end
$upscope $end

$scope module wrdata[5]~output $end
$var wire 1 Y i $end
$var tri1 1 7 oe $end
$var tri1 1 ; devoe $end
$var tri0 1 6 dynamicterminationcontrol $end
$var wire 1 / o $end
$var wire 1 m obar $end
$upscope $end

$scope module wrdata[6]~output $end
$var wire 1 X i $end
$var tri1 1 7 oe $end
$var tri1 1 ; devoe $end
$var tri0 1 6 dynamicterminationcontrol $end
$var wire 1 . o $end
$var wire 1 n obar $end
$upscope $end

$scope module wrdata[7]~output $end
$var wire 1 W i $end
$var tri1 1 7 oe $end
$var tri1 1 ; devoe $end
$var tri0 1 6 dynamicterminationcontrol $end
$var wire 1 - o $end
$var wire 1 o obar $end
$upscope $end

$scope module wren~output $end
$var wire 1 V i $end
$var tri1 1 7 oe $end
$var tri1 1 ; devoe $end
$var tri0 1 6 dynamicterminationcontrol $end
$var wire 1 5 o $end
$var wire 1 p obar $end
$upscope $end

$scope module clk~input $end
$var wire 1 ! i $end
$var wire 1 6 ibar $end
$var wire 1 = o $end
$upscope $end

$scope module clk~inputCLKENA0 $end
$var wire 1 7 ena $end
$var wire 1 q enaout $end
$var wire 1 > outclk $end
$upscope $end

$scope module en~input $end
$var wire 1 # i $end
$var wire 1 6 ibar $end
$var wire 1 ? o $end
$upscope $end

$scope module rst_n~input $end
$var wire 1 " i $end
$var wire 1 6 ibar $end
$var wire 1 @ o $end
$upscope $end

$scope module Add0~1 $end
$var wire 1 6 dataa $end
$var wire 1 6 datab $end
$var wire 1 6 datac $end
$var wire 1 r datad $end
$var wire 1 6 datae $end
$var wire 1 6 dataf $end
$var wire 1 6 datag $end
$var wire 1 6 cin $end
$var wire 1 6 sharein $end
$var wire 1 s combout $end
$var wire 1 A sumout $end
$var wire 1 F cout $end
$var wire 1 t shareout $end
$upscope $end

$scope module Add0~25 $end
$var wire 1 6 dataa $end
$var wire 1 6 datab $end
$var wire 1 6 datac $end
$var wire 1 u datad $end
$var wire 1 6 datae $end
$var wire 1 6 dataf $end
$var wire 1 6 datag $end
$var wire 1 P cin $end
$var wire 1 6 sharein $end
$var wire 1 v combout $end
$var wire 1 Q sumout $end
$var wire 1 B cout $end
$var wire 1 w shareout $end
$upscope $end

$scope module Add0~29 $end
$var wire 1 6 dataa $end
$var wire 1 6 datab $end
$var wire 1 6 datac $end
$var wire 1 x datad $end
$var wire 1 6 datae $end
$var wire 1 6 dataf $end
$var wire 1 6 datag $end
$var wire 1 B cin $end
$var wire 1 6 sharein $end
$var wire 1 y combout $end
$var wire 1 C sumout $end
$var wire 1 z cout $end
$var wire 1 { shareout $end
$upscope $end

$scope module LessThan0~0 $end
$var wire 1 | dataa $end
$var wire 1 } datab $end
$var wire 1 ~ datac $end
$var wire 1 !! datad $end
$var wire 1 "! datae $end
$var wire 1 #! dataf $end
$var wire 1 6 datag $end
$var wire 1 6 cin $end
$var wire 1 6 sharein $end
$var wire 1 D combout $end
$var wire 1 $! sumout $end
$var wire 1 %! cout $end
$var wire 1 &! shareout $end
$upscope $end

$scope module count[0]~0 $end
$var wire 1 '! dataa $end
$var wire 1 (! datab $end
$var wire 1 )! datac $end
$var wire 1 6 datad $end
$var wire 1 *! datae $end
$var wire 1 +! dataf $end
$var wire 1 6 datag $end
$var wire 1 6 cin $end
$var wire 1 6 sharein $end
$var wire 1 E combout $end
$var wire 1 ,! sumout $end
$var wire 1 -! cout $end
$var wire 1 .! shareout $end
$upscope $end

$scope module Add0~5 $end
$var wire 1 6 dataa $end
$var wire 1 6 datab $end
$var wire 1 6 datac $end
$var wire 1 /! datad $end
$var wire 1 6 datae $end
$var wire 1 6 dataf $end
$var wire 1 6 datag $end
$var wire 1 F cin $end
$var wire 1 6 sharein $end
$var wire 1 0! combout $end
$var wire 1 G sumout $end
$var wire 1 H cout $end
$var wire 1 1! shareout $end
$upscope $end

$scope module Add0~9 $end
$var wire 1 6 dataa $end
$var wire 1 6 datab $end
$var wire 1 6 datac $end
$var wire 1 2! datad $end
$var wire 1 6 datae $end
$var wire 1 6 dataf $end
$var wire 1 6 datag $end
$var wire 1 H cin $end
$var wire 1 6 sharein $end
$var wire 1 3! combout $end
$var wire 1 I sumout $end
$var wire 1 J cout $end
$var wire 1 4! shareout $end
$upscope $end

$scope module Add0~13 $end
$var wire 1 6 dataa $end
$var wire 1 6 datab $end
$var wire 1 6 datac $end
$var wire 1 5! datad $end
$var wire 1 6 datae $end
$var wire 1 6 dataf $end
$var wire 1 6 datag $end
$var wire 1 J cin $end
$var wire 1 6 sharein $end
$var wire 1 6! combout $end
$var wire 1 K sumout $end
$var wire 1 L cout $end
$var wire 1 7! shareout $end
$upscope $end

$scope module Add0~17 $end
$var wire 1 6 dataa $end
$var wire 1 6 datab $end
$var wire 1 6 datac $end
$var wire 1 8! datad $end
$var wire 1 6 datae $end
$var wire 1 6 dataf $end
$var wire 1 6 datag $end
$var wire 1 L cin $end
$var wire 1 6 sharein $end
$var wire 1 9! combout $end
$var wire 1 M sumout $end
$var wire 1 N cout $end
$var wire 1 :! shareout $end
$upscope $end

$scope module Add0~21 $end
$var wire 1 6 dataa $end
$var wire 1 6 datab $end
$var wire 1 6 datac $end
$var wire 1 ;! datad $end
$var wire 1 6 datae $end
$var wire 1 6 dataf $end
$var wire 1 6 datag $end
$var wire 1 N cin $end
$var wire 1 6 sharein $end
$var wire 1 <! combout $end
$var wire 1 O sumout $end
$var wire 1 P cout $end
$var wire 1 =! shareout $end
$upscope $end

$scope module wren_out~0 $end
$var wire 1 >! dataa $end
$var wire 1 ?! datab $end
$var wire 1 @! datac $end
$var wire 1 A! datad $end
$var wire 1 B! datae $end
$var wire 1 C! dataf $end
$var wire 1 6 datag $end
$var wire 1 6 cin $end
$var wire 1 6 sharein $end
$var wire 1 R combout $end
$var wire 1 D! sumout $end
$var wire 1 E! cout $end
$var wire 1 F! shareout $end
$upscope $end

$scope module rdy_out~0 $end
$var wire 1 6 dataa $end
$var wire 1 6 datab $end
$var wire 1 G! datac $end
$var wire 1 6 datad $end
$var wire 1 H! datae $end
$var wire 1 I! dataf $end
$var wire 1 6 datag $end
$var wire 1 6 cin $end
$var wire 1 6 sharein $end
$var wire 1 T combout $end
$var wire 1 J! sumout $end
$var wire 1 K! cout $end
$var wire 1 L! shareout $end
$upscope $end

$scope module ~QUARTUS_CREATED_GND~I $end
$var wire 1 6 dataa $end
$var wire 1 6 datab $end
$var wire 1 6 datac $end
$var wire 1 6 datad $end
$var wire 1 6 datae $end
$var wire 1 6 dataf $end
$var wire 1 6 datag $end
$var wire 1 6 cin $end
$var wire 1 6 sharein $end
$var wire 1 < combout $end
$var wire 1 M! sumout $end
$var wire 1 N! cout $end
$var wire 1 O! shareout $end
$upscope $end
$upscope $end
$upscope $end
$enddefinitions $end
#0
$dumpvars
06
17
x8
19
1:
1;
0<
0=
0>
0?
0@
1A
0B
0C
0D
1E
0F
0G
0H
0I
0J
0K
0L
0M
0N
0O
0P
0Q
0R
0S
0T
0U
0V
0^
0]
0\
0[
0Z
0Y
0X
0W
0#
0"
0!
0$
0,
0+
0*
0)
0(
0'
0&
0%
04
03
02
01
00
0/
0.
0-
05
1I!
1H!
1G!
1C!
1B!
1A!
1@!
1?!
1>!
1;!
18!
15!
12!
1/!
1+!
1*!
1)!
1(!
1'!
1#!
1"!
1!!
1~
1}
1|
1x
1u
1r
1_
1`
1a
1b
1c
1d
1e
1f
1g
1h
1i
1j
1k
1l
1m
1n
1o
1p
1q
0s
0t
0v
1w
0y
0z
1{
1$!
0%!
0&!
1,!
0-!
1.!
00!
11!
03!
14!
06!
17!
09!
1:!
0<!
1=!
1D!
0E!
0F!
0J!
0K!
1L!
1M!
0N!
0O!
$end
#5
1!
1=
1>
#15
0!
0=
0>
#25
1!
1=
1>
#35
0!
0=
0>
#45
1!
1=
1>
#55
0!
0=
0>
#65
1!
1=
1>
#75
0!
0=
0>
#85
1!
1=
1>
#95
0!
0=
0>
#105
1!
1=
1>
#115
0!
0=
0>
#125
1!
1=
1>
#135
0!
0=
0>
#145
1!
1=
1>
#155
0!
0=
0>
#165
1!
1=
1>
#175
0!
0=
0>
#185
1!
1=
1>
#195
0!
0=
0>
#205
1!
1=
1>
#215
0!
0=
0>
#225
1!
1=
1>
#235
0!
0=
0>
#245
1!
1=
1>
#255
0!
0=
0>
#265
1!
1=
1>
#275
0!
0=
0>
#285
1!
1=
1>
#295
0!
0=
0>
#305
1!
1=
1>
#315
0!
0=
0>
#325
1!
1=
1>
#335
0!
0=
0>
#345
1!
1=
1>
#355
0!
0=
0>
#365
1!
1=
1>
#375
0!
0=
0>
#385
1!
1=
1>
#395
0!
0=
0>
#400
1"
1@
0(!
0@!
0H!
1T
#405
1!
1=
1>
1U
1$
0_
#415
0!
0=
0>
#425
1!
1=
1>
#435
0!
0=
0>
#445
1!
1=
1>
#455
0!
0=
0>
#465
1!
1=
1>
#475
0!
0=
0>
#485
1!
1=
1>
#495
0!
0=
0>
#505
1!
1=
1>
#515
0!
0=
0>
#525
1!
1=
1>
#535
0!
0=
0>
#545
1!
1=
1>
#555
0!
0=
0>
#565
1!
1=
1>
#575
0!
0=
0>
#585
1!
1=
1>
#595
0!
0=
0>
#605
1!
1=
1>
#615
0!
0=
0>
#625
1!
1=
1>
#635
0!
0=
0>
#645
1!
1=
1>
#655
0!
0=
0>
#665
1!
1=
1>
#675
0!
0=
0>
#685
1!
1=
1>
#695
0!
0=
0>
#705
1!
1=
1>
#715
0!
0=
0>
#725
1!
1=
1>
#735
0!
0=
0>
#745
1!
1=
1>
#755
0!
0=
0>
#765
1!
1=
1>
#775
0!
0=
0>
#785
1!
1=
1>
#795
0!
0=
0>
#800
1#
1?
0?!
0G!
1R
1F!
1J!
0T
0L!
#805
1!
1=
1>
0U
1S
1V
0)!
0>!
0I!
0E
0.!
15
0p
0$
1_
#815
0!
0=
0>
#820
0#
0?
1?!
1G!
0J!
1L!
#825
1!
1=
1>
1^
0r
0~
1F
0A
1s
1,
0`
14
0h
1G
#835
0!
0=
0>
#845
1!
1=
1>
1]
0^
0"!
0/!
1r
1~
1H
0G
10!
0F
1A
0s
0,
1`
04
1h
1+
0a
13
0i
1I
0H
1G
0I
#855
0!
0=
0>
#865
1!
1=
1>
1^
0r
0~
1F
0A
1s
1,
0`
14
0h
1H
0G
1I
#875
0!
0=
0>
#885
1!
1=
1>
1\
0]
0^
0}
02!
1"!
1/!
1r
1~
1J
0I
13!
0H
1G
00!
0F
1A
0s
0,
1`
04
1h
0+
1a
03
1i
1*
0b
12
0j
1K
0J
1I
0G
0K
#895
0!
0=
0>
#905
1!
1=
1>
1^
0r
0~
1F
0A
1s
1,
0`
14
0h
1G
#915
0!
0=
0>
#925
1!
1=
1>
1]
0^
0"!
0/!
1r
1~
1H
0G
10!
0F
1A
0s
0,
1`
04
1h
1+
0a
13
0i
1J
0I
0H
1G
1K
0J
1I
0K
#935
0!
0=
0>
#945
1!
1=
1>
1^
0r
0~
1F
0A
1s
1,
0`
14
0h
1H
0G
1J
0I
1K
#955
0!
0=
0>
#965
1!
1=
1>
1[
0\
0]
0^
0!!
05!
1}
12!
1"!
1/!
1r
1~
1L
0K
16!
0J
1I
03!
0H
1G
00!
0F
1A
0s
0,
1`
04
1h
0+
1a
03
1i
0*
1b
02
1j
1)
0c
11
0k
1M
0L
1K
0I
0G
0M
#975
0!
0=
0>
#985
1!
1=
1>
1^
0r
0~
1F
0A
1s
1,
0`
14
0h
1G
#995
0!
0=
0>
#1005
1!
1=
1>
1]
0^
0"!
0/!
1r
1~
1H
0G
10!
0F
1A
0s
0,
1`
04
1h
1+
0a
13
0i
1I
0H
1G
0I
#1015
0!
0=
0>
#1025
1!
1=
1>
1^
0r
0~
1F
0A
1s
1,
0`
14
0h
1H
0G
1I
#1035
0!
0=
0>
#1045
1!
1=
1>
1\
0]
0^
0}
02!
1"!
1/!
1r
1~
1J
0I
13!
0H
1G
00!
0F
1A
0s
0,
1`
04
1h
0+
1a
03
1i
1*
0b
12
0j
1L
0K
0J
1I
0G
1M
0L
1K
0M
#1055
0!
0=
0>
#1065
1!
1=
1>
1^
0r
0~
1F
0A
1s
1,
0`
14
0h
1G
#1075
0!
0=
0>
#1085
1!
1=
1>
1]
0^
0"!
0/!
1r
1~
1H
0G
10!
0F
1A
0s
0,
1`
04
1h
1+
0a
13
0i
1J
0I
0H
1G
1L
0K
0J
1I
1M
0L
1K
0M
#1095
0!
0=
0>
#1105
1!
1=
1>
1^
0r
0~
1F
0A
1s
1,
0`
14
0h
1H
0G
1J
0I
1L
0K
1M
#1115
0!
0=
0>
#1125
1!
1=
1>
1Z
0[
0\
0]
0^
0|
08!
1!!
15!
1}
12!
1"!
1/!
1r
1~
1N
0M
19!
0L
1K
06!
0J
1I
03!
0H
1G
00!
0F
1A
0s
0,
1`
04
1h
0+
1a
03
1i
0*
1b
02
1j
0)
1c
01
1k
1(
0d
10
0l
1O
0N
1M
0K
0I
0G
0O
#1135
0!
0=
0>
#1145
1!
1=
1>
1^
0r
0~
1F
0A
1s
1,
0`
14
0h
1G
#1155
0!
0=
0>
#1165
1!
1=
1>
1]
0^
0"!
0/!
1r
1~
1H
0G
10!
0F
1A
0s
0,
1`
04
1h
1+
0a
13
0i
1I
0H
1G
0I
#1175
0!
0=
0>
#1185
1!
1=
1>
1^
0r
0~
1F
0A
1s
1,
0`
14
0h
1H
0G
1I
#1195
0!
0=
0>
#1205
1!
1=
1>
1\
0]
0^
0}
02!
1"!
1/!
1r
1~
1J
0I
13!
0H
1G
00!
0F
1A
0s
0,
1`
04
1h
0+
1a
03
1i
1*
0b
12
0j
1K
0J
1I
0G
0K
#1215
0!
0=
0>
#1225
1!
1=
1>
1^
0r
0~
1F
0A
1s
1,
0`
14
0h
1G
#1235
0!
0=
0>
#1245
1!
1=
1>
1]
0^
0"!
0/!
1r
1~
1H
0G
10!
0F
1A
0s
0,
1`
04
1h
1+
0a
13
0i
1J
0I
0H
1G
1K
0J
1I
0K
#1255
0!
0=
0>
#1265
1!
1=
1>
1^
0r
0~
1F
0A
1s
1,
0`
14
0h
1H
0G
1J
0I
1K
#1275
0!
0=
0>
#1285
1!
1=
1>
1[
0\
0]
0^
0!!
05!
1}
12!
1"!
1/!
1r
1~
1L
0K
16!
0J
1I
03!
0H
1G
00!
0F
1A
0s
0,
1`
04
1h
0+
1a
03
1i
0*
1b
02
1j
1)
0c
11
0k
1N
0M
0L
1K
0I
0G
1O
0N
1M
0O
#1295
0!
0=
0>
#1305
1!
1=
1>
1^
0r
0~
1F
0A
1s
1,
0`
14
0h
1G
#1315
0!
0=
0>
#1325
1!
1=
1>
1]
0^
0"!
0/!
1r
1~
1H
0G
10!
0F
1A
0s
0,
1`
04
1h
1+
0a
13
0i
1I
0H
1G
0I
#1335
0!
0=
0>
#1345
1!
1=
1>
1^
0r
0~
1F
0A
1s
1,
0`
14
0h
1H
0G
1I
#1355
0!
0=
0>
#1365
1!
1=
1>
1\
0]
0^
0}
02!
1"!
1/!
1r
1~
1J
0I
13!
0H
1G
00!
0F
1A
0s
0,
1`
04
1h
0+
1a
03
1i
1*
0b
12
0j
1L
0K
0J
1I
0G
1N
0M
0L
1K
1O
0N
1M
0O
#1375
0!
0=
0>
#1385
1!
1=
1>
1^
0r
0~
1F
0A
1s
1%!
0$!
1,
0`
14
0h
1G
#1395
0!
0=
0>
#1405
1!
1=
1>
1]
0^
0"!
0/!
1r
1~
0%!
1$!
1H
0G
10!
0F
1A
0s
0,
1`
04
1h
1+
0a
13
0i
1J
0I
0H
1G
1L
0K
0J
1I
1N
0M
0L
1K
1O
0N
1M
0O
#1415
0!
0=
0>
#1425
1!
1=
1>
1^
0r
0~
1F
0A
1s
1%!
0$!
1,
0`
14
0h
1H
0G
1J
0I
1L
0K
1N
0M
1O
#1435
0!
0=
0>
#1445
1!
1=
1>
1Y
0Z
0[
0\
0]
0^
0#!
0;!
1|
18!
1!!
15!
1}
12!
1"!
1/!
1r
1~
0%!
1$!
1P
0O
1<!
0N
1M
09!
0L
1K
06!
0J
1I
03!
0H
1G
00!
0F
1A
0s
0,
1`
04
1h
0+
1a
03
1i
0*
1b
02
1j
0)
1c
01
1k
0(
1d
00
1l
1'
0e
1/
0m
1Q
0P
1O
0M
0K
0I
0G
0Q
#1455
0!
0=
0>
#1465
1!
1=
1>
1^
0r
0~
1F
0A
1s
1,
0`
14
0h
1G
#1475
0!
0=
0>
#1485
1!
1=
1>
1]
0^
0"!
0/!
1r
1~
1H
0G
10!
0F
1A
0s
0,
1`
04
1h
1+
0a
13
0i
1I
0H
1G
0I
#1495
0!
0=
0>
#1505
1!
1=
1>
1^
0r
0~
1F
0A
1s
1,
0`
14
0h
1H
0G
1I
#1515
0!
0=
0>
#1525
1!
1=
1>
1\
0]
0^
0}
02!
1"!
1/!
1r
1~
1J
0I
13!
0H
1G
00!
0F
1A
0s
0,
1`
04
1h
0+
1a
03
1i
1*
0b
12
0j
1K
0J
1I
0G
0K
#1535
0!
0=
0>
#1545
1!
1=
1>
1^
0r
0~
1F
0A
1s
1,
0`
14
0h
1G
#1555
0!
0=
0>
#1565
1!
1=
1>
1]
0^
0"!
0/!
1r
1~
1H
0G
10!
0F
1A
0s
0,
1`
04
1h
1+
0a
13
0i
1J
0I
0H
1G
1K
0J
1I
0K
#1575
0!
0=
0>
#1585
1!
1=
1>
1^
0r
0~
1F
0A
1s
1,
0`
14
0h
1H
0G
1J
0I
1K
#1595
0!
0=
0>
#1605
1!
1=
1>
1[
0\
0]
0^
0!!
05!
1}
12!
1"!
1/!
1r
1~
1L
0K
16!
0J
1I
03!
0H
1G
00!
0F
1A
0s
0,
1`
04
1h
0+
1a
03
1i
0*
1b
02
1j
1)
0c
11
0k
1M
0L
1K
0I
0G
0M
#1615
0!
0=
0>
#1625
1!
1=
1>
1^
0r
0~
1F
0A
1s
1,
0`
14
0h
1G
#1635
0!
0=
0>
#1645
1!
1=
1>
1]
0^
0"!
0/!
1r
1~
1H
0G
10!
0F
1A
0s
0,
1`
04
1h
1+
0a
13
0i
1I
0H
1G
0I
#1655
0!
0=
0>
#1665
1!
1=
1>
1^
0r
0~
1F
0A
1s
1,
0`
14
0h
1H
0G
1I
#1675
0!
0=
0>
#1685
1!
1=
1>
1\
0]
0^
0}
02!
1"!
1/!
1r
1~
1J
0I
13!
0H
1G
00!
0F
1A
0s
0,
1`
04
1h
0+
1a
03
1i
1*
0b
12
0j
1L
0K
0J
1I
0G
1M
0L
1K
0M
#1695
0!
0=
0>
#1705
1!
1=
1>
1^
0r
0~
1F
0A
1s
1,
0`
14
0h
1G
#1715
0!
0=
0>
#1725
1!
1=
1>
1]
0^
0"!
0/!
1r
1~
1H
0G
10!
0F
1A
0s
0,
1`
04
1h
1+
0a
13
0i
1J
0I
0H
1G
1L
0K
0J
1I
1M
0L
1K
0M
#1735
0!
0=
0>
#1745
1!
1=
1>
1^
0r
0~
1F
0A
1s
1,
0`
14
0h
1H
0G
1J
0I
1L
0K
1M
#1755
0!
0=
0>
#1765
1!
1=
1>
1Z
0[
0\
0]
0^
0|
08!
1!!
15!
1}
12!
1"!
1/!
1r
1~
1N
0M
19!
0L
1K
06!
0J
1I
03!
0H
1G
00!
0F
1A
0s
0,
1`
04
1h
0+
1a
03
1i
0*
1b
02
1j
0)
1c
01
1k
1(
0d
10
0l
1P
0O
0N
1M
0K
0I
0G
1Q
0P
1O
0Q
#1775
0!
0=
0>
#1785
1!
1=
1>
1^
0r
0~
1F
0A
1s
1,
0`
14
0h
1G
#1795
0!
0=
0>
#1805
1!
1=
1>
1]
0^
0"!
0/!
1r
1~
1H
0G
10!
0F
1A
0s
0,
1`
04
1h
1+
0a
13
0i
1I
0H
1G
0I
#1815
0!
0=
0>
#1825
1!
1=
1>
1^
0r
0~
1F
0A
1s
1,
0`
14
0h
1H
0G
1I
#1835
0!
0=
0>
#1845
1!
1=
1>
1\
0]
0^
0}
02!
1"!
1/!
1r
1~
1J
0I
13!
0H
1G
00!
0F
1A
0s
0,
1`
04
1h
0+
1a
03
1i
1*
0b
12
0j
1K
0J
1I
0G
0K
#1855
0!
0=
0>
#1865
1!
1=
1>
1^
0r
0~
1F
0A
1s
1,
0`
14
0h
1G
#1875
0!
0=
0>
#1885
1!
1=
1>
1]
0^
0"!
0/!
1r
1~
1H
0G
10!
0F
1A
0s
0,
1`
04
1h
1+
0a
13
0i
1J
0I
0H
1G
1K
0J
1I
0K
#1895
0!
0=
0>
#1905
1!
1=
1>
1^
0r
0~
1F
0A
1s
1,
0`
14
0h
1H
0G
1J
0I
1K
#1915
0!
0=
0>
#1925
1!
1=
1>
1[
0\
0]
0^
0!!
05!
1}
12!
1"!
1/!
1r
1~
1L
0K
16!
0J
1I
03!
0H
1G
00!
0F
1A
0s
0,
1`
04
1h
0+
1a
03
1i
0*
1b
02
1j
1)
0c
11
0k
1N
0M
0L
1K
0I
0G
1P
0O
0N
1M
1Q
0P
1O
0Q
#1935
0!
0=
0>
#1945
1!
1=
1>
1^
0r
0~
1F
0A
1s
1,
0`
14
0h
1G
#1955
0!
0=
0>
#1965
1!
1=
1>
1]
0^
0"!
0/!
1r
1~
1H
0G
10!
0F
1A
0s
0,
1`
04
1h
1+
0a
13
0i
1I
0H
1G
0I
#1975
0!
0=
0>
#1985
1!
1=
1>
1^
0r
0~
1F
0A
1s
1,
0`
14
0h
1H
0G
1I
#1995
0!
0=
0>
#2005
1!
1=
1>
1\
0]
0^
0}
02!
1"!
1/!
1r
1~
1J
0I
13!
0H
1G
00!
0F
1A
0s
0,
1`
04
1h
0+
1a
03
1i
1*
0b
12
0j
1L
0K
0J
1I
0G
1N
0M
0L
1K
1P
0O
0N
1M
1Q
0P
1O
0Q
#2015
0!
0=
0>
#2025
1!
1=
1>
1^
0r
0~
1F
0A
1s
1%!
0$!
1,
0`
14
0h
1G
#2035
0!
0=
0>
#2045
1!
1=
1>
1]
0^
0"!
0/!
1r
1~
0%!
1$!
1H
0G
10!
0F
1A
0s
0,
1`
04
1h
1+
0a
13
0i
1J
0I
0H
1G
1L
0K
0J
1I
1N
0M
0L
1K
1P
0O
0N
1M
1Q
0P
1O
0Q
#2055
0!
0=
0>
#2065
1!
1=
1>
1^
0r
0~
1F
0A
1s
1%!
0$!
1D
1,
0`
14
0h
0+!
0C!
1H
0G
1J
0I
1L
0K
1N
0M
1P
0O
1Q
#2075
0!
0=
0>
#2085
1!
1=
1>
1X
0Y
0Z
0[
0\
0]
0^
0u
0'!
0A!
1#!
1;!
1|
18!
1!!
15!
1}
12!
1"!
1/!
1r
1~
1B
0Q
1v
1-!
0,!
0D!
0%!
1$!
0D
0P
1O
0<!
0N
1M
09!
0L
1K
06!
0J
1I
03!
0H
1G
00!
0F
1A
0s
0,
1`
04
1h
0+
1a
03
1i
0*
1b
02
1j
0)
1c
01
1k
0(
1d
00
1l
0'
1e
0/
1m
1&
0f
1.
0n
1+!
1C!
1C
0B
1Q
0O
0M
0K
0I
0G
0C
#2095
0!
0=
0>
#2105
1!
1=
1>
1^
0r
0~
1F
0A
1s
1,
0`
14
0h
1G
#2115
0!
0=
0>
#2125
1!
1=
1>
1]
0^
0"!
0/!
1r
1~
1H
0G
10!
0F
1A
0s
0,
1`
04
1h
1+
0a
13
0i
1I
0H
1G
0I
#2135
0!
0=
0>
#2145
1!
1=
1>
1^
0r
0~
1F
0A
1s
1,
0`
14
0h
1H
0G
1I
#2155
0!
0=
0>
#2165
1!
1=
1>
1\
0]
0^
0}
02!
1"!
1/!
1r
1~
1J
0I
13!
0H
1G
00!
0F
1A
0s
0,
1`
04
1h
0+
1a
03
1i
1*
0b
12
0j
1K
0J
1I
0G
0K
#2175
0!
0=
0>
#2185
1!
1=
1>
1^
0r
0~
1F
0A
1s
1,
0`
14
0h
1G
#2195
0!
0=
0>
#2205
1!
1=
1>
1]
0^
0"!
0/!
1r
1~
1H
0G
10!
0F
1A
0s
0,
1`
04
1h
1+
0a
13
0i
1J
0I
0H
1G
1K
0J
1I
0K
#2215
0!
0=
0>
#2225
1!
1=
1>
1^
0r
0~
1F
0A
1s
1,
0`
14
0h
1H
0G
1J
0I
1K
#2235
0!
0=
0>
