lab3/task1/init.rtl.vcd
$date
	Thu Nov 19 07:09:40 2020
$end
$version
	ModelSim Version 10.7c
$end
$timescale
	1ps
$end

$scope module init_ag $end

$scope module dut $end
$var wire 1 ! clk $end
$var wire 1 " rst_n $end
$var wire 1 # en $end
$var reg 1 $ rdy $end
$var reg 8 % addr [7:0] $end
$var reg 8 & wrdata [7:0] $end
$var reg 1 ' wren $end
$var reg 1 ( state $end
$var reg 1 ) rdy_out $end
$var reg 1 * wren_out $end
$var reg 8 + count [7:0] $end
$upscope $end
$upscope $end
$enddefinitions $end
#0
$dumpvars
x$
bx %
bx &
x'
x(
x)
x*
bx +
0#
0"
0!
$end
#5
1!
b0 +
0(
0*
0)
0$
0'
b0 %
b0 &
#15
0!
#25
1!
#35
0!
#45
1!
#55
0!
#65
1!
#75
0!
#85
1!
#95
0!
#105
1!
#115
0!
#125
1!
#135
0!
#145
1!
#155
0!
#165
1!
#175
0!
#185
1!
#195
0!
#205
1!
#215
0!
#225
1!
#235
0!
#245
1!
#255
0!
#265
1!
#275
0!
#285
1!
#295
0!
#305
1!
#315
0!
#325
1!
#335
0!
#345
1!
#355
0!
#365
1!
#375
0!
#385
1!
#395
0!
#400
1"
#405
1!
1)
1$
#415
0!
#425
1!
#435
0!
#445
1!
#455
0!
#465
1!
#475
0!
#485
1!
#495
0!
#505
1!
#515
0!
#525
1!
#535
0!
#545
1!
#555
0!
#565
1!
#575
0!
#585
1!
#595
0!
#605
1!
#615
0!
#625
1!
#635
0!
#645
1!
#655
0!
#665
1!
#675
0!
#685
1!
#695
0!
#705
1!
#715
0!
#725
1!
#735
0!
#745
1!
#755
0!
#765
1!
#775
0!
#785
1!
#795
0!
#800
1#
#805
1!
1(
1*
0)
0$
1'
#815
0!
#820
0#
#825
1!
b1 +
b1 %
b1 &
#835
0!
#845
1!
b10 +
b10 %
b10 &
#855
0!
#865
1!
b11 +
b11 %
b11 &
#875
0!
#885
1!
b100 +
b100 %
b100 &
#895
0!
#905
1!
b101 +
b101 %
b101 &
#915
0!
#925
1!
b110 +
b110 %
b110 &
#935
0!
#945
1!
b111 +
b111 %
b111 &
#955
0!
#965
1!
b1000 +
b1000 %
b1000 &
#975
0!
#985
1!
b1001 +
b1001 %
b1001 &
#995
0!
#1005
1!
b1010 +
b1010 %
b1010 &
#1015
0!
#1025
1!
b1011 +
b1011 %
b1011 &
#1035
0!
#1045
1!
b1100 +
b1100 %
b1100 &
#1055
0!
#1065
1!
b1101 +
b1101 %
b1101 &
#1075
0!
#1085
1!
b1110 +
b1110 %
b1110 &
#1095
0!
#1105
1!
b1111 +
b1111 %
b1111 &
#1115
0!
#1125
1!
b10000 +
b10000 %
b10000 &
#1135
0!
#1145
1!
b10001 +
b10001 %
b10001 &
#1155
0!
#1165
1!
b10010 +
b10010 %
b10010 &
#1175
0!
#1185
1!
b10011 +
b10011 %
b10011 &
#1195
0!
#1205
1!
b10100 +
b10100 %
b10100 &
#1215
0!
#1225
1!
b10101 +
b10101 %
b10101 &
#1235
0!
#1245
1!
b10110 +
b10110 %
b10110 &
#1255
0!
#1265
1!
b10111 +
b10111 %
b10111 &
#1275
0!
#1285
1!
b11000 +
b11000 %
b11000 &
#1295
0!
#1305
1!
b11001 +
b11001 %
b11001 &
#1315
0!
#1325
1!
b11010 +
b11010 %
b11010 &
#1335
0!
#1345
1!
b11011 +
b11011 %
b11011 &
#1355
0!
#1365
1!
b11100 +
b11100 %
b11100 &
#1375
0!
#1385
1!
b11101 +
b11101 %
b11101 &
#1395
0!
#1405
1!
b11110 +
b11110 %
b11110 &
#1415
0!
#1425
1!
b11111 +
b11111 %
b11111 &
#1435
0!
#1445
1!
b100000 +
b100000 %
b100000 &
#1455
0!
#1465
1!
b100001 +
b100001 %
b100001 &
#1475
0!
#1485
1!
b100010 +
b100010 %
b100010 &
#1495
0!
#1505
1!
b100011 +
b100011 %
b100011 &
#1515
0!
#1525
1!
b100100 +
b100100 %
b100100 &
#1535
0!
#1545
1!
b100101 +
b100101 %
b100101 &
#1555
0!
#1565
1!
b100110 +
b100110 %
b100110 &
#1575
0!
#1585
1!
b100111 +
b100111 %
b100111 &
#1595
0!
#1605
1!
b101000 +
b101000 %
b101000 &
#1615
0!
#1625
1!
b101001 +
b101001 %
b101001 &
#1635
0!
#1645
1!
b101010 +
b101010 %
b101010 &
#1655
0!
#1665
1!
b101011 +
b101011 %
b101011 &
#1675
0!
#1685
1!
b101100 +
b101100 %
b101100 &
#1695
0!
#1705
1!
b101101 +
b101101 %
b101101 &
#1715
0!
#1725
1!
b101110 +
b101110 %
b101110 &
#1735
0!
#1745
1!
b101111 +
b101111 %
b101111 &
#1755
0!
#1765
1!
b110000 +
b110000 %
b110000 &
#1775
0!
#1785
1!
b110001 +
b110001 %
b110001 &
#1795
0!
#1805
1!
b110010 +
b110010 %
b110010 &
#1815
0!
#1825
1!
b110011 +
b110011 %
b110011 &
#1835
0!
#1845
1!
b110100 +
b110100 %
b110100 &
#1855
0!
#1865
1!
b110101 +
b110101 %
b110101 &
#1875
0!
#1885
1!
b110110 +
b110110 %
b110110 &
#1895
0!
#1905
1!
b110111 +
b110111 %
b110111 &
#1915
0!
#1925
1!
b111000 +
b111000 %
b111000 &
#1935
0!
#1945
1!
b111001 +
b111001 %
b111001 &
#1955
0!
#1965
1!
b111010 +
b111010 %
b111010 &
#1975
0!
#1985
1!
b111011 +
b111011 %
b111011 &
#1995
0!
#2005
1!
b111100 +
b111100 %
b111100 &
#2015
0!
#2025
1!
b111101 +
b111101 %
b111101 &
#2035
0!
#2045
1!
b111110 +
b111110 %
b111110 &
#2055
0!
#2065
1!
b111111 +
b111111 %
b111111 &
#2075
0!
#2085
1!
b1000000 +
b1000000 %
b1000000 &
#2095
0!
#2105
1!
b1000001 +
b1000001 %
b1000001 &
#2115
0!
#2125
1!
b1000010 +
b1000010 %
b1000010 &
#2135
0!
#2145
1!
b1000011 +
b1000011 %
b1000011 &
#2155
0!
#2165
1!
b1000100 +
b1000100 %
b1000100 &
#2175
0!
#2185
1!
b1000101 +
b1000101 %
b1000101 &
#2195
0!
#2205
1!
b1000110 +
b1000110 %
b1000110 &
#2215
0!
#2225
1!
b1000111 +
b1000111 %
b1000111 &
#2235
0!
#2245
1!
b1001000 +
b1001000 %
b1001000 &
#2255
0!
#2265
1!
b1001001 +
b1001001 %
b1001001 &
#2275
0!
#2285
1!
b1001010 +
b1001010 %
b1001010 &
#2295
0!
#2305
1!
b1001011 +
b1001011 %
b1001011 &
#2315
0!
#2325
1!
b1001100 +
b1001100 %
b1001100 &
#2335
0!
#2345
1!
b1001101 +
b1001101 %
b1001101 &
#2355
0!
#2365
1!
b1001110 +
b1001110 %
b1001110 &
#2375
0!
#2385
1!
b1001111 +
b1001111 %
b1001111 &
#2395
0!
#2405
1!
b1010000 +
b1010000 %
b1010000 &
#2415
0!
#2425
1!
b1010001 +
b1010001 %
b1010001 &
#2435
0!
#2445
1!
b1010010 +
b1010010 %
b1010010 &
#2455
0!
#2465
1!
b1010011 +
b1010011 %
b1010011 &
#2475
0!
#2485
1!
b1010100 +
b1010100 %
b1010100 &
#2495
0!
#2505
1!
b1010101 +
b1010101 %
b1010101 &
#2515
0!
#2525
1!
b1010110 +
b1010110 %
b1010110 &
#2535
0!
#2545
1!
b1010111 +
b1010111 %
b1010111 &
#2555
0!
#2565
1!
b1011000 +
b1011000 %
b1011000 &
#2575
0!
#2585
1!
b1011001 +
b1011001 %
b1011001 &
#2595
0!
#2605
1!
b1011010 +
b1011010 %
b1011010 &
#2615
0!
#2625
1!
b1011011 +
b1011011 %
b1011011 &
#2635
0!
#2645
1!
b1011100 +
b1011100 %
b1011100 &
#2655
0!
#2665
1!
b1011101 +
b1011101 %
b1011101 &
#2675
0!
#2685
1!
b1011110 +
b1011110 %
b1011110 &
#2695
0!
#2705
1!
b1011111 +
b1011111 %
b1011111 &
#2715
0!
#2725
1!
b1100000 +
b1100000 %
b1100000 &
#2735
0!
#2745
1!
b1100001 +
b1100001 %
b1100001 &
#2755
0!
#2765
1!
b1100010 +
b1100010 %
b1100010 &
#2775
0!
#2785
1!
b1100011 +
b1100011 %
b1100011 &
#2795
0!
#2805
1!
b1100100 +
b1100100 %
b1100100 &
#2815
0!
#2825
1!
b1100101 +
b1100101 %
b1100101 &
#2835
0!
#2845
1!
b1100110 +
b1100110 %
b1100110 &
#2855
0!
#2865
1!
b1100111 +
b1100111 %
b1100111 &
#2875
0!
#2885
1!
b1101000 +
b1101000 %
b1101000 &
#2895
0!
#2905
1!
b1101001 +
b1101001 %
b1101001 &
#2915
0!
#2925
1!
b1101010 +
b1101010 %
b1101010 &
#2935
0!
#2945
1!
b1101011 +
b1101011 %
b1101011 &
#2955
0!
#2965
1!
b1101100 +
b1101100 %
b1101100 &
#2975
0!
#2985
1!
b1101101 +
b1101101 %
b1101101 &
#2995
0!
#3005
1!
b1101110 +
b1101110 %
b1101110 &
#3015
0!
#3025
1!
b1101111 +
b1101111 %
b1101111 &
#3035
0!
#3045
1!
b1110000 +
b1110000 %
b1110000 &
#3055
0!
#3065
1!
b1110001 +
b1110001 %
b1110001 &
#3075
0!
#3085
1!
b1110010 +
b1110010 %
b1110010 &
#3095
0!
#3105
1!
b1110011 +
b1110011 %
b1110011 &
#3115
0!
#3125
1!
b1110100 +
b1110100 %
b1110100 &
#3135
0!
#3145
1!
b1110101 +
b1110101 %
b1110101 &
#3155
0!
#3165
1!
b1110110 +
b1110110 %
b1110110 &
#3175
0!
#3185
1!
b1110111 +
b1110111 %
b1110111 &
#3195
0!
#3205
1!
b1111000 +
b1111000 %
b1111000 &
#3215
0!
#3225
1!
b1111001 +
b1111001 %
b1111001 &
#3235
0!
#3245
1!
b1111010 +
b1111010 %
b1111010 &
#3255
0!
#3265
1!
b1111011 +
b1111011 %
b1111011 &
#3275
0!
#3285
1!
b1111100 +
b1111100 %
b1111100 &
#3295
0!
#3305
1!
b1111101 +
b1111101 %
b1111101 &
#3315
0!
#3325
1!
b1111110 +
b1111110 %
b1111110 &
#3335
0!
#3345
1!
b1111111 +
b1111111 %
b1111111 &
#3355
0!
#3365
1!
b10000000 +
b10000000 %
b10000000 &
#3375
0!
#3385
1!
b10000001 +
b10000001 %
b10000001 &
#3395
0!
#3405
1!
b10000010 +
b10000010 %
b10000010 &
#3415
0!
#3425
1!
b10000011 +
b10000011 %
b10000011 &
#3435
0!
#3445
1!
b10000100 +
b10000100 %
b10000100 &
#3455
0!
#3465
1!
b10000101 +
b10000101 %
b10000101 &
#3475
0!
#3485
1!
b10000110 +
b10000110 %
b10000110 &
#3495
0!
#3505
1!
b10000111 +
b10000111 %
b10000111 &
#3515
0!
#3525
1!
b10001000 +
b10001000 %
b10001000 &
#3535
0!
#3545
1!
b10001001 +
b10001001 %
b10001001 &
#3555
0!
#3565
1!
b10001010 +
b10001010 %
b10001010 &
#3575
0!
#3585
1!
b10001011 +
b10001011 %
b10001011 &
#3595
0!
#3605
1!
b10001100 +
b10001100 %
b10001100 &
#3615
0!
#3625
1!
b10001101 +
b10001101 %
b10001101 &
#3635
0!
#3645
1!
b10001110 +
b10001110 %
b10001110 &
#3655
0!
#3665
1!
b10001111 +
b10001111 %
b10001111 &
#3675
0!
#3685
1!
b10010000 +
b10010000 %
b10010000 &
#3695
0!
#3705
1!
b10010001 +
b10010001 %
b10010001 &
#3715
0!
#3725
1!
b10010010 +
b10010010 %
b10010010 &
#3735
0!
#3745
1!
b10010011 +
b10010011 %
b10010011 &
#3755
0!
#3765
1!
b10010100 +
b10010100 %
b10010100 &
#3775
0!
#3785
1!
b10010101 +
b10010101 %
b10010101 &
#3795
0!
#3805
1!
b10010110 +
b10010110 %
b10010110 &
#3815
0!
#3825
1!
b10010111 +
b10010111 %
b10010111 &
#3835
0!
#3845
1!
b10011000 +
b10011000 %
b10011000 &
#3855
0!
#3865
1!
b10011001 +
b10011001 %
b10011001 &
#3875
0!
#3885
1!
b10011010 +
b10011010 %
b10011010 &
#3895
0!
#3905
1!
b10011011 +
b10011011 %
b10011011 &
#3915
0!
#3925
1!
b10011100 +
b10011100 %
b10011100 &
#3935
0!
#3945
1!
b10011101 +
b10011101 %
b10011101 &
#3955
0!
#3965
1!
b10011110 +
b10011110 %
b10011110 &
#3975
0!
#3985
1!
b10011111 +
b10011111 %
b10011111 &
#3995
0!
#4005
1!
b10100000 +
b10100000 %
b10100000 &
#4015
0!
#4025
1!
b10100001 +
b10100001 %
b10100001 &
#4035
0!
#4045
1!
b10100010 +
b10100010 %
b10100010 &
#4055
0!
#4065
1!
b10100011 +
b10100011 %
b10100011 &
#4075
0!
#4085
1!
b10100100 +
b10100100 %
b10100100 &
#4095
0!
#4105
1!
b10100101 +
b10100101 %
b10100101 &
#4115
0!
#4125
1!
b10100110 +
b10100110 %
b10100110 &
#4135
0!
#4145
1!
b10100111 +
b10100111 %
b10100111 &
#4155
0!
#4165
1!
b10101000 +
b10101000 %
b10101000 &
#4175
0!
#4185
1!
b10101001 +
b10101001 %
b10101001 &
#4195
0!
#4205
1!
b10101010 +
b10101010 %
b10101010 &
#4215
0!
#4225
1!
b10101011 +
b10101011 %
b10101011 &
#4235
0!
#4245
1!
b10101100 +
b10101100 %
b10101100 &
#4255
0!
#4265
1!
b10101101 +
b10101101 %
b10101101 &
#4275
0!
#4285
1!
b10101110 +
b10101110 %
b10101110 &
#4295
0!
#4305
1!
b10101111 +
b10101111 %
b10101111 &
#4315
0!
#4325
1!
b10110000 +
b10110000 %
b10110000 &
#4335
0!
#4345
1!
b10110001 +
b10110001 %
b10110001 &
#4355
0!
#4365
1!
b10110010 +
b10110010 %
b10110010 &
#4375
0!
#4385
1!
b10110011 +
b10110011 %
b10110011 &
#4395
0!
#4405
1!
b10110100 +
b10110100 %
b10110100 &
#4415
0!
#4425
1!
b10110101 +
b10110101 %
b10110101 &
#4435
0!
#4445
1!
b10110110 +
b10110110 %
b10110110 &
#4455
0!
#4465
1!
b10110111 +
b10110111 %
b10110111 &
#4475
0!
#4485
1!
b10111000 +
b10111000 %
b10111000 &
#4495
0!
#4505
1!
b10111001 +
b10111001 %
b10111001 &
#4515
0!
#4525
1!
b10111010 +
b10111010 %
b10111010 &
#4535
0!
#4545
1!
b10111011 +
b10111011 %
b10111011 &
#4555
0!
#4565
1!
b10111100 +
b10111100 %
b10111100 &
#4575
0!
#4585
1!
b10111101 +
b10111101 %
b10111101 &
#4595
0!
#4605
1!
b10111110 +
b10111110 %
b10111110 &
#4615
0!
#4625
1!
b10111111 +
b10111111 %
b10111111 &
#4635
0!
#4645
1!
b11000000 +
b11000000 %
b11000000 &
#4655
0!
#4665
1!
b11000001 +
b11000001 %
b11000001 &
#4675
0!
#4685
1!
b11000010 +
b11000010 %
b11000010 &
#4695
0!
#4705
1!
b11000011 +
b11000011 %
b11000011 &
#4715
0!
#4725
1!
b11000100 +
b11000100 %
b11000100 &
#4735
0!
#4745
1!
b11000101 +
b11000101 %
b11000101 &
#4755
0!
#4765
1!
b11000110 +
b11000110 %
b11000110 &
#4775
0!
#4785
1!
b11000111 +
b11000111 %
b11000111 &
#4795
0!
#4805
1!
b11001000 +
b11001000 %
b11001000 &
#4815
0!
#4825
1!
b11001001 +
b11001001 %
b11001001 &
#4835
0!
#4845
1!
b11001010 +
b11001010 %
b11001010 &
#4855
0!
#4865
1!
b11001011 +
b11001011 %
b11001011 &
#4875
0!
#4885
1!
b11001100 +
b11001100 %
b11001100 &
#4895
0!
#4905
1!
b11001101 +
b11001101 %
b11001101 &
#4915
0!
#4925
1!
b11001110 +
b11001110 %
b11001110 &
#4935
0!
#4945
1!
b11001111 +
b11001111 %
b11001111 &
#4955
0!
#4965
1!
b11010000 +
b11010000 %
b11010000 &
#4975
0!
#4985
1!
b11010001 +
b11010001 %
b11010001 &
#4995
0!
#5005
1!
b11010010 +
b11010010 %
b11010010 &
#5015
0!
#5025
1!
b11010011 +
b11010011 %
b11010011 &
#5035
0!
#5045
1!
b11010100 +
b11010100 %
b11010100 &
#5055
0!
#5065
1!
b11010101 +
b11010101 %
b11010101 &
#5075
0!
#5085
1!
b11010110 +
b11010110 %
b11010110 &
#5095
0!
#5105
1!
b11010111 +
b11010111 %
b11010111 &
#5115
0!
#5125
1!
b11011000 +
b11011000 %
b11011000 &
#5135
0!
#5145
1!
b11011001 +
b11011001 %
b11011001 &
#5155
0!
#5165
1!
b11011010 +
b11011010 %
b11011010 &
#5175
0!
#5185
1!
b11011011 +
b11011011 %
b11011011 &
#5195
0!
#5205
1!
b11011100 +
b11011100 %
b11011100 &
#5215
0!
#5225
1!
b11011101 +
b11011101 %
b11011101 &
#5235
0!
#5245
1!
b11011110 +
b11011110 %
b11011110 &
#5255
0!
#5265
1!
b11011111 +
b11011111 %
b11011111 &
#5275
0!
#5285
1!
b11100000 +
b11100000 %
b11100000 &
#5295
0!
#5305
1!
b11100001 +
b11100001 %
b11100001 &
#5315
0!
#5325
1!
b11100010 +
b11100010 %
b11100010 &
#5335
0!
#5345
1!
b11100011 +
b11100011 %
b11100011 &
#5355
0!
#5365
1!
b11100100 +
b11100100 %
b11100100 &
#5375
0!
#5385
1!
b11100101 +
b11100101 %
b11100101 &
#5395
0!
#5405
1!
b11100110 +
b11100110 %
b11100110 &
#5415
0!
#5425
1!
b11100111 +
b11100111 %
b11100111 &
#5435
0!
#5445
1!
b11101000 +
b11101000 %
b11101000 &
#5455
0!
#5465
1!
b11101001 +
b11101001 %
b11101001 &
#5475
0!
#5485
1!
b11101010 +
b11101010 %
b11101010 &
#5495
0!
#5505
1!
b11101011 +
b11101011 %
b11101011 &
#5515
0!
#5525
1!
b11101100 +
b11101100 %
b11101100 &
#5535
0!
#5545
1!
b11101101 +
b11101101 %
b11101101 &
#5555
0!
#5565
1!
b11101110 +
b11101110 %
b11101110 &
#5575
0!
#5585
1!
b11101111 +
b11101111 %
b11101111 &
#5595
0!
#5605
1!
b11110000 +
b11110000 %
b11110000 &
#5615
0!
#5625
1!
b11110001 +
b11110001 %
b11110001 &
#5635
0!
#5645
1!
b11110010 +
b11110010 %
b11110010 &
#5655
0!
#5665
1!
b11110011 +
b11110011 %
b11110011 &
#5675
0!
#5685
1!
b11110100 +
b11110100 %
b11110100 &
#5695
0!
#5705
1!
b11110101 +
b11110101 %
b11110101 &
#5715
0!
#5725
1!
b11110110 +
b11110110 %
b11110110 &
#5735
0!
#5745
1!
b11110111 +
b11110111 %
b11110111 &
#5755
0!
#5765
1!
b11111000 +
b11111000 %
b11111000 &
#5775
0!
#5785
1!
b11111001 +
b11111001 %
b11111001 &
#5795
0!
#5805
1!
b11111010 +
b11111010 %
b11111010 &
#5815
0!
#5825
1!
b11111011 +
b11111011 %
b11111011 &
#5835
0!
#5845
1!
b11111100 +
b11111100 %
b11111100 &
#5855
0!
#5865
1!
b11111101 +
b11111101 %
b11111101 &
#5875
0!
#5885
1!
b11111110 +
b11111110 %
b11111110 &
#5895
0!
#5905
1!
b11111111 +
b11111111 %
b11111111 &
#5915
0!
#5925
1!
b0 +
0(
0*
0'
b0 %
b0 &
#5935
0!
#5945
1!
1)
1$
