lab3/task1/task1.rtl.vcd
$date
	Thu Nov 19 07:09:45 2020
$end
$version
	ModelSim Version 10.7c
$end
$timescale
	1ps
$end

$scope module task1_ag $end

$scope module dut $end
$var wire 1 ! CLOCK_50 $end
$var wire 1 " KEY [3] $end
$var wire 1 # KEY [2] $end
$var wire 1 $ KEY [1] $end
$var wire 1 % KEY [0] $end
$var wire 1 & SW [9] $end
$var wire 1 ' SW [8] $end
$var wire 1 ( SW [7] $end
$var wire 1 ) SW [6] $end
$var wire 1 * SW [5] $end
$var wire 1 + SW [4] $end
$var wire 1 , SW [3] $end
$var wire 1 - SW [2] $end
$var wire 1 . SW [1] $end
$var wire 1 / SW [0] $end
$var reg 7 0 HEX0 [6:0] $end
$var reg 7 1 HEX1 [6:0] $end
$var reg 7 2 HEX2 [6:0] $end
$var reg 7 3 HEX3 [6:0] $end
$var reg 7 4 HEX4 [6:0] $end
$var reg 7 5 HEX5 [6:0] $end
$var reg 10 6 LEDR [9:0] $end
$var reg 1 7 rst_n $end
$var reg 1 8 en $end
$var reg 1 9 rdy $end
$var reg 1 : wren $end
$var reg 1 ; enabled $end
$var reg 8 < addr [7:0] $end
$var reg 8 = wrdata [7:0] $end
$var reg 8 > q [7:0] $end

$scope module i $end
$var wire 1 ! clk $end
$var wire 1 ? rst_n $end
$var wire 1 @ en $end
$var reg 1 A rdy $end
$var reg 8 B addr [7:0] $end
$var reg 8 C wrdata [7:0] $end
$var reg 1 D wren $end
$var reg 1 E state $end
$var reg 1 F rdy_out $end
$var reg 1 G wren_out $end
$var reg 8 H count [7:0] $end
$upscope $end

$scope module s $end
$var wire 1 I address [7] $end
$var wire 1 J address [6] $end
$var wire 1 K address [5] $end
$var wire 1 L address [4] $end
$var wire 1 M address [3] $end
$var wire 1 N address [2] $end
$var wire 1 O address [1] $end
$var wire 1 P address [0] $end
$var tri1 1 ! clock $end
$var wire 1 Q data [7] $end
$var wire 1 R data [6] $end
$var wire 1 S data [5] $end
$var wire 1 T data [4] $end
$var wire 1 U data [3] $end
$var wire 1 V data [2] $end
$var wire 1 W data [1] $end
$var wire 1 X data [0] $end
$var wire 1 Y wren $end
$var wire 1 Z q [7] $end
$var wire 1 [ q [6] $end
$var wire 1 \ q [5] $end
$var wire 1 ] q [4] $end
$var wire 1 ^ q [3] $end
$var wire 1 _ q [2] $end
$var wire 1 ` q [1] $end
$var wire 1 a q [0] $end
$var wire 1 b sub_wire0 [7] $end
$var wire 1 c sub_wire0 [6] $end
$var wire 1 d sub_wire0 [5] $end
$var wire 1 e sub_wire0 [4] $end
$var wire 1 f sub_wire0 [3] $end
$var wire 1 g sub_wire0 [2] $end
$var wire 1 h sub_wire0 [1] $end
$var wire 1 i sub_wire0 [0] $end

$scope module altsyncram_component $end
$var tri0 1 Y wren_a $end
$var tri0 1 j wren_b $end
$var tri1 1 k rden_a $end
$var tri1 1 l rden_b $end
$var tri1 1 ! clock0 $end
$var tri1 1 m clocken0 $end
$var tri1 1 n clocken1 $end
$var tri1 1 o clocken2 $end
$var tri1 1 p clocken3 $end
$var tri0 1 q aclr0 $end
$var tri0 1 r aclr1 $end
$var tri1 1 s byteena_a [0] $end
$var tri1 1 t byteena_b [0] $end
$var tri0 1 u addressstall_a $end
$var tri0 1 v addressstall_b $end

$scope begin m_default $end

$scope module altsyncram_inst $end
$var reg 2048 w ram_initf [2048:1] $end
$var tri1 1 x i_byteena_a [0] $end

$scope module mem $end

$scope task convert_to_ver_file $end
$var reg 2048 y in_file [2048:1] $end
$var integer 32 z width $end
$var reg 2048 { out_file [2048:1] $end
$upscope $end
$upscope $end
$upscope $end
$upscope $end
$upscope $end
$upscope $end
$upscope $end
$upscope $end
$enddefinitions $end
#0
$dumpvars
bx 0
bx 1
bx 2
bx 3
bx 4
bx 5
bx 6
07
x8
x9
x:
x;
bx <
bx =
b0 >
xA
bx B
bx C
xD
xE
xF
xG
bx H
bx w
bx y
bx {
bx z
0i
0h
0g
0f
0e
0d
0c
0b
1x
x%
x$
x#
0"
0!
z/
z.
z-
z,
z+
z*
z)
z(
z'
z&
xY
xX
xW
xV
xU
xT
xS
xR
xQ
xP
xO
xN
xM
xL
xK
xJ
xI
x@
0?
0a
0`
0_
0^
0]
0\
0[
0Z
0v
0u
1t
1s
0r
0q
1p
1o
1n
1m
1l
1k
0j
$end
#1
1!
0;
b0 H
0E
0G
0F
0A
0D
b0 B
b0 C
b0 =
b0 <
0:
09
08
0P
0O
0N
0M
0L
0K
0J
0I
0X
0W
0V
0U
0T
0S
0R
0Q
0Y
0@
xi
xh
xg
xf
xe
xd
xc
xb
xa
x`
x_
x^
x]
x\
x[
xZ
bx >
#2
1"
17
1?
0!
#3
1!
1F
1A
19
18
1@
0i
0h
0g
0f
0e
0d
0c
0b
0a
0`
0_
0^
0]
0\
0[
0Z
b0 >
#4
0!
#5
1!
1;
1E
1G
0F
0A
1D
08
1:
09
0@
1Y
#6
0!
#7
1!
b1 H
b1 B
b1 C
b1 =
b1 <
1P
1X
#8
0!
#9
1!
b10 H
b10 B
b10 C
b10 =
b10 <
0P
1O
0X
1W
1i
1a
b1 >
#10
0!
#11
1!
b11 H
b11 B
b11 C
b11 =
b11 <
1P
1X
0i
1h
0a
1`
b10 >
#12
0!
#13
1!
b100 H
b100 B
b100 C
b100 =
b100 <
0P
0O
1N
0X
0W
1V
1i
1a
b11 >
#14
0!
#15
1!
b101 H
b101 B
b101 C
b101 =
b101 <
1P
1X
0i
0h
1g
0a
0`
1_
b100 >
#16
0!
#17
1!
b110 H
b110 B
b110 C
b110 =
b110 <
0P
1O
0X
1W
1i
1a
b101 >
#18
0!
#19
1!
b111 H
b111 B
b111 C
b111 =
b111 <
1P
1X
0i
1h
0a
1`
b110 >
#20
0!
#21
1!
b1000 H
b1000 B
b1000 C
b1000 =
b1000 <
0P
0O
0N
1M
0X
0W
0V
1U
1i
1a
b111 >
#22
0!
#23
1!
b1001 H
b1001 B
b1001 C
b1001 =
b1001 <
1P
1X
0i
0h
0g
1f
0a
0`
0_
1^
b1000 >
#24
0!
#25
1!
b1010 H
b1010 B
b1010 C
b1010 =
b1010 <
0P
1O
0X
1W
1i
1a
b1001 >
#26
0!
#27
1!
b1011 H
b1011 B
b1011 C
b1011 =
b1011 <
1P
1X
0i
1h
0a
1`
b1010 >
#28
0!
#29
1!
b1100 H
b1100 B
b1100 C
b1100 =
b1100 <
0P
0O
1N
0X
0W
1V
1i
1a
b1011 >
#30
0!
#31
1!
b1101 H
b1101 B
b1101 C
b1101 =
b1101 <
1P
1X
0i
0h
1g
0a
0`
1_
b1100 >
#32
0!
#33
1!
b1110 H
b1110 B
b1110 C
b1110 =
b1110 <
0P
1O
0X
1W
1i
1a
b1101 >
#34
0!
#35
1!
b1111 H
b1111 B
b1111 C
b1111 =
b1111 <
1P
1X
0i
1h
0a
1`
b1110 >
#36
0!
#37
1!
b10000 H
b10000 B
b10000 C
b10000 =
b10000 <
0P
0O
0N
0M
1L
0X
0W
0V
0U
1T
1i
1a
b1111 >
#38
0!
#39
1!
b10001 H
b10001 B
b10001 C
b10001 =
b10001 <
1P
1X
0i
0h
0g
0f
1e
0a
0`
0_
0^
1]
b10000 >
#40
0!
#41
1!
b10010 H
b10010 B
b10010 C
b10010 =
b10010 <
0P
1O
0X
1W
1i
1a
b10001 >
#42
0!
#43
1!
b10011 H
b10011 B
b10011 C
b10011 =
b10011 <
1P
1X
0i
1h
0a
1`
b10010 >
#44
0!
#45
1!
b10100 H
b10100 B
b10100 C
b10100 =
b10100 <
0P
0O
1N
0X
0W
1V
1i
1a
b10011 >
#46
0!
#47
1!
b10101 H
b10101 B
b10101 C
b10101 =
b10101 <
1P
1X
0i
0h
1g
0a
0`
1_
b10100 >
#48
0!
#49
1!
b10110 H
b10110 B
b10110 C
b10110 =
b10110 <
0P
1O
0X
1W
1i
1a
b10101 >
#50
0!
#51
1!
b10111 H
b10111 B
b10111 C
b10111 =
b10111 <
1P
1X
0i
1h
0a
1`
b10110 >
#52
0!
#53
1!
b11000 H
b11000 B
b11000 C
b11000 =
b11000 <
0P
0O
0N
1M
0X
0W
0V
1U
1i
1a
b10111 >
#54
0!
#55
1!
b11001 H
b11001 B
b11001 C
b11001 =
b11001 <
1P
1X
0i
0h
0g
1f
0a
0`
0_
1^
b11000 >
#56
0!
#57
1!
b11010 H
b11010 B
b11010 C
b11010 =
b11010 <
0P
1O
0X
1W
1i
1a
b11001 >
#58
0!
#59
1!
b11011 H
b11011 B
b11011 C
b11011 =
b11011 <
1P
1X
0i
1h
0a
1`
b11010 >
#60
0!
#61
1!
b11100 H
b11100 B
b11100 C
b11100 =
b11100 <
0P
0O
1N
0X
0W
1V
1i
1a
b11011 >
#62
0!
#63
1!
b11101 H
b11101 B
b11101 C
b11101 =
b11101 <
1P
1X
0i
0h
1g
0a
0`
1_
b11100 >
#64
0!
#65
1!
b11110 H
b11110 B
b11110 C
b11110 =
b11110 <
0P
1O
0X
1W
1i
1a
b11101 >
#66
0!
#67
1!
b11111 H
b11111 B
b11111 C
b11111 =
b11111 <
1P
1X
0i
1h
0a
1`
b11110 >
#68
0!
#69
1!
b100000 H
b100000 B
b100000 C
b100000 =
b100000 <
0P
0O
0N
0M
0L
1K
0X
0W
0V
0U
0T
1S
1i
1a
b11111 >
#70
0!
#71
1!
b100001 H
b100001 B
b100001 C
b100001 =
b100001 <
1P
1X
0i
0h
0g
0f
0e
1d
0a
0`
0_
0^
0]
1\
b100000 >
#72
0!
#73
1!
b100010 H
b100010 B
b100010 C
b100010 =
b100010 <
0P
1O
0X
1W
1i
1a
b100001 >
#74
0!
#75
1!
b100011 H
b100011 B
b100011 C
b100011 =
b100011 <
1P
1X
0i
1h
0a
1`
b100010 >
#76
0!
#77
1!
b100100 H
b100100 B
b100100 C
b100100 =
b100100 <
0P
0O
1N
0X
0W
1V
1i
1a
b100011 >
#78
0!
#79
1!
b100101 H
b100101 B
b100101 C
b100101 =
b100101 <
1P
1X
0i
0h
1g
0a
0`
1_
b100100 >
#80
0!
#81
1!
b100110 H
b100110 B
b100110 C
b100110 =
b100110 <
0P
1O
0X
1W
1i
1a
b100101 >
#82
0!
#83
1!
b100111 H
b100111 B
b100111 C
b100111 =
b100111 <
1P
1X
0i
1h
0a
1`
b100110 >
#84
0!
#85
1!
b101000 H
b101000 B
b101000 C
b101000 =
b101000 <
0P
0O
0N
1M
0X
0W
0V
1U
1i
1a
b100111 >
#86
0!
#87
1!
b101001 H
b101001 B
b101001 C
b101001 =
b101001 <
1P
1X
0i
0h
0g
1f
0a
0`
0_
1^
b101000 >
#88
0!
#89
1!
b101010 H
b101010 B
b101010 C
b101010 =
b101010 <
0P
1O
0X
1W
1i
1a
b101001 >
#90
0!
#91
1!
b101011 H
b101011 B
b101011 C
b101011 =
b101011 <
1P
1X
0i
1h
0a
1`
b101010 >
#92
0!
#93
1!
b101100 H
b101100 B
b101100 C
b101100 =
b101100 <
0P
0O
1N
0X
0W
1V
1i
1a
b101011 >
#94
0!
#95
1!
b101101 H
b101101 B
b101101 C
b101101 =
b101101 <
1P
1X
0i
0h
1g
0a
0`
1_
b101100 >
#96
0!
#97
1!
b101110 H
b101110 B
b101110 C
b101110 =
b101110 <
0P
1O
0X
1W
1i
1a
b101101 >
#98
0!
#99
1!
b101111 H
b101111 B
b101111 C
b101111 =
b101111 <
1P
1X
0i
1h
0a
1`
b101110 >
#100
0!
#101
1!
b110000 H
b110000 B
b110000 C
b110000 =
b110000 <
0P
0O
0N
0M
1L
0X
0W
0V
0U
1T
1i
1a
b101111 >
#102
0!
#103
1!
b110001 H
b110001 B
b110001 C
b110001 =
b110001 <
1P
1X
0i
0h
0g
0f
1e
0a
0`
0_
0^
1]
b110000 >
#104
0!
#105
1!
b110010 H
b110010 B
b110010 C
b110010 =
b110010 <
0P
1O
0X
1W
1i
1a
b110001 >
#106
0!
#107
1!
b110011 H
b110011 B
b110011 C
b110011 =
b110011 <
1P
1X
0i
1h
0a
1`
b110010 >
#108
0!
#109
1!
b110100 H
b110100 B
b110100 C
b110100 =
b110100 <
0P
0O
1N
0X
0W
1V
1i
1a
b110011 >
#110
0!
#111
1!
b110101 H
b110101 B
b110101 C
b110101 =
b110101 <
1P
1X
0i
0h
1g
0a
0`
1_
b110100 >
#112
0!
#113
1!
b110110 H
b110110 B
b110110 C
b110110 =
b110110 <
0P
1O
0X
1W
1i
1a
b110101 >
#114
0!
#115
1!
b110111 H
b110111 B
b110111 C
b110111 =
b110111 <
1P
1X
0i
1h
0a
1`
b110110 >
#116
0!
#117
1!
b111000 H
b111000 B
b111000 C
b111000 =
b111000 <
0P
0O
0N
1M
0X
0W
0V
1U
1i
1a
b110111 >
#118
0!
#119
1!
b111001 H
b111001 B
b111001 C
b111001 =
b111001 <
1P
1X
0i
0h
0g
1f
0a
0`
0_
1^
b111000 >
#120
0!
#121
1!
b111010 H
b111010 B
b111010 C
b111010 =
b111010 <
0P
1O
0X
1W
1i
1a
b111001 >
#122
0!
#123
1!
b111011 H
b111011 B
b111011 C
b111011 =
b111011 <
1P
1X
0i
1h
0a
1`
b111010 >
#124
0!
#125
1!
b111100 H
b111100 B
b111100 C
b111100 =
b111100 <
0P
0O
1N
0X
0W
1V
1i
1a
b111011 >
#126
0!
#127
1!
b111101 H
b111101 B
b111101 C
b111101 =
b111101 <
1P
1X
0i
0h
1g
0a
0`
1_
b111100 >
#128
0!
#129
1!
b111110 H
b111110 B
b111110 C
b111110 =
b111110 <
0P
1O
0X
1W
1i
1a
b111101 >
#130
0!
#131
1!
b111111 H
b111111 B
b111111 C
b111111 =
b111111 <
1P
1X
0i
1h
0a
1`
b111110 >
#132
0!
#133
1!
b1000000 H
b1000000 B
b1000000 C
b1000000 =
b1000000 <
0P
0O
0N
0M
0L
0K
1J
0X
0W
0V
0U
0T
0S
1R
1i
1a
b111111 >
#134
0!
#135
1!
b1000001 H
b1000001 B
b1000001 C
b1000001 =
b1000001 <
1P
1X
0i
0h
0g
0f
0e
0d
1c
0a
0`
0_
0^
0]
0\
1[
b1000000 >
#136
0!
#137
1!
b1000010 H
b1000010 B
b1000010 C
b1000010 =
b1000010 <
0P
1O
0X
1W
1i
1a
b1000001 >
#138
0!
#139
1!
b1000011 H
b1000011 B
b1000011 C
b1000011 =
b1000011 <
1P
1X
0i
1h
0a
1`
b1000010 >
#140
0!
#141
1!
b1000100 H
b1000100 B
b1000100 C
b1000100 =
b1000100 <
0P
0O
1N
0X
0W
1V
1i
1a
b1000011 >
#142
0!
#143
1!
b1000101 H
b1000101 B
b1000101 C
b1000101 =
b1000101 <
1P
1X
0i
0h
1g
0a
0`
1_
b1000100 >
#144
0!
#145
1!
b1000110 H
b1000110 B
b1000110 C
b1000110 =
b1000110 <
0P
1O
0X
1W
1i
1a
b1000101 >
#146
0!
#147
1!
b1000111 H
b1000111 B
b1000111 C
b1000111 =
b1000111 <
1P
1X
0i
1h
0a
1`
b1000110 >
#148
0!
#149
1!
b1001000 H
b1001000 B
b1001000 C
b1001000 =
b1001000 <
0P
0O
0N
1M
0X
0W
0V
1U
1i
1a
b1000111 >
#150
0!
#151
1!
b1001001 H
b1001001 B
b1001001 C
b1001001 =
b1001001 <
1P
1X
0i
0h
0g
1f
0a
0`
0_
1^
b1001000 >
#152
0!
#153
1!
b1001010 H
b1001010 B
b1001010 C
b1001010 =
b1001010 <
0P
1O
0X
1W
1i
1a
b1001001 >
#154
0!
#155
1!
b1001011 H
b1001011 B
b1001011 C
b1001011 =
b1001011 <
1P
1X
0i
1h
0a
1`
b1001010 >
#156
0!
#157
1!
b1001100 H
b1001100 B
b1001100 C
b1001100 =
b1001100 <
0P
0O
1N
0X
0W
1V
1i
1a
b1001011 >
#158
0!
#159
1!
b1001101 H
b1001101 B
b1001101 C
b1001101 =
b1001101 <
1P
1X
0i
0h
1g
0a
0`
1_
b1001100 >
#160
0!
#161
1!
b1001110 H
b1001110 B
b1001110 C
b1001110 =
b1001110 <
0P
1O
0X
1W
1i
1a
b1001101 >
#162
0!
#163
1!
b1001111 H
b1001111 B
b1001111 C
b1001111 =
b1001111 <
1P
1X
0i
1h
0a
1`
b1001110 >
#164
0!
#165
1!
b1010000 H
b1010000 B
b1010000 C
b1010000 =
b1010000 <
0P
0O
0N
0M
1L
0X
0W
0V
0U
1T
1i
1a
b1001111 >
#166
0!
#167
1!
b1010001 H
b1010001 B
b1010001 C
b1010001 =
b1010001 <
1P
1X
0i
0h
0g
0f
1e
0a
0`
0_
0^
1]
b1010000 >
#168
0!
#169
1!
b1010010 H
b1010010 B
b1010010 C
b1010010 =
b1010010 <
0P
1O
0X
1W
1i
1a
b1010001 >
#170
0!
#171
1!
b1010011 H
b1010011 B
b1010011 C
b1010011 =
b1010011 <
1P
1X
0i
1h
0a
1`
b1010010 >
#172
0!
#173
1!
b1010100 H
b1010100 B
b1010100 C
b1010100 =
b1010100 <
0P
0O
1N
0X
0W
1V
1i
1a
b1010011 >
#174
0!
#175
1!
b1010101 H
b1010101 B
b1010101 C
b1010101 =
b1010101 <
1P
1X
0i
0h
1g
0a
0`
1_
b1010100 >
#176
0!
#177
1!
b1010110 H
b1010110 B
b1010110 C
b1010110 =
b1010110 <
0P
1O
0X
1W
1i
1a
b1010101 >
#178
0!
#179
1!
b1010111 H
b1010111 B
b1010111 C
b1010111 =
b1010111 <
1P
1X
0i
1h
0a
1`
b1010110 >
#180
0!
#181
1!
b1011000 H
b1011000 B
b1011000 C
b1011000 =
b1011000 <
0P
0O
0N
1M
0X
0W
0V
1U
1i
1a
b1010111 >
#182
0!
#183
1!
b1011001 H
b1011001 B
b1011001 C
b1011001 =
b1011001 <
1P
1X
0i
0h
0g
1f
0a
0`
0_
1^
b1011000 >
#184
0!
#185
1!
b1011010 H
b1011010 B
b1011010 C
b1011010 =
b1011010 <
0P
1O
0X
1W
1i
1a
b1011001 >
#186
0!
#187
1!
b1011011 H
b1011011 B
b1011011 C
b1011011 =
b1011011 <
1P
1X
0i
1h
0a
1`
b1011010 >
#188
0!
#189
1!
b1011100 H
b1011100 B
b1011100 C
b1011100 =
b1011100 <
0P
0O
1N
0X
0W
1V
1i
1a
b1011011 >
#190
0!
#191
1!
b1011101 H
b1011101 B
b1011101 C
b1011101 =
b1011101 <
1P
1X
0i
0h
1g
0a
0`
1_
b1011100 >
#192
0!
#193
1!
b1011110 H
b1011110 B
b1011110 C
b1011110 =
b1011110 <
0P
1O
0X
1W
1i
1a
b1011101 >
#194
0!
#195
1!
b1011111 H
b1011111 B
b1011111 C
b1011111 =
b1011111 <
1P
1X
0i
1h
0a
1`
b1011110 >
#196
0!
#197
1!
b1100000 H
b1100000 B
b1100000 C
b1100000 =
b1100000 <
0P
0O
0N
0M
0L
1K
0X
0W
0V
0U
0T
1S
1i
1a
b1011111 >
#198
0!
#199
1!
b1100001 H
b1100001 B
b1100001 C
b1100001 =
b1100001 <
1P
1X
0i
0h
0g
0f
0e
1d
0a
0`
0_
0^
0]
1\
b1100000 >
#200
0!
#201
1!
b1100010 H
b1100010 B
b1100010 C
b1100010 =
b1100010 <
0P
1O
0X
1W
1i
1a
b1100001 >
#202
0!
#203
1!
b1100011 H
b1100011 B
b1100011 C
b1100011 =
b1100011 <
1P
1X
0i
1h
0a
1`
b1100010 >
#204
0!
#205
1!
b1100100 H
b1100100 B
b1100100 C
b1100100 =
b1100100 <
0P
0O
1N
0X
0W
1V
1i
1a
b1100011 >
#206
0!
#207
1!
b1100101 H
b1100101 B
b1100101 C
b1100101 =
b1100101 <
1P
1X
0i
0h
1g
0a
0`
1_
b1100100 >
#208
0!
#209
1!
b1100110 H
b1100110 B
b1100110 C
b1100110 =
b1100110 <
0P
1O
0X
1W
1i
1a
b1100101 >
#210
0!
#211
1!
b1100111 H
b1100111 B
b1100111 C
b1100111 =
b1100111 <
1P
1X
0i
1h
0a
1`
b1100110 >
#212
0!
#213
1!
b1101000 H
b1101000 B
b1101000 C
b1101000 =
b1101000 <
0P
0O
0N
1M
0X
0W
0V
1U
1i
1a
b1100111 >
#214
0!
#215
1!
b1101001 H
b1101001 B
b1101001 C
b1101001 =
b1101001 <
1P
1X
0i
0h
0g
1f
0a
0`
0_
1^
b1101000 >
#216
0!
#217
1!
b1101010 H
b1101010 B
b1101010 C
b1101010 =
b1101010 <
0P
1O
0X
1W
1i
1a
b1101001 >
#218
0!
#219
1!
b1101011 H
b1101011 B
b1101011 C
b1101011 =
b1101011 <
1P
1X
0i
1h
0a
1`
b1101010 >
#220
0!
#221
1!
b1101100 H
b1101100 B
b1101100 C
b1101100 =
b1101100 <
0P
0O
1N
0X
0W
1V
1i
1a
b1101011 >
#222
0!
#223
1!
b1101101 H
b1101101 B
b1101101 C
b1101101 =
b1101101 <
1P
1X
0i
0h
1g
0a
0`
1_
b1101100 >
#224
0!
#225
1!
b1101110 H
b1101110 B
b1101110 C
b1101110 =
b1101110 <
0P
1O
0X
1W
1i
1a
b1101101 >
#226
0!
#227
1!
b1101111 H
b1101111 B
b1101111 C
b1101111 =
b1101111 <
1P
1X
0i
1h
0a
1`
b1101110 >
#228
0!
#229
1!
b1110000 H
b1110000 B
b1110000 C
b1110000 =
b1110000 <
0P
0O
0N
0M
1L
0X
0W
0V
0U
1T
1i
1a
b1101111 >
#230
0!
#231
1!
b1110001 H
b1110001 B
b1110001 C
b1110001 =
b1110001 <
1P
1X
0i
0h
0g
0f
1e
0a
0`
0_
0^
1]
b1110000 >
#232
0!
#233
1!
b1110010 H
b1110010 B
b1110010 C
b1110010 =
b1110010 <
0P
1O
0X
1W
1i
1a
b1110001 >
#234
0!
#235
1!
b1110011 H
b1110011 B
b1110011 C
b1110011 =
b1110011 <
1P
1X
0i
1h
0a
1`
b1110010 >
#236
0!
#237
1!
b1110100 H
b1110100 B
b1110100 C
b1110100 =
b1110100 <
0P
0O
1N
0X
0W
1V
1i
1a
b1110011 >
#238
0!
#239
1!
b1110101 H
b1110101 B
b1110101 C
b1110101 =
b1110101 <
1P
1X
0i
0h
1g
0a
0`
1_
b1110100 >
#240
0!
#241
1!
b1110110 H
b1110110 B
b1110110 C
b1110110 =
b1110110 <
0P
1O
0X
1W
1i
1a
b1110101 >
#242
0!
#243
1!
b1110111 H
b1110111 B
b1110111 C
b1110111 =
b1110111 <
1P
1X
0i
1h
0a
1`
b1110110 >
#244
0!
#245
1!
b1111000 H
b1111000 B
b1111000 C
b1111000 =
b1111000 <
0P
0O
0N
1M
0X
0W
0V
1U
1i
1a
b1110111 >
#246
0!
#247
1!
b1111001 H
b1111001 B
b1111001 C
b1111001 =
b1111001 <
1P
1X
0i
0h
0g
1f
0a
0`
0_
1^
b1111000 >
#248
0!
#249
1!
b1111010 H
b1111010 B
b1111010 C
b1111010 =
b1111010 <
0P
1O
0X
1W
1i
1a
b1111001 >
#250
0!
#251
1!
b1111011 H
b1111011 B
b1111011 C
b1111011 =
b1111011 <
1P
1X
0i
1h
0a
1`
b1111010 >
#252
0!
#253
1!
b1111100 H
b1111100 B
b1111100 C
b1111100 =
b1111100 <
0P
0O
1N
0X
0W
1V
1i
1a
b1111011 >
#254
0!
#255
1!
b1111101 H
b1111101 B
b1111101 C
b1111101 =
b1111101 <
1P
1X
0i
0h
1g
0a
0`
1_
b1111100 >
#256
0!
#257
1!
b1111110 H
b1111110 B
b1111110 C
b1111110 =
b1111110 <
0P
1O
0X
1W
1i
1a
b1111101 >
#258
0!
#259
1!
b1111111 H
b1111111 B
b1111111 C
b1111111 =
b1111111 <
1P
1X
0i
1h
0a
1`
b1111110 >
#260
0!
#261
1!
b10000000 H
b10000000 B
b10000000 C
b10000000 =
b10000000 <
0P
0O
0N
0M
0L
0K
0J
1I
0X
0W
0V
0U
0T
0S
0R
1Q
1i
1a
b1111111 >
#262
0!
#263
1!
b10000001 H
b10000001 B
b10000001 C
b10000001 =
b10000001 <
1P
1X
0i
0h
0g
0f
0e
0d
0c
1b
0a
0`
0_
0^
0]
0\
0[
1Z
b10000000 >
#264
0!
#265
1!
b10000010 H
b10000010 B
b10000010 C
b10000010 =
b10000010 <
0P
1O
0X
1W
1i
1a
b10000001 >
#266
0!
#267
1!
b10000011 H
b10000011 B
b10000011 C
b10000011 =
b10000011 <
1P
1X
0i
1h
0a
1`
b10000010 >
#268
0!
#269
1!
b10000100 H
b10000100 B
b10000100 C
b10000100 =
b10000100 <
0P
0O
1N
0X
0W
1V
1i
1a
b10000011 >
#270
0!
#271
1!
b10000101 H
b10000101 B
b10000101 C
b10000101 =
b10000101 <
1P
1X
0i
0h
1g
0a
0`
1_
b10000100 >
#272
0!
#273
1!
b10000110 H
b10000110 B
b10000110 C
b10000110 =
b10000110 <
0P
1O
0X
1W
1i
1a
b10000101 >
#274
0!
#275
1!
b10000111 H
b10000111 B
b10000111 C
b10000111 =
b10000111 <
1P
1X
0i
1h
0a
1`
b10000110 >
#276
0!
#277
1!
b10001000 H
b10001000 B
b10001000 C
b10001000 =
b10001000 <
0P
0O
0N
1M
0X
0W
0V
1U
1i
1a
b10000111 >
#278
0!
#279
1!
b10001001 H
b10001001 B
b10001001 C
b10001001 =
b10001001 <
1P
1X
0i
0h
0g
1f
0a
0`
0_
1^
b10001000 >
#280
0!
#281
1!
b10001010 H
b10001010 B
b10001010 C
b10001010 =
b10001010 <
0P
1O
0X
1W
1i
1a
b10001001 >
#282
0!
#283
1!
b10001011 H
b10001011 B
b10001011 C
b10001011 =
b10001011 <
1P
1X
0i
1h
0a
1`
b10001010 >
#284
0!
#285
1!
b10001100 H
b10001100 B
b10001100 C
b10001100 =
b10001100 <
0P
0O
1N
0X
0W
1V
1i
1a
b10001011 >
#286
0!
#287
1!
b10001101 H
b10001101 B
b10001101 C
b10001101 =
b10001101 <
1P
1X
0i
0h
1g
0a
0`
1_
b10001100 >
#288
0!
#289
1!
b10001110 H
b10001110 B
b10001110 C
b10001110 =
b10001110 <
0P
1O
0X
1W
1i
1a
b10001101 >
#290
0!
#291
1!
b10001111 H
b10001111 B
b10001111 C
b10001111 =
b10001111 <
1P
1X
0i
1h
0a
1`
b10001110 >
#292
0!
#293
1!
b10010000 H
b10010000 B
b10010000 C
b10010000 =
b10010000 <
0P
0O
0N
0M
1L
0X
0W
0V
0U
1T
1i
1a
b10001111 >
#294
0!
#295
1!
b10010001 H
b10010001 B
b10010001 C
b10010001 =
b10010001 <
1P
1X
0i
0h
0g
0f
1e
0a
0`
0_
0^
1]
b10010000 >
#296
0!
#297
1!
b10010010 H
b10010010 B
b10010010 C
b10010010 =
b10010010 <
0P
1O
0X
1W
1i
1a
b10010001 >
#298
0!
#299
1!
b10010011 H
b10010011 B
b10010011 C
b10010011 =
b10010011 <
1P
1X
0i
1h
0a
1`
b10010010 >
#300
0!
#301
1!
b10010100 H
b10010100 B
b10010100 C
b10010100 =
b10010100 <
0P
0O
1N
0X
0W
1V
1i
1a
b10010011 >
#302
0!
#303
1!
b10010101 H
b10010101 B
b10010101 C
b10010101 =
b10010101 <
1P
1X
0i
0h
1g
0a
0`
1_
b10010100 >
#304
0!
#305
1!
b10010110 H
b10010110 B
b10010110 C
b10010110 =
b10010110 <
0P
1O
0X
1W
1i
1a
b10010101 >
#306
0!
#307
1!
b10010111 H
b10010111 B
b10010111 C
b10010111 =
b10010111 <
1P
1X
0i
1h
0a
1`
b10010110 >
#308
0!
#309
1!
b10011000 H
b10011000 B
b10011000 C
b10011000 =
b10011000 <
0P
0O
0N
1M
0X
0W
0V
1U
1i
1a
b10010111 >
#310
0!
#311
1!
b10011001 H
b10011001 B
b10011001 C
b10011001 =
b10011001 <
1P
1X
0i
0h
0g
1f
0a
0`
0_
1^
b10011000 >
#312
0!
#313
1!
b10011010 H
b10011010 B
b10011010 C
b10011010 =
b10011010 <
0P
1O
0X
1W
1i
1a
b10011001 >
#314
0!
#315
1!
b10011011 H
b10011011 B
b10011011 C
b10011011 =
b10011011 <
1P
1X
0i
1h
0a
1`
b10011010 >
#316
0!
#317
1!
b10011100 H
b10011100 B
b10011100 C
b10011100 =
b10011100 <
0P
0O
1N
0X
0W
1V
1i
1a
b10011011 >
#318
0!
#319
1!
b10011101 H
b10011101 B
b10011101 C
b10011101 =
b10011101 <
1P
1X
0i
0h
1g
0a
0`
1_
b10011100 >
#320
0!
#321
1!
b10011110 H
b10011110 B
b10011110 C
b10011110 =
b10011110 <
0P
1O
0X
1W
1i
1a
b10011101 >
#322
0!
#323
1!
b10011111 H
b10011111 B
b10011111 C
b10011111 =
b10011111 <
1P
1X
0i
1h
0a
1`
b10011110 >
#324
0!
#325
1!
b10100000 H
b10100000 B
b10100000 C
b10100000 =
b10100000 <
0P
0O
0N
0M
0L
1K
0X
0W
0V
0U
0T
1S
1i
1a
b10011111 >
#326
0!
#327
1!
b10100001 H
b10100001 B
b10100001 C
b10100001 =
b10100001 <
1P
1X
0i
0h
0g
0f
0e
1d
0a
0`
0_
0^
0]
1\
b10100000 >
#328
0!
#329
1!
b10100010 H
b10100010 B
b10100010 C
b10100010 =
b10100010 <
0P
1O
0X
1W
1i
1a
b10100001 >
#330
0!
#331
1!
b10100011 H
b10100011 B
b10100011 C
b10100011 =
b10100011 <
1P
1X
0i
1h
0a
1`
b10100010 >
#332
0!
#333
1!
b10100100 H
b10100100 B
b10100100 C
b10100100 =
b10100100 <
0P
0O
1N
0X
0W
1V
1i
1a
b10100011 >
#334
0!
#335
1!
b10100101 H
b10100101 B
b10100101 C
b10100101 =
b10100101 <
1P
1X
0i
0h
1g
0a
0`
1_
b10100100 >
#336
0!
#337
1!
b10100110 H
b10100110 B
b10100110 C
b10100110 =
b10100110 <
0P
1O
0X
1W
1i
1a
b10100101 >
#338
0!
