lab2/task4/reuleaux.rtl.vcd
$date
	Tue Oct 27 14:09:41 2020
$end
$version
	ModelSim Version 10.7c
$end
$timescale
	1ps
$end

$scope module reuleaux_ag $end

$scope module dut $end
$var wire 1 ! clk $end
$var wire 1 " rst_n $end
$var wire 1 # colour [2] $end
$var wire 1 $ colour [1] $end
$var wire 1 % colour [0] $end
$var wire 1 & centre_x [7] $end
$var wire 1 ' centre_x [6] $end
$var wire 1 ( centre_x [5] $end
$var wire 1 ) centre_x [4] $end
$var wire 1 * centre_x [3] $end
$var wire 1 + centre_x [2] $end
$var wire 1 , centre_x [1] $end
$var wire 1 - centre_x [0] $end
$var wire 1 . centre_y [6] $end
$var wire 1 / centre_y [5] $end
$var wire 1 0 centre_y [4] $end
$var wire 1 1 centre_y [3] $end
$var wire 1 2 centre_y [2] $end
$var wire 1 3 centre_y [1] $end
$var wire 1 4 centre_y [0] $end
$var wire 1 5 diameter [7] $end
$var wire 1 6 diameter [6] $end
$var wire 1 7 diameter [5] $end
$var wire 1 8 diameter [4] $end
$var wire 1 9 diameter [3] $end
$var wire 1 : diameter [2] $end
$var wire 1 ; diameter [1] $end
$var wire 1 < diameter [0] $end
$var wire 1 = start $end
$var reg 1 > done $end
$var reg 8 ? vga_x [7:0] $end
$var reg 7 @ vga_y [6:0] $end
$var reg 3 A vga_colour [2:0] $end
$var reg 1 B vga_plot $end
$var reg 32 C tmp [31:0] $end
$var reg 32 D tmp_d [31:0] $end
$var reg 3 E state [2:0] $end
$var reg 19 F sqrt3div3 [18:0] $end
$var reg 8 G c_x [7:0] $end
$var reg 8 H c_x1 [7:0] $end
$var reg 8 I c_x2 [7:0] $end
$var reg 8 J c_x3 [7:0] $end
$var reg 8 K curr_cx [7:0] $end
$var reg 8 L d [7:0] $end
$var reg 8 M r [7:0] $end
$var reg 8 N min_x [7:0] $end
$var reg 8 O max_x [7:0] $end
$var reg 8 P rounded_tmp [7:0] $end
$var reg 7 Q c_y [6:0] $end
$var reg 7 R c_y1 [6:0] $end
$var reg 7 S c_y2 [6:0] $end
$var reg 7 T c_y3 [6:0] $end
$var reg 7 U curr_cy [6:0] $end
$var reg 7 V min_y [6:0] $end
$var reg 7 W max_y [6:0] $end
$var reg 7 X rounded_tmp_d [6:0] $end
$var reg 1 Y done_draw $end
$var reg 1 Z done_out $end
$var reg 1 [ start_draw $end

$scope module draw $end
$var wire 1 ! clk $end
$var wire 1 " rst_n $end
$var wire 1 # colour [2] $end
$var wire 1 $ colour [1] $end
$var wire 1 % colour [0] $end
$var wire 1 \ centre_x [7] $end
$var wire 1 ] centre_x [6] $end
$var wire 1 ^ centre_x [5] $end
$var wire 1 _ centre_x [4] $end
$var wire 1 ` centre_x [3] $end
$var wire 1 a centre_x [2] $end
$var wire 1 b centre_x [1] $end
$var wire 1 c centre_x [0] $end
$var wire 1 d centre_y [6] $end
$var wire 1 e centre_y [5] $end
$var wire 1 f centre_y [4] $end
$var wire 1 g centre_y [3] $end
$var wire 1 h centre_y [2] $end
$var wire 1 i centre_y [1] $end
$var wire 1 j centre_y [0] $end
$var wire 1 k radius [7] $end
$var wire 1 l radius [6] $end
$var wire 1 m radius [5] $end
$var wire 1 n radius [4] $end
$var wire 1 o radius [3] $end
$var wire 1 p radius [2] $end
$var wire 1 q radius [1] $end
$var wire 1 r radius [0] $end
$var wire 1 s min_x [7] $end
$var wire 1 t min_x [6] $end
$var wire 1 u min_x [5] $end
$var wire 1 v min_x [4] $end
$var wire 1 w min_x [3] $end
$var wire 1 x min_x [2] $end
$var wire 1 y min_x [1] $end
$var wire 1 z min_x [0] $end
$var wire 1 { max_x [7] $end
$var wire 1 | max_x [6] $end
$var wire 1 } max_x [5] $end
$var wire 1 ~ max_x [4] $end
$var wire 1 !! max_x [3] $end
$var wire 1 "! max_x [2] $end
$var wire 1 #! max_x [1] $end
$var wire 1 $! max_x [0] $end
$var wire 1 %! min_y [6] $end
$var wire 1 &! min_y [5] $end
$var wire 1 '! min_y [4] $end
$var wire 1 (! min_y [3] $end
$var wire 1 )! min_y [2] $end
$var wire 1 *! min_y [1] $end
$var wire 1 +! min_y [0] $end
$var wire 1 ,! max_y [6] $end
$var wire 1 -! max_y [5] $end
$var wire 1 .! max_y [4] $end
$var wire 1 /! max_y [3] $end
$var wire 1 0! max_y [2] $end
$var wire 1 1! max_y [1] $end
$var wire 1 2! max_y [0] $end
$var wire 1 3! start $end
$var reg 1 4! done $end
$var reg 8 5! vga_x [7:0] $end
$var reg 7 6! vga_y [6:0] $end
$var reg 3 7! vga_colour [2:0] $end
$var reg 1 8! vga_plot $end
$var integer 32 9! offset_x $end
$var integer 32 :! offset_y $end
$var integer 32 ;! crit $end
$var integer 32 <! val_x $end
$var integer 32 =! val_y $end
$var reg 4 >! state [3:0] $end
$var reg 2 ?! out [1:0] $end
$upscope $end
$upscope $end
$upscope $end
$enddefinitions $end
#0
$dumpvars
0>
b0 ?
b0 @
b10 A
0B
bx C
bx D
b0 E
b10010011110 F
bx G
bx H
bx I
bx J
bx K
bx L
b0xxxxxxx M
bx N
bx O
bx P
bx Q
bx R
bx S
bx T
bx U
bx V
bx W
bx X
0Y
0Z
0[
04!
b0 5!
b0 6!
b10 7!
08!
b0 >!
b0 ?!
b0xxxxxxxx 9!
b0 :!
bx ;!
b0 <!
b0 =!
x=
0<
0;
0:
09
18
07
16
05
04
03
12
11
10
1/
0.
0-
0,
0+
0*
1)
0(
1'
0&
0%
1$
0#
x"
1!
03!
x2!
x1!
x0!
x/!
x.!
x-!
x,!
x+!
x*!
x)!
x(!
x'!
x&!
x%!
x$!
x#!
x"!
x!!
x~
x}
x|
x{
xz
xy
xx
xw
xv
xu
xt
xs
xr
xq
xp
xo
xn
xm
xl
xk
xj
xi
xh
xg
xf
xe
xd
xc
xb
xa
x`
x_
x^
x]
x\
$end
#5
0!
0=
1"
#8
0"
#10
1!
#11
1=
1"
#15
0!
#20
1!
b1 E
b1010000 G
b111100 Q
b1010000 L
b101000 M
b1011100010110000000000000000 D
0r
0q
0p
0o
1n
0m
1l
0k
b101110 X
b101110001011000000000000000 C
b10111 P
#25
0!
#30
1!
b1010000 9!
b11111111111111111111111110110001 ;!
b10 E
b1111000 H
b1010011 R
b101000 I
b1010011 S
b1010000 J
b1110 T
1[
13!
#35
0!
#40
1!
bx <!
bx =!
b1 >!
bx 6!
bx 5!
bx ?
bx @
b1111000 K
b1010011 U
b101000 N
b1010000 O
b1110 V
b1010011 W
12!
11!
00!
0/!
1.!
0-!
1,!
0+!
1*!
1)!
1(!
0'!
0&!
0%!
0$!
0#!
0"!
0!!
1~
0}
1|
0{
0z
0y
0x
1w
0v
1u
0t
0s
1j
1i
0h
0g
1f
0e
1d
0c
0b
0a
1`
1_
1^
1]
0\
#45
0!
#50
1!
b1111000 <!
b10100011 =!
b10 >!
b100011 6!
b1111000 5!
b1111000 ?
b100011 @
#55
0!
#60
1!
b101000 <!
b1010011 =!
b100 >!
b1 ?!
18!
b1010011 6!
b101000 5!
b101000 ?
b1010011 @
1B
#65
0!
#70
1!
b1111000 <!
b10100011 =!
b11 >!
b0 ?!
08!
b100011 6!
b1111000 5!
b1111000 ?
b100011 @
0B
#75
0!
#80
1!
b101000 <!
b1010011 =!
b101 >!
b1 ?!
18!
b1010011 6!
b101000 5!
b101000 ?
b1010011 @
1B
#85
0!
#90
1!
b1111000 <!
b11 =!
b110 >!
b0 ?!
08!
b11 6!
b1111000 5!
b1111000 ?
b11 @
0B
#95
0!
#100
1!
b11001000 <!
b1010011 =!
b1000 >!
b1010011 6!
b11001000 5!
b11001000 ?
b1010011 @
#105
0!
#110
1!
b1111000 <!
b11 =!
b0 >!
b1 :!
b11 6!
b1111000 5!
b1111000 ?
b11 @
#115
0!
#120
1!
b11111111111111111111111110110100 ;!
b11001000 <!
b1010100 =!
b1 >!
b1010100 6!
b11001000 5!
b11001000 ?
b1010100 @
#125
0!
#130
1!
b1111001 <!
b10100011 =!
b10 >!
b100011 6!
b1111001 5!
b1111001 ?
b100011 @
#135
0!
#140
1!
b101000 <!
b1010100 =!
b100 >!
b1010100 6!
b101000 5!
b101000 ?
b1010100 @
#145
0!
#150
1!
b1110111 <!
b10100011 =!
b11 >!
b100011 6!
b1110111 5!
b1110111 ?
b100011 @
#155
0!
#160
1!
b101000 <!
b1010010 =!
b101 >!
b1 ?!
18!
b1010010 6!
b101000 5!
b101000 ?
b1010010 @
1B
#165
0!
#170
1!
b1110111 <!
b11 =!
b110 >!
b0 ?!
08!
b11 6!
b1110111 5!
b1110111 ?
b11 @
0B
#175
0!
#180
1!
b11001000 <!
b1010010 =!
b1000 >!
b1010010 6!
b11001000 5!
b11001000 ?
b1010010 @
#185
0!
#190
1!
b1111001 <!
b11 =!
b0 >!
b10 :!
b11 6!
b1111001 5!
b1111001 ?
b11 @
#195
0!
#200
1!
b11111111111111111111111110111001 ;!
b11001000 <!
b1010101 =!
b1 >!
b1010101 6!
b11001000 5!
b11001000 ?
b1010101 @
#205
0!
#210
1!
b1111010 <!
b10100011 =!
b10 >!
b100011 6!
b1111010 5!
b1111010 ?
b100011 @
#215
0!
#220
1!
b101000 <!
b1010101 =!
b100 >!
b1010101 6!
b101000 5!
b101000 ?
b1010101 @
#225
0!
#230
1!
b1110110 <!
b10100011 =!
b11 >!
b100011 6!
b1110110 5!
b1110110 ?
b100011 @
#235
0!
#240
1!
b101000 <!
b1010001 =!
b101 >!
b1 ?!
18!
b1010001 6!
b101000 5!
b101000 ?
b1010001 @
1B
#245
0!
#250
1!
b1110110 <!
b11 =!
b110 >!
b0 ?!
08!
b11 6!
b1110110 5!
b1110110 ?
b11 @
0B
#255
0!
#260
1!
b11001000 <!
b1010001 =!
b1000 >!
b1010001 6!
b11001000 5!
b11001000 ?
b1010001 @
#265
0!
#270
1!
b1111010 <!
b11 =!
b0 >!
b11 :!
b11 6!
b1111010 5!
b1111010 ?
b11 @
#275
0!
#280
1!
b11111111111111111111111111000000 ;!
b11001000 <!
b1010110 =!
b1 >!
b1010110 6!
b11001000 5!
b11001000 ?
b1010110 @
#285
0!
#290
1!
b1111011 <!
b10100011 =!
b10 >!
b100011 6!
b1111011 5!
b1111011 ?
b100011 @
#295
0!
#300
1!
b101000 <!
b1010110 =!
b100 >!
b1010110 6!
b101000 5!
b101000 ?
b1010110 @
#305
0!
#310
1!
b1110101 <!
b10100011 =!
b11 >!
b100011 6!
b1110101 5!
b1110101 ?
b100011 @
#315
0!
#320
1!
b101000 <!
b1010000 =!
b101 >!
b1 ?!
18!
b1010000 6!
b101000 5!
b101000 ?
b1010000 @
1B
#325
0!
#330
1!
b1110101 <!
b11 =!
b110 >!
b0 ?!
08!
b11 6!
b1110101 5!
b1110101 ?
b11 @
0B
#335
0!
#340
1!
b11001000 <!
b1010000 =!
b1000 >!
b1010000 6!
b11001000 5!
b11001000 ?
b1010000 @
#345
0!
#350
1!
b1111011 <!
b11 =!
b0 >!
b100 :!
b11 6!
b1111011 5!
b1111011 ?
b11 @
#355
0!
#360
1!
b11111111111111111111111111001001 ;!
b11001000 <!
b1010111 =!
b1 >!
b1010111 6!
b11001000 5!
b11001000 ?
b1010111 @
#365
0!
#370
1!
b1111100 <!
b10100011 =!
b10 >!
b100011 6!
b1111100 5!
b1111100 ?
b100011 @
#375
0!
#380
1!
b101000 <!
b1010111 =!
b100 >!
b1010111 6!
b101000 5!
b101000 ?
b1010111 @
#385
0!
#390
1!
b1110100 <!
b10100011 =!
b11 >!
b100011 6!
b1110100 5!
b1110100 ?
b100011 @
#395
0!
#400
1!
b101000 <!
b1001111 =!
b101 >!
b1 ?!
18!
b1001111 6!
b101000 5!
b101000 ?
b1001111 @
1B
#405
0!
#410
1!
b1110100 <!
b11 =!
b110 >!
b0 ?!
08!
b11 6!
b1110100 5!
b1110100 ?
b11 @
0B
#415
0!
#420
1!
b11001000 <!
b1001111 =!
b1000 >!
b1001111 6!
b11001000 5!
b11001000 ?
b1001111 @
#425
0!
#430
1!
b1111100 <!
b11 =!
b0 >!
b101 :!
b11 6!
b1111100 5!
b1111100 ?
b11 @
#435
0!
#440
1!
b11111111111111111111111111010100 ;!
b11001000 <!
b1011000 =!
b1 >!
b1011000 6!
b11001000 5!
b11001000 ?
b1011000 @
#445
0!
#450
1!
b1111101 <!
b10100011 =!
b10 >!
b100011 6!
b1111101 5!
b1111101 ?
b100011 @
#455
0!
#460
1!
b101000 <!
b1011000 =!
b100 >!
b1011000 6!
b101000 5!
b101000 ?
b1011000 @
#465
0!
#470
1!
b1110011 <!
b10100011 =!
b11 >!
b100011 6!
b1110011 5!
b1110011 ?
b100011 @
#475
0!
#480
1!
b101000 <!
b1001110 =!
b101 >!
b1 ?!
18!
b1001110 6!
b101000 5!
b101000 ?
b1001110 @
1B
#485
0!
#490
1!
b1110011 <!
b11 =!
b110 >!
b0 ?!
08!
b11 6!
b1110011 5!
b1110011 ?
b11 @
0B
#495
0!
#500
1!
b11001000 <!
b1001110 =!
b1000 >!
b1001110 6!
b11001000 5!
b11001000 ?
b1001110 @
#505
0!
#510
1!
b1111101 <!
b11 =!
b0 >!
b110 :!
b11 6!
b1111101 5!
b1111101 ?
b11 @
#515
0!
#520
1!
b11111111111111111111111111100001 ;!
b11001000 <!
b1011001 =!
b1 >!
b1011001 6!
b11001000 5!
b11001000 ?
b1011001 @
#525
0!
#530
1!
b1111110 <!
b10100011 =!
b10 >!
b100011 6!
b1111110 5!
b1111110 ?
b100011 @
#535
0!
#540
1!
b101000 <!
b1011001 =!
b100 >!
b1011001 6!
b101000 5!
b101000 ?
b1011001 @
#545
0!
#550
1!
b1110010 <!
b10100011 =!
b11 >!
b100011 6!
b1110010 5!
b1110010 ?
b100011 @
#555
0!
#560
1!
b101000 <!
b1001101 =!
b101 >!
b1 ?!
18!
b1001101 6!
b101000 5!
b101000 ?
b1001101 @
1B
#565
0!
#570
1!
b1110010 <!
b11 =!
b110 >!
b0 ?!
08!
b11 6!
b1110010 5!
b1110010 ?
b11 @
0B
#575
0!
#580
1!
b11001000 <!
b1001101 =!
b1000 >!
b1001101 6!
b11001000 5!
b11001000 ?
b1001101 @
#585
0!
#590
1!
b1111110 <!
b11 =!
b0 >!
b111 :!
b11 6!
b1111110 5!
b1111110 ?
b11 @
#595
0!
#600
1!
b11111111111111111111111111110000 ;!
b11001000 <!
b1011010 =!
b1 >!
b1011010 6!
b11001000 5!
b11001000 ?
b1011010 @
#605
0!
#610
1!
b1111111 <!
b10100011 =!
b10 >!
b100011 6!
b1111111 5!
b1111111 ?
b100011 @
#615
0!
#620
1!
b101000 <!
b1011010 =!
b100 >!
b1011010 6!
b101000 5!
b101000 ?
b1011010 @
#625
0!
#630
1!
b1110001 <!
b10100011 =!
b11 >!
b100011 6!
b1110001 5!
b1110001 ?
b100011 @
#635
0!
#640
1!
b101000 <!
b1001100 =!
b101 >!
b1 ?!
18!
b1001100 6!
b101000 5!
b101000 ?
b1001100 @
1B
#645
0!
#650
1!
b1110001 <!
b11 =!
b110 >!
b0 ?!
08!
b11 6!
b1110001 5!
b1110001 ?
b11 @
0B
#655
0!
#660
1!
b11001000 <!
b1001100 =!
b1000 >!
b1001100 6!
b11001000 5!
b11001000 ?
b1001100 @
#665
0!
#670
1!
b1111111 <!
b11 =!
b0 >!
b1000 :!
b11 6!
b1111111 5!
b1111111 ?
b11 @
#675
0!
#680
1!
b1 ;!
b11001000 <!
b1011011 =!
b1 >!
b1011011 6!
b11001000 5!
b11001000 ?
b1011011 @
#685
0!
#690
1!
b10000000 <!
b10100011 =!
b10 >!
b100011 6!
b10000000 5!
b10000000 ?
b100011 @
#695
0!
#700
1!
b101000 <!
b1011011 =!
b100 >!
b1011011 6!
b101000 5!
b101000 ?
b1011011 @
#705
0!
#710
1!
b1110000 <!
b10100011 =!
b11 >!
b100011 6!
b1110000 5!
b1110000 ?
b100011 @
#715
0!
#720
1!
b101000 <!
b1001011 =!
b101 >!
b1 ?!
18!
b1001011 6!
b101000 5!
b101000 ?
b1001011 @
1B
#725
0!
#730
1!
b1110000 <!
b11 =!
b110 >!
b0 ?!
08!
b11 6!
b1110000 5!
b1110000 ?
b11 @
0B
#735
0!
#740
1!
b11001000 <!
b1001011 =!
b1000 >!
b1001011 6!
b11001000 5!
b11001000 ?
b1001011 @
#745
0!
#750
1!
b10000000 <!
b11 =!
b0 >!
b1001 :!
b11 6!
b10000000 5!
b10000000 ?
b11 @
#755
0!
#760
1!
b1001111 9!
b11111111111111111111111101110110 ;!
b11000111 <!
b1011100 =!
b1 >!
b1011100 6!
b11000111 5!
b11000111 ?
b1011100 @
#765
0!
#770
1!
b10000001 <!
b10100010 =!
b10 >!
b100010 6!
b10000001 5!
b10000001 ?
b100010 @
#775
0!
#780
1!
b101001 <!
b1011100 =!
b100 >!
b1011100 6!
b101001 5!
b101001 ?
b1011100 @
#785
0!
#790
1!
b1101111 <!
b10100010 =!
b11 >!
b100010 6!
b1101111 5!
b1101111 ?
b100010 @
#795
0!
#800
1!
b101001 <!
b1001010 =!
b101 >!
b1 ?!
18!
b1001010 6!
b101001 5!
b101001 ?
b1001010 @
1B
#805
0!
#810
1!
b1101111 <!
b100 =!
b110 >!
b0 ?!
08!
b100 6!
b1101111 5!
b1101111 ?
b100 @
0B
#815
0!
#820
1!
b11000111 <!
b1001010 =!
b1000 >!
b1001010 6!
b11000111 5!
b11000111 ?
b1001010 @
#825
0!
#830
1!
b10000001 <!
b100 =!
b0 >!
b1010 :!
b100 6!
b10000001 5!
b10000001 ?
b100 @
#835
0!
#840
1!
b11111111111111111111111110001011 ;!
b11000111 <!
b1011101 =!
b1 >!
b1011101 6!
b11000111 5!
b11000111 ?
b1011101 @
#845
0!
#850
1!
b10000010 <!
b10100010 =!
b10 >!
b100010 6!
b10000010 5!
b10000010 ?
b100010 @
#855
0!
#860
1!
b101001 <!
b1011101 =!
b100 >!
b1011101 6!
b101001 5!
b101001 ?
b1011101 @
#865
0!
#870
1!
b1101110 <!
b10100010 =!
b11 >!
b100010 6!
b1101110 5!
b1101110 ?
b100010 @
#875
0!
#880
1!
b101001 <!
b1001001 =!
b101 >!
b1 ?!
18!
b1001001 6!
b101001 5!
b101001 ?
b1001001 @
1B
#885
0!
#890
1!
b1101110 <!
b100 =!
b110 >!
b0 ?!
08!
b100 6!
b1101110 5!
b1101110 ?
b100 @
0B
#895
0!
#900
1!
b11000111 <!
b1001001 =!
b1000 >!
b1001001 6!
b11000111 5!
b11000111 ?
b1001001 @
#905
0!
#910
1!
b10000010 <!
b100 =!
b0 >!
b1011 :!
b100 6!
b10000010 5!
b10000010 ?
b100 @
#915
0!
#920
1!
b11111111111111111111111110100010 ;!
b11000111 <!
b1011110 =!
b1 >!
b1011110 6!
b11000111 5!
b11000111 ?
b1011110 @
#925
0!
#930
1!
b10000011 <!
b10100010 =!
b10 >!
b100010 6!
b10000011 5!
b10000011 ?
b100010 @
#935
0!
#940
1!
b101001 <!
b1011110 =!
b100 >!
b1011110 6!
b101001 5!
b101001 ?
b1011110 @
#945
0!
#950
1!
b1101101 <!
b10100010 =!
b11 >!
b100010 6!
b1101101 5!
b1101101 ?
b100010 @
#955
0!
#960
1!
b101001 <!
b1001000 =!
b101 >!
b1 ?!
18!
b1001000 6!
b101001 5!
b101001 ?
b1001000 @
1B
#965
0!
#970
1!
b1101101 <!
b100 =!
b110 >!
b0 ?!
08!
b100 6!
b1101101 5!
b1101101 ?
b100 @
0B
#975
0!
#980
1!
b11000111 <!
b1001000 =!
b1000 >!
b1001000 6!
b11000111 5!
b11000111 ?
b1001000 @
#985
0!
#990
1!
b10000011 <!
b100 =!
b0 >!
b1100 :!
b100 6!
b10000011 5!
b10000011 ?
b100 @
#995
0!
#1000
1!
b11111111111111111111111110111011 ;!
b11000111 <!
b1011111 =!
b1 >!
b1011111 6!
b11000111 5!
b11000111 ?
b1011111 @
#1005
0!
#1010
1!
b10000100 <!
b10100010 =!
b10 >!
b100010 6!
b10000100 5!
b10000100 ?
b100010 @
#1015
0!
#1020
1!
b101001 <!
b1011111 =!
b100 >!
b1011111 6!
b101001 5!
b101001 ?
b1011111 @
#1025
0!
#1030
1!
b1101100 <!
b10100010 =!
b11 >!
b100010 6!
b1101100 5!
b1101100 ?
b100010 @
#1035
0!
#1040
1!
b101001 <!
b1000111 =!
b101 >!
b1 ?!
18!
b1000111 6!
b101001 5!
b101001 ?
b1000111 @
1B
#1045
0!
#1050
1!
b1101100 <!
b100 =!
b110 >!
b0 ?!
08!
b100 6!
b1101100 5!
b1101100 ?
b100 @
0B
#1055
0!
#1060
1!
b11000111 <!
b1000111 =!
b1000 >!
b1000111 6!
b11000111 5!
b11000111 ?
b1000111 @
#1065
0!
#1070
1!
b10000100 <!
b100 =!
b0 >!
b1101 :!
b100 6!
b10000100 5!
b10000100 ?
b100 @
#1075
0!
#1080
1!
b11111111111111111111111111010110 ;!
b11000111 <!
b1100000 =!
b1 >!
b1100000 6!
b11000111 5!
b11000111 ?
b1100000 @
#1085
0!
#1090
1!
b10000101 <!
b10100010 =!
b10 >!
b100010 6!
b10000101 5!
b10000101 ?
b100010 @
#1095
0!
#1100
1!
b101001 <!
b1100000 =!
b100 >!
b1100000 6!
b101001 5!
b101001 ?
b1100000 @
#1105
0!
#1110
1!
b1101011 <!
b10100010 =!
b11 >!
b100010 6!
b1101011 5!
b1101011 ?
b100010 @
#1115
0!
#1120
1!
b101001 <!
b1000110 =!
b101 >!
b1 ?!
18!
b1000110 6!
b101001 5!
b101001 ?
b1000110 @
1B
#1125
0!
#1130
1!
b1101011 <!
b100 =!
b110 >!
b0 ?!
08!
b100 6!
b1101011 5!
b1101011 ?
b100 @
0B
#1135
0!
#1140
1!
b11000111 <!
b1000110 =!
b1000 >!
b1000110 6!
b11000111 5!
b11000111 ?
b1000110 @
#1145
0!
#1150
1!
b10000101 <!
b100 =!
b0 >!
b1110 :!
b100 6!
b10000101 5!
b10000101 ?
b100 @
#1155
0!
#1160
1!
b11111111111111111111111111110011 ;!
b11000111 <!
b1100001 =!
b1 >!
b1100001 6!
b11000111 5!
b11000111 ?
b1100001 @
#1165
0!
#1170
1!
b10000110 <!
b10100010 =!
b10 >!
b100010 6!
b10000110 5!
b10000110 ?
b100010 @
#1175
0!
#1180
1!
b101001 <!
b1100001 =!
b100 >!
b1100001 6!
b101001 5!
b101001 ?
b1100001 @
#1185
0!
#1190
1!
b1101010 <!
b10100010 =!
b11 >!
b100010 6!
b1101010 5!
b1101010 ?
b100010 @
#1195
0!
#1200
1!
b101001 <!
b1000101 =!
b101 >!
b1 ?!
18!
b1000101 6!
b101001 5!
b101001 ?
b1000101 @
1B
#1205
0!
#1210
1!
b1101010 <!
b100 =!
b110 >!
b0 ?!
08!
b100 6!
b1101010 5!
b1101010 ?
b100 @
0B
#1215
0!
#1220
1!
b11000111 <!
b1000101 =!
b1000 >!
b1000101 6!
b11000111 5!
b11000111 ?
b1000101 @
#1225
0!
#1230
1!
b10000110 <!
b100 =!
b0 >!
b1111 :!
b100 6!
b10000110 5!
b10000110 ?
b100 @
#1235
0!
#1240
1!
b10010 ;!
b11000111 <!
b1100010 =!
b1 >!
b1100010 6!
b11000111 5!
b11000111 ?
b1100010 @
#1245
0!
#1250
1!
b10000111 <!
b10100010 =!
b10 >!
b100010 6!
b10000111 5!
b10000111 ?
b100010 @
#1255
0!
#1260
1!
b101001 <!
b1100010 =!
b100 >!
b1100010 6!
b101001 5!
b101001 ?
b1100010 @
#1265
0!
#1270
1!
b1101001 <!
b10100010 =!
b11 >!
b100010 6!
b1101001 5!
b1101001 ?
b100010 @
#1275
0!
#1280
1!
b101001 <!
b1000100 =!
b101 >!
b1 ?!
18!
b1000100 6!
b101001 5!
b101001 ?
b1000100 @
1B
#1285
0!
#1290
1!
b1101001 <!
b100 =!
b110 >!
b0 ?!
08!
b100 6!
b1101001 5!
b1101001 ?
b100 @
0B
#1295
0!
#1300
1!
b11000111 <!
b1000100 =!
b1000 >!
b1000100 6!
b11000111 5!
b11000111 ?
b1000100 @
#1305
0!
#1310
1!
b10000111 <!
b100 =!
b0 >!
b10000 :!
b100 6!
b10000111 5!
b10000111 ?
b100 @
#1315
0!
#1320
1!
b1001110 9!
b11111111111111111111111110010111 ;!
b11000110 <!
b1100011 =!
b1 >!
b1100011 6!
b11000110 5!
b11000110 ?
b1100011 @
#1325
0!
#1330
1!
b10001000 <!
b10100001 =!
b10 >!
b100001 6!
b10001000 5!
b10001000 ?
b100001 @
#1335
0!
#1340
1!
b101010 <!
b1100011 =!
b100 >!
b1100011 6!
b101010 5!
b101010 ?
b1100011 @
#1345
0!
#1350
1!
b1101000 <!
b10100001 =!
b11 >!
b100001 6!
b1101000 5!
b1101000 ?
b100001 @
#1355
0!
#1360
1!
b101010 <!
b1000011 =!
b101 >!
b1 ?!
18!
b1000011 6!
b101010 5!
b101010 ?
b1000011 @
1B
#1365
0!
#1370
1!
b1101000 <!
b101 =!
b110 >!
b0 ?!
08!
b101 6!
b1101000 5!
b1101000 ?
b101 @
0B
#1375
0!
#1380
1!
b11000110 <!
b1000011 =!
b1000 >!
b1000011 6!
b11000110 5!
b11000110 ?
b1000011 @
#1385
0!
#1390
1!
b10001000 <!
b101 =!
b0 >!
b10001 :!
b101 6!
b10001000 5!
b10001000 ?
b101 @
#1395
0!
#1400
1!
b11111111111111111111111110111010 ;!
b11000110 <!
b1100100 =!
b1 >!
b1100100 6!
b11000110 5!
b11000110 ?
b1100100 @
#1405
0!
#1410
1!
b10001001 <!
b10100001 =!
b10 >!
b100001 6!
b10001001 5!
b10001001 ?
b100001 @
#1415
0!
#1420
1!
b101010 <!
b1100100 =!
b100 >!
b1100100 6!
b101010 5!
b101010 ?
b1100100 @
#1425
0!
#1430
1!
b1100111 <!
b10100001 =!
b11 >!
b100001 6!
b1100111 5!
b1100111 ?
b100001 @
#1435
0!
#1440
1!
b101010 <!
b1000010 =!
b101 >!
b1 ?!
18!
b1000010 6!
b101010 5!
b101010 ?
b1000010 @
1B
#1445
0!
#1450
1!
b1100111 <!
b101 =!
b110 >!
b0 ?!
08!
b101 6!
b1100111 5!
b1100111 ?
b101 @
0B
#1455
0!
#1460
1!
b11000110 <!
b1000010 =!
b1000 >!
b1000010 6!
b11000110 5!
b11000110 ?
b1000010 @
#1465
0!
#1470
1!
b10001001 <!
b101 =!
b0 >!
b10010 :!
b101 6!
b10001001 5!
b10001001 ?
b101 @
#1475
0!
#1480
1!
b11111111111111111111111111011111 ;!
b11000110 <!
b1100101 =!
b1 >!
b1100101 6!
b11000110 5!
b11000110 ?
b1100101 @
#1485
0!
#1490
1!
b10001010 <!
b10100001 =!
b10 >!
b100001 6!
b10001010 5!
b10001010 ?
b100001 @
#1495
0!
#1500
1!
b101010 <!
b1100101 =!
b100 >!
b1100101 6!
b101010 5!
b101010 ?
b1100101 @
#1505
0!
#1510
1!
b1100110 <!
b10100001 =!
b11 >!
b100001 6!
b1100110 5!
b1100110 ?
b100001 @
#1515
0!
#1520
1!
b101010 <!
b1000001 =!
b101 >!
b1 ?!
18!
b1000001 6!
b101010 5!
b101010 ?
b1000001 @
1B
#1525
0!
#1530
1!
b1100110 <!
b101 =!
b110 >!
b0 ?!
08!
b101 6!
b1100110 5!
b1100110 ?
b101 @
0B
#1535
0!
#1540
1!
b11000110 <!
b1000001 =!
b1000 >!
b1000001 6!
b11000110 5!
b11000110 ?
b1000001 @
#1545
0!
#1550
1!
b10001010 <!
b101 =!
b0 >!
b10011 :!
b101 6!
b10001010 5!
b10001010 ?
b101 @
#1555
0!
#1560
1!
b110 ;!
b11000110 <!
b1100110 =!
b1 >!
b1100110 6!
b11000110 5!
b11000110 ?
b1100110 @
#1565
0!
#1570
1!
b10001011 <!
b10100001 =!
b10 >!
b100001 6!
b10001011 5!
b10001011 ?
b100001 @
#1575
0!
#1580
1!
b101010 <!
b1100110 =!
b100 >!
b1100110 6!
b101010 5!
b101010 ?
b1100110 @
#1585
0!
#1590
1!
b1100101 <!
b10100001 =!
b11 >!
b100001 6!
b1100101 5!
b1100101 ?
b100001 @
#1595
0!
#1600
1!
b101010 <!
b1000000 =!
b101 >!
b1 ?!
18!
b1000000 6!
b101010 5!
b101010 ?
b1000000 @
1B
#1605
0!
#1610
1!
b1100101 <!
b101 =!
b110 >!
b0 ?!
08!
b101 6!
b1100101 5!
b1100101 ?
b101 @
0B
#1615
0!
#1620
1!
b11000110 <!
b1000000 =!
b1000 >!
b1000000 6!
b11000110 5!
b11000110 ?
b1000000 @
#1625
0!
#1630
1!
b10001011 <!
b101 =!
b0 >!
b10100 :!
b101 6!
b10001011 5!
b10001011 ?
b101 @
#1635
0!
#1640
1!
b1001101 9!
b11111111111111111111111110010101 ;!
b11000101 <!
b1100111 =!
b1 >!
b1100111 6!
b11000101 5!
b11000101 ?
b1100111 @
#1645
0!
#1650
1!
b10001100 <!
b10100000 =!
b10 >!
b100000 6!
b10001100 5!
b10001100 ?
b100000 @
#1655
0!
#1660
1!
b101011 <!
b1100111 =!
b100 >!
b1100111 6!
b101011 5!
b101011 ?
b1100111 @
#1665
0!
#1670
1!
b1100100 <!
b10100000 =!
b11 >!
b100000 6!
b1100100 5!
b1100100 ?
b100000 @
#1675
0!
#1680
1!
b101011 <!
b111111 =!
b101 >!
b1 ?!
18!
b111111 6!
b101011 5!
b101011 ?
b111111 @
1B
#1685
0!
#1690
1!
b1100100 <!
b110 =!
b110 >!
b0 ?!
08!
b110 6!
b1100100 5!
b1100100 ?
b110 @
0B
#1695
0!
#1700
1!
b11000101 <!
b111111 =!
b1000 >!
b111111 6!
b11000101 5!
b11000101 ?
b111111 @
#1705
0!
