lab2/task4/task4.rtl.vcd
$date
	Tue Oct 27 14:09:46 2020
$end
$version
	ModelSim Version 10.7c
$end
$timescale
	1ps
$end

$scope module task4_ag $end

$scope module dut $end
$var wire 1 ! CLOCK_50 $end
$var wire 1 " KEY [3] $end
$var wire 1 # KEY [2] $end
$var wire 1 $ KEY [1] $end
$var wire 1 % KEY [0] $end
$var wire 1 & SW [9] $end
$var wire 1 ' SW [8] $end
$var wire 1 ( SW [7] $end
$var wire 1 ) SW [6] $end
$var wire 1 * SW [5] $end
$var wire 1 + SW [4] $end
$var wire 1 , SW [3] $end
$var wire 1 - SW [2] $end
$var wire 1 . SW [1] $end
$var wire 1 / SW [0] $end
$var reg 10 0 LEDR [9:0] $end
$var reg 7 1 HEX0 [6:0] $end
$var reg 7 2 HEX1 [6:0] $end
$var reg 7 3 HEX2 [6:0] $end
$var reg 7 4 HEX3 [6:0] $end
$var reg 7 5 HEX4 [6:0] $end
$var reg 7 6 HEX5 [6:0] $end
$var reg 8 7 VGA_R [7:0] $end
$var reg 8 8 VGA_G [7:0] $end
$var reg 8 9 VGA_B [7:0] $end
$var reg 1 : VGA_HS $end
$var reg 1 ; VGA_VS $end
$var reg 1 < VGA_CLK $end
$var reg 8 = VGA_X [7:0] $end
$var reg 7 > VGA_Y [6:0] $end
$var reg 3 ? VGA_COLOUR [2:0] $end
$var reg 1 @ VGA_PLOT $end
$var reg 1 A done_fill $end
$var reg 1 B start_fill $end
$var reg 1 C done_draw $end
$var reg 1 D start_draw $end
$var wire 1 E rst_n $end
$var wire 1 F fs_plot_out $end
$var wire 1 G r_plot_out $end
$var wire 1 H fs_x_out [7] $end
$var wire 1 I fs_x_out [6] $end
$var wire 1 J fs_x_out [5] $end
$var wire 1 K fs_x_out [4] $end
$var wire 1 L fs_x_out [3] $end
$var wire 1 M fs_x_out [2] $end
$var wire 1 N fs_x_out [1] $end
$var wire 1 O fs_x_out [0] $end
$var wire 1 P r_x_out [7] $end
$var wire 1 Q r_x_out [6] $end
$var wire 1 R r_x_out [5] $end
$var wire 1 S r_x_out [4] $end
$var wire 1 T r_x_out [3] $end
$var wire 1 U r_x_out [2] $end
$var wire 1 V r_x_out [1] $end
$var wire 1 W r_x_out [0] $end
$var wire 1 X fs_y_out [6] $end
$var wire 1 Y fs_y_out [5] $end
$var wire 1 Z fs_y_out [4] $end
$var wire 1 [ fs_y_out [3] $end
$var wire 1 \ fs_y_out [2] $end
$var wire 1 ] fs_y_out [1] $end
$var wire 1 ^ fs_y_out [0] $end
$var wire 1 _ r_y_out [6] $end
$var wire 1 ` r_y_out [5] $end
$var wire 1 a r_y_out [4] $end
$var wire 1 b r_y_out [3] $end
$var wire 1 c r_y_out [2] $end
$var wire 1 d r_y_out [1] $end
$var wire 1 e r_y_out [0] $end
$var wire 1 f fs_colour_out [2] $end
$var wire 1 g fs_colour_out [1] $end
$var wire 1 h fs_colour_out [0] $end
$var wire 1 i r_colour_out [2] $end
$var wire 1 j r_colour_out [1] $end
$var wire 1 k r_colour_out [0] $end
$var reg 10 l VGA_R_10 [9:0] $end
$var reg 10 m VGA_G_10 [9:0] $end
$var reg 10 n VGA_B_10 [9:0] $end
$var reg 1 o VGA_BLANK $end
$var reg 1 p VGA_SYNC $end

$scope module fs $end
$var wire 1 ! clk $end
$var wire 1 E rst_n $end
$var wire 1 q colour [2] $end
$var wire 1 r colour [1] $end
$var wire 1 s colour [0] $end
$var wire 1 t start $end
$var reg 1 u done $end
$var reg 8 v vga_x [7:0] $end
$var reg 7 w vga_y [6:0] $end
$var reg 3 x vga_colour [2:0] $end
$var reg 1 y vga_plot $end
$var reg 8 z current_x [7:0] $end
$var reg 7 { current_y [6:0] $end
$var reg 2 | state [1:0] $end
$var reg 2 } out [1:0] $end
$upscope $end

$scope module draw $end
$var wire 1 ! clk $end
$var wire 1 E rst_n $end
$var wire 1 ~ colour [2] $end
$var wire 1 !! colour [1] $end
$var wire 1 "! colour [0] $end
$var wire 1 #! centre_x [7] $end
$var wire 1 $! centre_x [6] $end
$var wire 1 %! centre_x [5] $end
$var wire 1 &! centre_x [4] $end
$var wire 1 '! centre_x [3] $end
$var wire 1 (! centre_x [2] $end
$var wire 1 )! centre_x [1] $end
$var wire 1 *! centre_x [0] $end
$var wire 1 +! centre_y [6] $end
$var wire 1 ,! centre_y [5] $end
$var wire 1 -! centre_y [4] $end
$var wire 1 .! centre_y [3] $end
$var wire 1 /! centre_y [2] $end
$var wire 1 0! centre_y [1] $end
$var wire 1 1! centre_y [0] $end
$var wire 1 2! diameter [7] $end
$var wire 1 3! diameter [6] $end
$var wire 1 4! diameter [5] $end
$var wire 1 5! diameter [4] $end
$var wire 1 6! diameter [3] $end
$var wire 1 7! diameter [2] $end
$var wire 1 8! diameter [1] $end
$var wire 1 9! diameter [0] $end
$var wire 1 :! start $end
$var reg 1 ;! done $end
$var reg 8 <! vga_x [7:0] $end
$var reg 7 =! vga_y [6:0] $end
$var reg 3 >! vga_colour [2:0] $end
$var reg 1 ?! vga_plot $end
$var reg 32 @! tmp [31:0] $end
$var reg 32 A! tmp_d [31:0] $end
$var reg 3 B! state [2:0] $end
$var reg 19 C! sqrt3div3 [18:0] $end
$var reg 8 D! c_x [7:0] $end
$var reg 8 E! c_x1 [7:0] $end
$var reg 8 F! c_x2 [7:0] $end
$var reg 8 G! c_x3 [7:0] $end
$var reg 8 H! curr_cx [7:0] $end
$var reg 8 I! d [7:0] $end
$var reg 8 J! r [7:0] $end
$var reg 8 K! min_x [7:0] $end
$var reg 8 L! max_x [7:0] $end
$var reg 8 M! rounded_tmp [7:0] $end
$var reg 7 N! c_y [6:0] $end
$var reg 7 O! c_y1 [6:0] $end
$var reg 7 P! c_y2 [6:0] $end
$var reg 7 Q! c_y3 [6:0] $end
$var reg 7 R! curr_cy [6:0] $end
$var reg 7 S! min_y [6:0] $end
$var reg 7 T! max_y [6:0] $end
$var reg 7 U! rounded_tmp_d [6:0] $end
$var reg 1 V! done_draw $end
$var reg 1 W! done_out $end
$var reg 1 X! start_draw $end

$scope module draw $end
$var wire 1 ! clk $end
$var wire 1 E rst_n $end
$var wire 1 ~ colour [2] $end
$var wire 1 !! colour [1] $end
$var wire 1 "! colour [0] $end
$var wire 1 Y! centre_x [7] $end
$var wire 1 Z! centre_x [6] $end
$var wire 1 [! centre_x [5] $end
$var wire 1 \! centre_x [4] $end
$var wire 1 ]! centre_x [3] $end
$var wire 1 ^! centre_x [2] $end
$var wire 1 _! centre_x [1] $end
$var wire 1 `! centre_x [0] $end
$var wire 1 a! centre_y [6] $end
$var wire 1 b! centre_y [5] $end
$var wire 1 c! centre_y [4] $end
$var wire 1 d! centre_y [3] $end
$var wire 1 e! centre_y [2] $end
$var wire 1 f! centre_y [1] $end
$var wire 1 g! centre_y [0] $end
$var wire 1 h! radius [7] $end
$var wire 1 i! radius [6] $end
$var wire 1 j! radius [5] $end
$var wire 1 k! radius [4] $end
$var wire 1 l! radius [3] $end
$var wire 1 m! radius [2] $end
$var wire 1 n! radius [1] $end
$var wire 1 o! radius [0] $end
$var wire 1 p! min_x [7] $end
$var wire 1 q! min_x [6] $end
$var wire 1 r! min_x [5] $end
$var wire 1 s! min_x [4] $end
$var wire 1 t! min_x [3] $end
$var wire 1 u! min_x [2] $end
$var wire 1 v! min_x [1] $end
$var wire 1 w! min_x [0] $end
$var wire 1 x! max_x [7] $end
$var wire 1 y! max_x [6] $end
$var wire 1 z! max_x [5] $end
$var wire 1 {! max_x [4] $end
$var wire 1 |! max_x [3] $end
$var wire 1 }! max_x [2] $end
$var wire 1 ~! max_x [1] $end
$var wire 1 !" max_x [0] $end
$var wire 1 "" min_y [6] $end
$var wire 1 #" min_y [5] $end
$var wire 1 $" min_y [4] $end
$var wire 1 %" min_y [3] $end
$var wire 1 &" min_y [2] $end
$var wire 1 '" min_y [1] $end
$var wire 1 (" min_y [0] $end
$var wire 1 )" max_y [6] $end
$var wire 1 *" max_y [5] $end
$var wire 1 +" max_y [4] $end
$var wire 1 ," max_y [3] $end
$var wire 1 -" max_y [2] $end
$var wire 1 ." max_y [1] $end
$var wire 1 /" max_y [0] $end
$var wire 1 0" start $end
$var reg 1 1" done $end
$var reg 8 2" vga_x [7:0] $end
$var reg 7 3" vga_y [6:0] $end
$var reg 3 4" vga_colour [2:0] $end
$var reg 1 5" vga_plot $end
$var integer 32 6" offset_x $end
$var integer 32 7" offset_y $end
$var integer 32 8" crit $end
$var integer 32 9" val_x $end
$var integer 32 :" val_y $end
$var reg 4 ;" state [3:0] $end
$var reg 2 <" out [1:0] $end
$upscope $end
$upscope $end

$scope module vga_u0 $end
$var parameter 32 =" BITS_PER_COLOUR_CHANNEL $end
$var parameter 40 >" MONOCHROME $end
$var parameter 56 ?" RESOLUTION $end
$var parameter 112 @" BACKGROUND_IMAGE $end
$var parameter 40 A" USING_DE1 $end
$var parameter 40 B" SAVE_SCREEN $end
$var wire 1 E resetn $end
$var wire 1 ! clock $end
$var wire 1 C" colour [2] $end
$var wire 1 D" colour [1] $end
$var wire 1 E" colour [0] $end
$var wire 1 F" x [7] $end
$var wire 1 G" x [6] $end
$var wire 1 H" x [5] $end
$var wire 1 I" x [4] $end
$var wire 1 J" x [3] $end
$var wire 1 K" x [2] $end
$var wire 1 L" x [1] $end
$var wire 1 M" x [0] $end
$var wire 1 N" y [6] $end
$var wire 1 O" y [5] $end
$var wire 1 P" y [4] $end
$var wire 1 Q" y [3] $end
$var wire 1 R" y [2] $end
$var wire 1 S" y [1] $end
$var wire 1 T" y [0] $end
$var wire 1 U" plot $end
$var reg 10 V" VGA_R [9:0] $end
$var reg 10 W" VGA_G [9:0] $end
$var reg 10 X" VGA_B [9:0] $end
$var reg 1 Y" VGA_HS $end
$var reg 1 Z" VGA_VS $end
$var reg 1 [" VGA_BLANK $end
$var reg 1 \" VGA_SYNC $end
$var reg 1 ]" VGA_CLK $end
$var integer 32 ^" n $end
$upscope $end
$upscope $end
$upscope $end
$enddefinitions $end
#0
$dumpvars
bx 0
bx 1
bx 2
bx 3
bx 4
bx 5
bx 6
bx 7
bx 8
bx 9
x:
x;
x<
bx =
bx >
b0x0 ?
x@
xA
1B
xC
xD
bx l
bx m
bx n
xo
xp
xu
bx v
bx w
b0 x
xy
bx z
bx {
bx |
bx }
x;!
bx <!
bx =!
b10 >!
x?!
bx @!
bx A!
bx B!
b10010011110 C!
bx D!
bx E!
bx F!
bx G!
bx H!
bx I!
b0xxxxxxx J!
bx K!
bx L!
bx M!
bx N!
bx O!
bx P!
bx Q!
bx R!
bx S!
bx T!
bx U!
xV!
xW!
xX!
x1"
bx 2"
bx 3"
b10 4"
x5"
bx ;"
bx <"
bx V"
bx W"
bx X"
xY"
xZ"
x["
x\"
x]"
b1 ="
b100011001000001010011000101001101000101 >"
b110001001101100011000001111000001100010011001000110000 ?"
b110001001100001011000110110101101100111011100100110111101110101011011100110010000101110011011010110100101100110 @"
b100011001000001010011000101001101000101 A"
b100011001000001010011000101001101000101 B"
bx 6"
bx 7"
bx 8"
bx 9"
bx :"
bx ^"
1E
xF
xG
xO
xN
xM
xL
xK
xJ
xI
xH
xW
xV
xU
xT
xS
xR
xQ
xP
x^
x]
x\
x[
xZ
xY
xX
xe
xd
xc
xb
xa
x`
x_
0h
0g
0f
0k
1j
0i
x/
x.
x-
x,
x+
x*
x)
x(
x'
x&
1"
1#
1$
1%
0!
xU"
xT"
xS"
xR"
xQ"
xP"
xO"
xN"
xM"
xL"
xK"
xJ"
xI"
xH"
xG"
xF"
0E"
xD"
0C"
x:!
09!
08!
07!
06!
15!
04!
13!
02!
01!
00!
1/!
1.!
1-!
1,!
0+!
0*!
0)!
0(!
0'!
1&!
0%!
1$!
0#!
0"!
1!!
0~
1t
0s
0r
0q
x0"
x/"
x."
x-"
x,"
x+"
x*"
x)"
x("
x'"
x&"
x%"
x$"
x#"
x""
x!"
x~!
x}!
x|!
x{!
xz!
xy!
xx!
xw!
xv!
xu!
xt!
xs!
xr!
xq!
xp!
xo!
xn!
xm!
xl!
xk!
xj!
xi!
xh!
xg!
xf!
xe!
xd!
xc!
xb!
xa!
x`!
x_!
x^!
x]!
x\!
x[!
xZ!
xY!
$end
#3
0"
0E
b0 ;"
b0xxxxxxxx 6"
b0 7"
b0 9"
b0 :"
b0 <"
05"
01"
b0 3"
b0 2"
b0 <!
b0 =!
0V!
0?!
0e
0d
0c
0b
0a
0`
0_
0W
0V
0U
0T
0S
0R
0Q
0P
0G
b0 |
b0 z
b0 {
b0 }
b0 B!
0W!
0X!
0;!
0y
0u
b0 w
b0 v
00"
0A
0C
0F
0O
0N
0M
0L
0K
0J
0I
0H
0^
0]
0\
0[
0Z
0Y
0X
0@
bx0 0
0D
b0 =
b0 >
b0 ?
0U"
0:!
0D"
0T"
0S"
0R"
0Q"
0P"
0O"
0N"
0M"
0L"
0K"
0J"
0I"
0H"
0G"
0F"
#5
1!
#6
1"
1E
#10
0!
#15
1!
b1 |
b1 }
1y
1F
1@
1U"
#20
0!
#25
1!
b1 {
b1 w
1^
b1 >
1T"
#30
0!
#35
1!
b10 {
b10 w
0^
1]
b10 >
0T"
1S"
#40
0!
#45
1!
b11 {
b11 w
1^
b11 >
1T"
#50
0!
#55
1!
b100 {
b100 w
0^
0]
1\
b100 >
0T"
0S"
1R"
#60
0!
#65
1!
b101 {
b101 w
1^
b101 >
1T"
#70
0!
#75
1!
b110 {
b110 w
0^
1]
b110 >
0T"
1S"
#80
0!
#85
1!
b111 {
b111 w
1^
b111 >
1T"
#90
0!
#95
1!
b1000 {
b1000 w
0^
0]
0\
1[
b1000 >
0T"
0S"
0R"
1Q"
#100
0!
#105
1!
b1001 {
b1001 w
1^
b1001 >
1T"
#110
0!
#115
1!
b1010 {
b1010 w
0^
1]
b1010 >
0T"
1S"
#120
0!
#125
1!
b1011 {
b1011 w
1^
b1011 >
1T"
#130
0!
#135
1!
b1100 {
b1100 w
0^
0]
1\
b1100 >
0T"
0S"
1R"
#140
0!
#145
1!
b1101 {
b1101 w
1^
b1101 >
1T"
#150
0!
#155
1!
b1110 {
b1110 w
0^
1]
b1110 >
0T"
1S"
#160
0!
#165
1!
b1111 {
b1111 w
1^
b1111 >
1T"
#170
0!
#175
1!
b10000 {
b10000 w
0^
0]
0\
0[
1Z
b10000 >
0T"
0S"
0R"
0Q"
1P"
#180
0!
#185
1!
b10001 {
b10001 w
1^
b10001 >
1T"
#190
0!
#195
1!
b10010 {
b10010 w
0^
1]
b10010 >
0T"
1S"
#200
0!
#205
1!
b10011 {
b10011 w
1^
b10011 >
1T"
#210
0!
#215
1!
b10100 {
b10100 w
0^
0]
1\
b10100 >
0T"
0S"
1R"
#220
0!
#225
1!
b10101 {
b10101 w
1^
b10101 >
1T"
#230
0!
#235
1!
b10110 {
b10110 w
0^
1]
b10110 >
0T"
1S"
#240
0!
#245
1!
b10111 {
b10111 w
1^
b10111 >
1T"
#250
0!
#255
1!
b11000 {
b11000 w
0^
0]
0\
1[
b11000 >
0T"
0S"
0R"
1Q"
#260
0!
#265
1!
b11001 {
b11001 w
1^
b11001 >
1T"
#270
0!
#275
1!
b11010 {
b11010 w
0^
1]
b11010 >
0T"
1S"
#280
0!
#285
1!
b11011 {
b11011 w
1^
b11011 >
1T"
#290
0!
#295
1!
b11100 {
b11100 w
0^
0]
1\
b11100 >
0T"
0S"
1R"
#300
0!
#305
1!
b11101 {
b11101 w
1^
b11101 >
1T"
#310
0!
#315
1!
b11110 {
b11110 w
0^
1]
b11110 >
0T"
1S"
#320
0!
#325
1!
b11111 {
b11111 w
1^
b11111 >
1T"
#330
0!
#335
1!
b100000 {
b100000 w
0^
0]
0\
0[
0Z
1Y
b100000 >
0T"
0S"
0R"
0Q"
0P"
1O"
#340
0!
#345
1!
b100001 {
b100001 w
1^
b100001 >
1T"
#350
0!
#355
1!
b100010 {
b100010 w
0^
1]
b100010 >
0T"
1S"
#360
0!
#365
1!
b100011 {
b100011 w
1^
b100011 >
1T"
#370
0!
#375
1!
b100100 {
b100100 w
0^
0]
1\
b100100 >
0T"
0S"
1R"
#380
0!
#385
1!
b100101 {
b100101 w
1^
b100101 >
1T"
#390
0!
#395
1!
b100110 {
b100110 w
0^
1]
b100110 >
0T"
1S"
#400
0!
#405
1!
b100111 {
b100111 w
1^
b100111 >
1T"
#410
0!
#415
1!
b101000 {
b101000 w
0^
0]
0\
1[
b101000 >
0T"
0S"
0R"
1Q"
#420
0!
#425
1!
b101001 {
b101001 w
1^
b101001 >
1T"
#430
0!
#435
1!
b101010 {
b101010 w
0^
1]
b101010 >
0T"
1S"
#440
0!
#445
1!
b101011 {
b101011 w
1^
b101011 >
1T"
#450
0!
#455
1!
b101100 {
b101100 w
0^
0]
1\
b101100 >
0T"
0S"
1R"
#460
0!
#465
1!
b101101 {
b101101 w
1^
b101101 >
1T"
#470
0!
#475
1!
b101110 {
b101110 w
0^
1]
b101110 >
0T"
1S"
#480
0!
#485
1!
b101111 {
b101111 w
1^
b101111 >
1T"
#490
0!
#495
1!
b110000 {
b110000 w
0^
0]
0\
0[
1Z
b110000 >
0T"
0S"
0R"
0Q"
1P"
#500
0!
#505
1!
b110001 {
b110001 w
1^
b110001 >
1T"
#510
0!
#515
1!
b110010 {
b110010 w
0^
1]
b110010 >
0T"
1S"
#520
0!
#525
1!
b110011 {
b110011 w
1^
b110011 >
1T"
#530
0!
#535
1!
b110100 {
b110100 w
0^
0]
1\
b110100 >
0T"
0S"
1R"
#540
0!
#545
1!
b110101 {
b110101 w
1^
b110101 >
1T"
#550
0!
#555
1!
b110110 {
b110110 w
0^
1]
b110110 >
0T"
1S"
#560
0!
#565
1!
b110111 {
b110111 w
1^
b110111 >
1T"
#570
0!
#575
1!
b111000 {
b111000 w
0^
0]
0\
1[
b111000 >
0T"
0S"
0R"
1Q"
#580
0!
#585
1!
b111001 {
b111001 w
1^
b111001 >
1T"
#590
0!
#595
1!
b111010 {
b111010 w
0^
1]
b111010 >
0T"
1S"
#600
0!
#605
1!
b111011 {
b111011 w
1^
b111011 >
1T"
#610
0!
#615
1!
b111100 {
b111100 w
0^
0]
1\
b111100 >
0T"
0S"
1R"
#620
0!
#625
1!
b111101 {
b111101 w
1^
b111101 >
1T"
#630
0!
#635
1!
b111110 {
b111110 w
0^
1]
b111110 >
0T"
1S"
#640
0!
#645
1!
b111111 {
b111111 w
1^
b111111 >
1T"
#650
0!
#655
1!
b1000000 {
b1000000 w
0^
0]
0\
0[
0Z
0Y
1X
b1000000 >
0T"
0S"
0R"
0Q"
0P"
0O"
1N"
#660
0!
#665
1!
b1000001 {
b1000001 w
1^
b1000001 >
1T"
#670
0!
#675
1!
b1000010 {
b1000010 w
0^
1]
b1000010 >
0T"
1S"
#680
0!
#685
1!
b1000011 {
b1000011 w
1^
b1000011 >
1T"
#690
0!
#695
1!
b1000100 {
b1000100 w
0^
0]
1\
b1000100 >
0T"
0S"
1R"
#700
0!
#705
1!
b1000101 {
b1000101 w
1^
b1000101 >
1T"
#710
0!
#715
1!
b1000110 {
b1000110 w
0^
1]
b1000110 >
0T"
1S"
#720
0!
#725
1!
b1000111 {
b1000111 w
1^
b1000111 >
1T"
#730
0!
#735
1!
b1001000 {
b1001000 w
0^
0]
0\
1[
b1001000 >
0T"
0S"
0R"
1Q"
#740
0!
#745
1!
b1001001 {
b1001001 w
1^
b1001001 >
1T"
#750
0!
#755
1!
b1001010 {
b1001010 w
0^
1]
b1001010 >
0T"
1S"
#760
0!
#765
1!
b1001011 {
b1001011 w
1^
b1001011 >
1T"
#770
0!
#775
1!
b1001100 {
b1001100 w
0^
0]
1\
b1001100 >
0T"
0S"
1R"
#780
0!
#785
1!
b1001101 {
b1001101 w
1^
b1001101 >
1T"
#790
0!
#795
1!
b1001110 {
b1001110 w
0^
1]
b1001110 >
0T"
1S"
#800
0!
#805
1!
b1001111 {
b1001111 w
1^
b1001111 >
1T"
#810
0!
#815
1!
b1010000 {
b1010000 w
0^
0]
0\
0[
1Z
b1010000 >
0T"
0S"
0R"
0Q"
1P"
#820
0!
#825
1!
b1010001 {
b1010001 w
1^
b1010001 >
1T"
#830
0!
#835
1!
b1010010 {
b1010010 w
0^
1]
b1010010 >
0T"
1S"
#840
0!
#845
1!
b1010011 {
b1010011 w
1^
b1010011 >
1T"
#850
0!
#855
1!
b1010100 {
b1010100 w
0^
0]
1\
b1010100 >
0T"
0S"
1R"
#860
0!
#865
1!
b1010101 {
b1010101 w
1^
b1010101 >
1T"
#870
0!
#875
1!
b1010110 {
b1010110 w
0^
1]
b1010110 >
0T"
1S"
#880
0!
#885
1!
b1010111 {
b1010111 w
1^
b1010111 >
1T"
#890
0!
#895
1!
b1011000 {
b1011000 w
0^
0]
0\
1[
b1011000 >
0T"
0S"
0R"
1Q"
#900
0!
#905
1!
b1011001 {
b1011001 w
1^
b1011001 >
1T"
#910
0!
#915
1!
b1011010 {
b1011010 w
0^
1]
b1011010 >
0T"
1S"
#920
0!
#925
1!
b1011011 {
b1011011 w
1^
b1011011 >
1T"
#930
0!
#935
1!
b1011100 {
b1011100 w
0^
0]
1\
b1011100 >
0T"
0S"
1R"
#940
0!
#945
1!
b1011101 {
b1011101 w
1^
b1011101 >
1T"
#950
0!
#955
1!
b1011110 {
b1011110 w
0^
1]
b1011110 >
0T"
1S"
#960
0!
#965
1!
b1011111 {
b1011111 w
1^
b1011111 >
1T"
#970
0!
#975
1!
b1100000 {
b1100000 w
0^
0]
0\
0[
0Z
1Y
b1100000 >
0T"
0S"
0R"
0Q"
0P"
1O"
#980
0!
#985
1!
b1100001 {
b1100001 w
1^
b1100001 >
1T"
#990
0!
#995
1!
b1100010 {
b1100010 w
0^
1]
b1100010 >
0T"
1S"
#1000
0!
#1005
1!
b1100011 {
b1100011 w
1^
b1100011 >
1T"
#1010
0!
#1015
1!
b1100100 {
b1100100 w
0^
0]
1\
b1100100 >
0T"
0S"
1R"
#1020
0!
#1025
1!
b1100101 {
b1100101 w
1^
b1100101 >
1T"
#1030
0!
#1035
1!
b1100110 {
b1100110 w
0^
1]
b1100110 >
0T"
1S"
#1040
0!
#1045
1!
b1100111 {
b1100111 w
1^
b1100111 >
1T"
#1050
0!
#1055
1!
b1101000 {
b1101000 w
0^
0]
0\
1[
b1101000 >
0T"
0S"
0R"
1Q"
#1060
0!
#1065
1!
b1101001 {
b1101001 w
1^
b1101001 >
1T"
#1070
0!
#1075
1!
b1101010 {
b1101010 w
0^
1]
b1101010 >
0T"
1S"
#1080
0!
#1085
1!
b1101011 {
b1101011 w
1^
b1101011 >
1T"
#1090
0!
#1095
1!
b1101100 {
b1101100 w
0^
0]
1\
b1101100 >
0T"
0S"
1R"
#1100
0!
#1105
1!
b1101101 {
b1101101 w
1^
b1101101 >
1T"
#1110
0!
#1115
1!
b1101110 {
b1101110 w
0^
1]
b1101110 >
0T"
1S"
#1120
0!
#1125
1!
b1101111 {
b1101111 w
1^
b1101111 >
1T"
#1130
0!
#1135
1!
b1110000 {
b1110000 w
0^
0]
0\
0[
1Z
b1110000 >
0T"
0S"
0R"
0Q"
1P"
#1140
0!
#1145
1!
b1110001 {
b1110001 w
1^
b1110001 >
1T"
#1150
0!
#1155
1!
b1110010 {
b1110010 w
0^
1]
b1110010 >
0T"
1S"
#1160
0!
#1165
1!
b1110011 {
b1110011 w
1^
b1110011 >
1T"
#1170
0!
#1175
1!
b1110100 {
b1110100 w
0^
0]
1\
b1110100 >
0T"
0S"
1R"
#1180
0!
#1185
1!
b1110101 {
b1110101 w
1^
b1110101 >
1T"
#1190
0!
#1195
1!
b1110110 {
b1110110 w
0^
1]
b1110110 >
0T"
1S"
#1200
0!
#1205
1!
b1110111 {
b1110111 w
1^
b1110111 >
1T"
#1210
0!
#1215
1!
b1 z
b1 v
1O
b1 =
1M"
b0 {
b0 w
0^
0]
0\
0Z
0Y
0X
b0 >
0T"
0S"
0R"
0P"
0O"
0N"
#1220
0!
#1225
1!
b1 {
b1 w
1^
b1 >
1T"
#1230
0!
#1235
1!
b10 {
b10 w
0^
1]
b10 >
0T"
1S"
#1240
0!
#1245
1!
b11 {
b11 w
1^
b11 >
1T"
#1250
0!
#1255
1!
b100 {
b100 w
0^
0]
1\
b100 >
0T"
0S"
1R"
#1260
0!
#1265
1!
b101 {
b101 w
1^
b101 >
1T"
#1270
0!
#1275
1!
b110 {
b110 w
0^
1]
b110 >
0T"
1S"
#1280
0!
#1285
1!
b111 {
b111 w
1^
b111 >
1T"
#1290
0!
#1295
1!
b1000 {
b1000 w
0^
0]
0\
1[
b1000 >
0T"
0S"
0R"
1Q"
#1300
0!
#1305
1!
b1001 {
b1001 w
1^
b1001 >
1T"
#1310
0!
#1315
1!
b1010 {
b1010 w
0^
1]
b1010 >
0T"
1S"
#1320
0!
#1325
1!
b1011 {
b1011 w
1^
b1011 >
1T"
#1330
0!
#1335
1!
b1100 {
b1100 w
0^
0]
1\
b1100 >
0T"
0S"
1R"
#1340
0!
#1345
1!
b1101 {
b1101 w
1^
b1101 >
1T"
#1350
0!
#1355
1!
b1110 {
b1110 w
0^
1]
b1110 >
0T"
1S"
#1360
0!
#1365
1!
b1111 {
b1111 w
1^
b1111 >
1T"
#1370
0!
#1375
1!
b10000 {
b10000 w
0^
0]
0\
0[
1Z
b10000 >
0T"
0S"
0R"
0Q"
1P"
#1380
0!
#1385
1!
b10001 {
b10001 w
1^
b10001 >
1T"
#1390
0!
#1395
1!
b10010 {
b10010 w
0^
1]
b10010 >
0T"
1S"
#1400
0!
#1405
1!
b10011 {
b10011 w
1^
b10011 >
1T"
#1410
0!
#1415
1!
b10100 {
b10100 w
0^
0]
1\
b10100 >
0T"
0S"
1R"
#1420
0!
#1425
1!
b10101 {
b10101 w
1^
b10101 >
1T"
#1430
0!
#1435
1!
b10110 {
b10110 w
0^
1]
b10110 >
0T"
1S"
#1440
0!
#1445
1!
b10111 {
b10111 w
1^
b10111 >
1T"
#1450
0!
#1455
1!
b11000 {
b11000 w
0^
0]
0\
1[
b11000 >
0T"
0S"
0R"
1Q"
#1460
0!
#1465
1!
b11001 {
b11001 w
1^
b11001 >
1T"
#1470
0!
#1475
1!
b11010 {
b11010 w
0^
1]
b11010 >
0T"
1S"
#1480
0!
#1485
1!
b11011 {
b11011 w
1^
b11011 >
1T"
#1490
0!
#1495
1!
b11100 {
b11100 w
0^
0]
1\
b11100 >
0T"
0S"
1R"
#1500
0!
#1505
1!
b11101 {
b11101 w
1^
b11101 >
1T"
#1510
0!
#1515
1!
b11110 {
b11110 w
0^
1]
b11110 >
0T"
1S"
#1520
0!
#1525
1!
b11111 {
b11111 w
1^
b11111 >
1T"
#1530
0!
#1535
1!
b100000 {
b100000 w
0^
0]
0\
0[
0Z
1Y
b100000 >
0T"
0S"
0R"
0Q"
0P"
1O"
#1540
0!
#1545
1!
b100001 {
b100001 w
1^
b100001 >
1T"
#1550
0!
#1555
1!
b100010 {
b100010 w
0^
1]
b100010 >
0T"
1S"
#1560
0!
#1565
1!
b100011 {
b100011 w
1^
b100011 >
1T"
#1570
0!
#1575
1!
b100100 {
b100100 w
0^
0]
1\
b100100 >
0T"
0S"
1R"
#1580
0!
#1585
1!
b100101 {
b100101 w
1^
b100101 >
1T"
#1590
0!
#1595
1!
b100110 {
b100110 w
0^
1]
b100110 >
0T"
1S"
#1600
0!
#1605
1!
b100111 {
b100111 w
1^
b100111 >
1T"
#1610
0!
#1615
1!
b101000 {
b101000 w
0^
0]
0\
1[
b101000 >
0T"
0S"
0R"
1Q"
#1620
0!
#1625
1!
b101001 {
b101001 w
1^
b101001 >
1T"
#1630
0!
#1635
1!
b101010 {
b101010 w
0^
1]
b101010 >
0T"
1S"
#1640
0!
#1645
1!
b101011 {
b101011 w
1^
b101011 >
1T"
#1650
0!
#1655
1!
b101100 {
b101100 w
0^
0]
1\
b101100 >
0T"
0S"
1R"
#1660
0!
#1665
1!
b101101 {
b101101 w
1^
b101101 >
1T"
#1670
0!
#1675
1!
b101110 {
b101110 w
0^
1]
b101110 >
0T"
1S"
#1680
0!
#1685
1!
b101111 {
b101111 w
1^
b101111 >
1T"
#1690
0!
#1695
1!
b110000 {
b110000 w
0^
0]
0\
0[
1Z
b110000 >
0T"
0S"
0R"
0Q"
1P"
#1700
0!
#1705
1!
b110001 {
b110001 w
1^
b110001 >
1T"
#1710
0!
#1715
1!
b110010 {
b110010 w
0^
1]
b110010 >
0T"
1S"
#1720
0!
#1725
1!
b110011 {
b110011 w
1^
b110011 >
1T"
#1730
0!
#1735
1!
b110100 {
b110100 w
0^
0]
1\
b110100 >
0T"
0S"
1R"
#1740
0!
#1745
1!
b110101 {
b110101 w
1^
b110101 >
1T"
#1750
0!
#1755
1!
b110110 {
b110110 w
0^
1]
b110110 >
0T"
1S"
#1760
0!
#1765
1!
b110111 {
b110111 w
1^
b110111 >
1T"
#1770
0!
#1775
1!
b111000 {
b111000 w
0^
0]
0\
1[
b111000 >
0T"
0S"
0R"
1Q"
#1780
0!
#1785
1!
b111001 {
b111001 w
1^
b111001 >
1T"
#1790
0!
#1795
1!
b111010 {
b111010 w
0^
1]
b111010 >
0T"
1S"
#1800
0!
#1805
1!
b111011 {
b111011 w
1^
b111011 >
1T"
#1810
0!
#1815
1!
b111100 {
b111100 w
0^
0]
1\
b111100 >
0T"
0S"
1R"
#1820
0!
#1825
1!
b111101 {
b111101 w
1^
b111101 >
1T"
#1830
0!
#1835
1!
b111110 {
b111110 w
0^
1]
b111110 >
0T"
1S"
#1840
0!
#1845
1!
b111111 {
b111111 w
1^
b111111 >
1T"
#1850
0!
#1855
1!
b1000000 {
b1000000 w
0^
0]
0\
0[
0Z
0Y
1X
b1000000 >
0T"
0S"
0R"
0Q"
0P"
0O"
1N"
