midterm2/task1/task1.rtl.vcd
$date
	Mon Dec  7 07:34:57 2020
$end
$version
	ModelSim Version 10.7c
$end
$timescale
	1ns
$end

$scope module task1_ag $end

$scope module dut $end
$var wire 1 ! CLOCK_50 $end
$var wire 1 " KEY [3] $end
$var wire 1 # KEY [2] $end
$var wire 1 $ KEY [1] $end
$var wire 1 % KEY [0] $end
$var wire 1 & SW [9] $end
$var wire 1 ' SW [8] $end
$var wire 1 ( SW [7] $end
$var wire 1 ) SW [6] $end
$var wire 1 * SW [5] $end
$var wire 1 + SW [4] $end
$var wire 1 , SW [3] $end
$var wire 1 - SW [2] $end
$var wire 1 . SW [1] $end
$var wire 1 / SW [0] $end
$var reg 10 0 LEDR [9:0] $end
$var reg 7 1 HEX0 [6:0] $end
$var reg 7 2 HEX1 [6:0] $end
$var reg 7 3 HEX2 [6:0] $end
$var reg 7 4 HEX3 [6:0] $end
$var reg 7 5 HEX4 [6:0] $end
$var reg 7 6 HEX5 [6:0] $end
$var reg 8 7 VGA_R [7:0] $end
$var reg 8 8 VGA_G [7:0] $end
$var reg 8 9 VGA_B [7:0] $end
$var reg 1 : VGA_HS $end
$var reg 1 ; VGA_VS $end
$var reg 1 < VGA_CLK $end
$var reg 8 = VGA_X [7:0] $end
$var reg 7 > VGA_Y [6:0] $end
$var reg 3 ? VGA_COLOUR [2:0] $end
$var reg 1 @ VGA_PLOT $end
$var reg 1 A VGA_BLANK $end
$var reg 1 B VGA_SYNC $end
$var reg 10 C VGA_R_10 [9:0] $end
$var reg 10 D VGA_G_10 [9:0] $end
$var reg 10 E VGA_B_10 [9:0] $end
$var reg 1 F clock $end
$var reg 1 G resetn $end
$var reg 1 H done $end
$var reg 1 I start $end

$scope module MyDrawLine $end
$var wire 1 J clk $end
$var wire 1 K rst_n $end
$var wire 1 L colour [2] $end
$var wire 1 M colour [1] $end
$var wire 1 N colour [0] $end
$var wire 1 O x0 [7] $end
$var wire 1 P x0 [6] $end
$var wire 1 Q x0 [5] $end
$var wire 1 R x0 [4] $end
$var wire 1 S x0 [3] $end
$var wire 1 T x0 [2] $end
$var wire 1 U x0 [1] $end
$var wire 1 V x0 [0] $end
$var wire 1 W y0 [6] $end
$var wire 1 X y0 [5] $end
$var wire 1 Y y0 [4] $end
$var wire 1 Z y0 [3] $end
$var wire 1 [ y0 [2] $end
$var wire 1 \ y0 [1] $end
$var wire 1 ] y0 [0] $end
$var wire 1 ^ x1 [7] $end
$var wire 1 _ x1 [6] $end
$var wire 1 ` x1 [5] $end
$var wire 1 a x1 [4] $end
$var wire 1 b x1 [3] $end
$var wire 1 c x1 [2] $end
$var wire 1 d x1 [1] $end
$var wire 1 e x1 [0] $end
$var wire 1 f y1 [6] $end
$var wire 1 g y1 [5] $end
$var wire 1 h y1 [4] $end
$var wire 1 i y1 [3] $end
$var wire 1 j y1 [2] $end
$var wire 1 k y1 [1] $end
$var wire 1 l y1 [0] $end
$var wire 1 m start $end
$var reg 1 n done $end
$var reg 8 o vga_x [7:0] $end
$var reg 7 p vga_y [6:0] $end
$var reg 3 q vga_colour [2:0] $end
$var reg 1 r vga_plot $end
$var reg 17 s next_x [16:0] $end
$var reg 17 t x [16:0] $end
$var reg 17 u next_y [16:0] $end
$var reg 17 v y [16:0] $end
$var reg 17 w next_err [16:0] $end
$var reg 17 x init_err [16:0] $end
$var reg 17 y err [16:0] $end
$var reg 17 z dx [16:0] $end
$var reg 17 { dy [16:0] $end
$var reg 17 | sx [16:0] $end
$var reg 17 } sy [16:0] $end
$var integer 32 ~ state $end
$var reg 1 !! plot $end
$var reg 1 "! ended $end
$upscope $end

$scope module MyVGA $end
$var parameter 32 #! BITS_PER_COLOUR_CHANNEL $end
$var parameter 40 $! MONOCHROME $end
$var parameter 56 %! RESOLUTION $end
$var parameter 112 &! BACKGROUND_IMAGE $end
$var parameter 40 '! USING_DE1 $end
$var parameter 40 (! SAVE_SCREEN $end
$var parameter 56 )! ID $end
$var parameter 8 *! TRACE $end
$var wire 1 +! resetn $end
$var wire 1 ,! clock $end
$var wire 1 -! colour [2] $end
$var wire 1 .! colour [1] $end
$var wire 1 /! colour [0] $end
$var wire 1 0! x [7] $end
$var wire 1 1! x [6] $end
$var wire 1 2! x [5] $end
$var wire 1 3! x [4] $end
$var wire 1 4! x [3] $end
$var wire 1 5! x [2] $end
$var wire 1 6! x [1] $end
$var wire 1 7! x [0] $end
$var wire 1 8! y [6] $end
$var wire 1 9! y [5] $end
$var wire 1 :! y [4] $end
$var wire 1 ;! y [3] $end
$var wire 1 <! y [2] $end
$var wire 1 =! y [1] $end
$var wire 1 >! y [0] $end
$var wire 1 ?! plot $end
$var integer 32 @! xx $end
$var integer 32 A! yy $end
$var integer 32 B! cc $end
$var integer 32 C! nump $end
$var reg 10 D! VGA_R [9:0] $end
$var reg 10 E! VGA_G [9:0] $end
$var reg 10 F! VGA_B [9:0] $end
$var wire 1 G! VGA_HS $end
$var wire 1 H! VGA_VS $end
$var wire 1 I! VGA_BLANK $end
$var wire 1 J! VGA_SYNC $end
$var wire 1 K! VGA_CLK $end
$upscope $end
$upscope $end
$var integer 32 L! subtests_passed $end
$var integer 32 M! subtests_failed $end
$var integer 32 N! always_fail $end
$var integer 32 O! NUM_TESTS $end
$var integer 32 P! NUM_PASSED $end
$var reg 1 Q! CLOCK_50 $end
$var reg 4 R! KEY [3:0] $end
$var reg 10 S! SW [9:0] $end
$var reg 10 T! LEDR [9:0] $end
$var reg 7 U! HEX0 [6:0] $end
$var reg 7 V! HEX1 [6:0] $end
$var reg 7 W! HEX2 [6:0] $end
$var reg 7 X! HEX3 [6:0] $end
$var reg 7 Y! HEX4 [6:0] $end
$var reg 7 Z! HEX5 [6:0] $end
$var reg 8 [! VGA_R [7:0] $end
$var reg 8 \! VGA_G [7:0] $end
$var reg 8 ]! VGA_B [7:0] $end
$var reg 1 ^! VGA_HS $end
$var reg 1 _! VGA_VS $end
$var reg 1 `! VGA_CLK $end
$var reg 8 a! VGA_X [7:0] $end
$var reg 7 b! VGA_Y [6:0] $end
$var reg 3 c! VGA_COLOUR [2:0] $end
$var reg 1 d! VGA_PLOT $end
$var integer 32 e! vx $end
$var integer 32 f! vy $end
$var integer 32 g! vc $end
$var integer 32 h! vp $end
$var integer 32 i! vp0 $end
$var integer 32 j! vp1 $end
$var integer 32 k! dx $end
$var integer 32 l! dy $end
$var integer 32 m! dc $end
$var integer 32 n! dp $end
$var integer 32 o! ii $end
$var integer 32 p! jj $end
$var integer 32 q! pp $end
$var integer 32 r! num_pixels $end
$var reg 1 s! start_toggled $end

$scope task subtest_fail $end
$upscope $end

$scope task subtest_pass $end
$upscope $end

$scope task stats_msg $end
$upscope $end

$scope task stats_clr $end
$upscope $end

$scope task stats_rpt $end
$upscope $end

$scope task printVGA $end
$upscope $end

$scope module dut $end
$var wire 1 ! CLOCK_50 $end
$var wire 1 " KEY [3] $end
$var wire 1 # KEY [2] $end
$var wire 1 $ KEY [1] $end
$var wire 1 % KEY [0] $end
$var wire 1 & SW [9] $end
$var wire 1 ' SW [8] $end
$var wire 1 ( SW [7] $end
$var wire 1 ) SW [6] $end
$var wire 1 * SW [5] $end
$var wire 1 + SW [4] $end
$var wire 1 , SW [3] $end
$var wire 1 - SW [2] $end
$var wire 1 . SW [1] $end
$var wire 1 / SW [0] $end

$scope module MyDrawLine $end
$var wire 1 J clk $end
$var wire 1 K rst_n $end
$var wire 1 L colour [2] $end
$var wire 1 M colour [1] $end
$var wire 1 N colour [0] $end
$var wire 1 O x0 [7] $end
$var wire 1 P x0 [6] $end
$var wire 1 Q x0 [5] $end
$var wire 1 R x0 [4] $end
$var wire 1 S x0 [3] $end
$var wire 1 T x0 [2] $end
$var wire 1 U x0 [1] $end
$var wire 1 V x0 [0] $end
$var wire 1 W y0 [6] $end
$var wire 1 X y0 [5] $end
$var wire 1 Y y0 [4] $end
$var wire 1 Z y0 [3] $end
$var wire 1 [ y0 [2] $end
$var wire 1 \ y0 [1] $end
$var wire 1 ] y0 [0] $end
$var wire 1 ^ x1 [7] $end
$var wire 1 _ x1 [6] $end
$var wire 1 ` x1 [5] $end
$var wire 1 a x1 [4] $end
$var wire 1 b x1 [3] $end
$var wire 1 c x1 [2] $end
$var wire 1 d x1 [1] $end
$var wire 1 e x1 [0] $end
$var wire 1 f y1 [6] $end
$var wire 1 g y1 [5] $end
$var wire 1 h y1 [4] $end
$var wire 1 i y1 [3] $end
$var wire 1 j y1 [2] $end
$var wire 1 k y1 [1] $end
$var wire 1 l y1 [0] $end
$var wire 1 m start $end
$upscope $end

$scope module MyVGA $end
$var wire 1 +! resetn $end
$var wire 1 ,! clock $end
$var wire 1 -! colour [2] $end
$var wire 1 .! colour [1] $end
$var wire 1 /! colour [0] $end
$var wire 1 0! x [7] $end
$var wire 1 1! x [6] $end
$var wire 1 2! x [5] $end
$var wire 1 3! x [4] $end
$var wire 1 4! x [3] $end
$var wire 1 5! x [2] $end
$var wire 1 6! x [1] $end
$var wire 1 7! x [0] $end
$var wire 1 8! y [6] $end
$var wire 1 9! y [5] $end
$var wire 1 :! y [4] $end
$var wire 1 ;! y [3] $end
$var wire 1 <! y [2] $end
$var wire 1 =! y [1] $end
$var wire 1 >! y [0] $end
$var wire 1 ?! plot $end
$var wire 1 G! VGA_HS $end
$var wire 1 H! VGA_VS $end
$var wire 1 I! VGA_BLANK $end
$var wire 1 J! VGA_SYNC $end
$var wire 1 K! VGA_CLK $end
$upscope $end
$upscope $end
$upscope $end
$enddefinitions $end
#0
$dumpvars
1Q!
b0 R!
bx S!
bx01 T!
bx U!
bx V!
bx W!
bx X!
bx Y!
bx Z!
bx [!
bx \!
bx ]!
z^!
z_!
z`!
b0 a!
b0 b!
b100 c!
0d!
xs!
bx01 0
bx 1
bx 2
bx 3
bx 4
bx 5
bx 6
bx 7
bx 8
bx 9
z:
z;
z<
b0 =
b0 >
b100 ?
0@
zA
zB
bx C
bx D
bx E
1F
0G
0H
1I
0n
b0 o
b0 p
b100 q
0r
b1010000 s
b0 t
b1011010 u
b0 v
b11111111111111011 w
b11111111111111011 x
b0 y
b10100 z
b11111111111100111 {
b11111111111111111 |
b11111111111111111 }
0!!
0"!
bx D!
bx E!
bx F!
b1 #!
b100011001000001010011000101001101000101 $!
b110001001101100011000001111000001100010011001000110000 %!
b110001001100001011000110110101101100111011100100110111101110101011011100110010000101110011011010110100101100110 &!
b100011001000001010011000101001101000101 '!
b100011001000001010011000101001101000101 (!
b1110101011011100110101101101110011011110111011101101110 )!
b110000 *!
b0 L!
b0 M!
b0 N!
b0 O!
b0 P!
bx e!
bx f!
bx g!
bx h!
bx i!
bx j!
bx k!
bx l!
bx m!
bx n!
bx o!
bx p!
bx q!
b0 r!
b0 ~
b1 @!
b0 A!
bx B!
b0 C!
0N
0M
1L
1m
0V
0U
0T
0S
1R
0Q
1P
0O
0e
0d
1c
1b
1a
1`
0_
0^
0]
1\
0[
1Z
1Y
0X
1W
1l
0k
0j
0i
0h
0g
1f
zK!
zG!
zH!
0/!
0.!
1-!
0?!
07!
06!
05!
04!
03!
02!
01!
00!
0>!
0=!
0<!
0;!
0:!
09!
08!
x/
x.
x-
x,
x+
x*
x)
x(
x'
x&
0%
0$
0#
0"
1!
1,!
0+!
0K
1J
zI!
zJ!
$end
#10
0Q!
0!
0F
0J
0,!
0s!
#11
b1000 R!
b1 L!
b1 O!
b1 P!
b0 L!
b1 L!
1"
1G
1K
1+!
#20
1Q!
1!
1F
1J
1,!
b10 @!
1s!
b1010000 t
b1011010 v
b11111111111111011 y
b1 ~
0I
bx00 0
1!!
1r
b1010000 o
0m
b1010000 =
1@
b1011010 p
bx00 T!
b1011010 >
1d!
b1010000 a!
13!
11!
1?!
b1011010 b!
1=!
1;!
1:!
18!
b11111111111100010 w
b1001111 s
b11111111111110110 w
b1011001 u
#30
0Q!
0!
0F
0J
0,!
#40
1Q!
1!
1F
1J
1,!
b11 @!
b1001111 t
b1011001 v
b11111111111110110 y
b1011001 p
b1001111 o
b1001111 =
b1011001 >
b1011001 b!
b1001111 a!
1>!
0=!
17!
16!
15!
14!
03!
b11111111111011101 w
b1001110 s
b11111111111110001 w
b1011000 u
#50
0Q!
0!
0F
0J
0,!
#60
1Q!
1!
1F
1J
1,!
b100 @!
b1001110 t
b1011000 v
b11111111111110001 y
b1011000 p
b1001110 o
b1001110 =
b1011000 >
b1011000 b!
b1001110 a!
0>!
07!
b101 w
b1010111 u
#70
0Q!
0!
0F
0J
0,!
#80
1Q!
1!
1F
1J
1,!
b101 @!
b1010111 v
b101 y
b1010111 p
b1010111 >
b1010111 b!
1>!
1=!
1<!
0;!
b11111111111101100 w
b1001101 s
b0 w
b1010110 u
#90
0Q!
0!
0F
0J
0,!
#100
1Q!
1!
1F
1J
1,!
b110 @!
b1001101 t
b1010110 v
b0 y
b1010110 p
b1001101 o
b1001101 =
b1010110 >
b1010110 b!
b1001101 a!
0>!
17!
06!
b11111111111100111 w
b1001100 s
b11111111111111011 w
b1010101 u
#110
0Q!
0!
0F
0J
0,!
#120
1Q!
1!
1F
1J
1,!
b111 @!
b1001100 t
b1010101 v
b11111111111111011 y
b1010101 p
b1001100 o
b1001100 =
b1010101 >
b1010101 b!
b1001100 a!
1>!
0=!
07!
b11111111111100010 w
b1001011 s
b11111111111110110 w
b1010100 u
#130
0Q!
0!
0F
0J
0,!
#140
1Q!
1!
1F
1J
1,!
b1000 @!
b1001011 t
b1010100 v
b11111111111110110 y
b1010100 p
b1001011 o
b1001011 =
b1010100 >
b1010100 b!
b1001011 a!
0>!
17!
16!
05!
b11111111111011101 w
b1001010 s
b11111111111110001 w
b1010011 u
#150
0Q!
0!
0F
0J
0,!
#160
1Q!
1!
1F
1J
1,!
b1001 @!
b1001010 t
b1010011 v
b11111111111110001 y
b1010011 p
b1001010 o
b1001010 =
b1010011 >
b1010011 b!
b1001010 a!
1>!
1=!
0<!
07!
b101 w
b1010010 u
#170
0Q!
0!
0F
0J
0,!
#180
1Q!
1!
1F
1J
1,!
b1010 @!
b1010010 v
b101 y
b1010010 p
b1010010 >
b1010010 b!
0>!
b11111111111101100 w
b1001001 s
b0 w
b1010001 u
#190
0Q!
0!
0F
0J
0,!
#200
1Q!
1!
1F
1J
1,!
b1011 @!
b1001001 t
b1010001 v
b0 y
b1010001 p
b1001001 o
b1001001 =
b1010001 >
b1010001 b!
b1001001 a!
1>!
0=!
17!
06!
b11111111111100111 w
b1001000 s
b11111111111111011 w
b1010000 u
#210
0Q!
0!
0F
0J
0,!
#220
1Q!
1!
1F
1J
1,!
b1100 @!
b1001000 t
b1010000 v
b11111111111111011 y
b1010000 p
b1001000 o
b1001000 =
b1010000 >
b1010000 b!
b1001000 a!
0>!
07!
b11111111111100010 w
b1000111 s
b11111111111110110 w
b1001111 u
#230
0Q!
0!
0F
0J
0,!
#240
1Q!
1!
1F
1J
1,!
b1101 @!
b1000111 t
b1001111 v
b11111111111110110 y
b1001111 p
b1000111 o
b1000111 =
b1001111 >
b1001111 b!
b1000111 a!
1>!
1=!
1<!
1;!
0:!
17!
16!
15!
04!
b11111111111011101 w
b1000110 s
b11111111111110001 w
b1001110 u
#250
0Q!
0!
0F
0J
0,!
#260
1Q!
1!
1F
1J
1,!
b1110 @!
b1000110 t
b1001110 v
b11111111111110001 y
b1001110 p
b1000110 o
b1000110 =
b1001110 >
b1001110 b!
b1000110 a!
0>!
07!
b101 w
b1001101 u
#270
0Q!
0!
0F
0J
0,!
#280
1Q!
1!
1F
1J
1,!
b1111 @!
b1001101 v
b101 y
b1001101 p
b1001101 >
b1001101 b!
1>!
0=!
b11111111111101100 w
b1000101 s
b0 w
b1001100 u
#290
0Q!
0!
0F
0J
0,!
#300
1Q!
1!
1F
1J
1,!
b10000 @!
b1000101 t
b1001100 v
b0 y
b1001100 p
b1000101 o
b1000101 =
b1001100 >
b1001100 b!
b1000101 a!
0>!
17!
06!
b11111111111100111 w
b1000100 s
b11111111111111011 w
b1001011 u
#310
0Q!
0!
0F
0J
0,!
#320
1Q!
1!
1F
1J
1,!
b10001 @!
b1000100 t
b1001011 v
b11111111111111011 y
b1001011 p
b1000100 o
b1000100 =
b1001011 >
b1001011 b!
b1000100 a!
1>!
1=!
0<!
07!
b11111111111100010 w
b1000011 s
b11111111111110110 w
b1001010 u
#330
0Q!
0!
0F
0J
0,!
#340
1Q!
1!
1F
1J
1,!
b10010 @!
b1000011 t
b1001010 v
b11111111111110110 y
b1001010 p
b1000011 o
b1000011 =
b1001010 >
b1001010 b!
b1000011 a!
0>!
17!
16!
05!
b11111111111011101 w
b1000010 s
b11111111111110001 w
b1001001 u
#350
0Q!
0!
0F
0J
0,!
#360
1Q!
1!
1F
1J
1,!
b10011 @!
b1000010 t
b1001001 v
b11111111111110001 y
b1001001 p
b1000010 o
b1000010 =
b1001001 >
b1001001 b!
b1000010 a!
1>!
0=!
07!
b101 w
b1001000 u
#370
0Q!
0!
0F
0J
0,!
#380
1Q!
1!
1F
1J
1,!
b10100 @!
b1001000 v
b101 y
b1001000 p
b1001000 >
b1001000 b!
0>!
b11111111111101100 w
b1000001 s
b0 w
b1000111 u
#390
0Q!
0!
0F
0J
0,!
#400
1Q!
1!
1F
1J
1,!
b10101 @!
b1000001 t
b1000111 v
b0 y
b1000111 p
b1000001 o
b1000001 =
b1000111 >
b1000111 b!
b1000001 a!
1>!
1=!
1<!
0;!
17!
06!
b11111111111100111 w
b1000000 s
b11111111111111011 w
b1000110 u
#410
0Q!
0!
0F
0J
0,!
#420
1Q!
1!
1F
1J
1,!
b10110 @!
b1000000 t
b1000110 v
b11111111111111011 y
b1000110 p
b1000000 o
b1000000 =
b1000110 >
b1000110 b!
b1000000 a!
0>!
07!
b11111111111100010 w
b111111 s
b11111111111110110 w
b1000101 u
#430
0Q!
0!
0F
0J
0,!
#440
1Q!
1!
1F
1J
1,!
b10111 @!
b111111 t
b1000101 v
b11111111111110110 y
b1000101 p
b111111 o
b111111 =
b1000101 >
b1000101 b!
b111111 a!
1>!
0=!
17!
16!
15!
14!
13!
12!
01!
b11111111111011101 w
b111110 s
b11111111111110001 w
b1000100 u
#450
0Q!
0!
0F
0J
0,!
#460
1Q!
1!
1F
1J
1,!
b11000 @!
b111110 t
b1000100 v
b11111111111110001 y
b1000100 p
b111110 o
b111110 =
b1000100 >
b1000100 b!
b111110 a!
0>!
07!
b101 w
b1000011 u
#470
0Q!
0!
0F
0J
0,!
#480
1Q!
1!
1F
1J
1,!
b11001 @!
b1000011 v
b101 y
b1000011 p
b1000011 >
b1000011 b!
1>!
1=!
0<!
b11111111111101100 w
b111101 s
b0 w
b1000010 u
#490
0Q!
0!
0F
0J
0,!
#500
1Q!
1!
1F
1J
1,!
b11010 @!
b111101 t
b1000010 v
b0 y
b1000010 p
b111101 o
b111101 =
b1000010 >
b1000010 b!
b111101 a!
0>!
17!
06!
b11111111111100111 w
b111100 s
b11111111111111011 w
b1000001 u
#510
0Q!
0!
0F
0J
0,!
#520
1Q!
1!
1F
1J
1,!
b11011 @!
b111100 t
b1000001 v
b11111111111111011 y
b1000001 p
b111100 o
1"!
b111100 =
b1000001 >
b1000001 b!
b111100 a!
1>!
0=!
07!
b11111111111100010 w
b111011 s
b11111111111110110 w
b1000000 u
#530
0Q!
0!
0F
0J
0,!
b111100 k!
b1000001 l!
b1 n!
b100 m!
b111100 e!
b1000001 f!
b1 h!
b100 g!
#540
1Q!
1!
1F
1J
1,!
b11100 @!
b111011 t
b1000000 v
b11111111111110110 y
b10 ~
1n
0!!
b1000000 p
0r
b0 o
0"!
b0 =
0@
b0 p
b0 >
1H
bx10 0
b0 b!
0d!
b0 a!
0?!
0>!
08!
05!
04!
03!
02!
bx10 T!
b11111111111111011 w
b1010000 s
b1011010 u
#550
0Q!
0!
0F
0J
0,!
b10 L!
b10 O!
b10 P!
b0 L!
b1 L!
b10 L!
b11 L!
b100 L!
b101 L!
b11 O!
b11 P!
b0 L!
b1110101010 D!
b1001100111 E!
b110011011 F!
b110011011 E
b1001100111 D
b1110101010 C
b11101010 7
b10011001 8
b1100110 9
b1100110 ]!
b10011001 \!
b11101010 [!
#551
b1 L!
b10 L!
b11 L!
0G!
0:
0^!
#552
b0 i!
1G!
1:
1^!
#553
b1 j!
b100 L!
0H!
0;
0_!
#554
1H!
1;
1_!
#555
b101 L!
0K!
0<
0`!
#556
1K!
1<
1`!
#557
b110 L!
zG!
zH!
zK!
b100 O!
b100 P!
b0 L!
b0 o!
z<
z;
z:
z^!
z_!
z`!
#560
1Q!
1!
1F
1J
1,!
b11101 @!
bx D!
bx E!
bx F!
bx E
bx D
bx C
bx 7
bx 8
bx 9
bx ]!
bx \!
bx [!
b1010000 t
b1011010 v
b11111111111111011 y
#570
0Q!
0!
0F
0J
0,!
b1 o!
#580
1Q!
1!
1F
1J
1,!
b11110 @!
#590
0Q!
0!
0F
0J
0,!
b10 o!
#600
1Q!
1!
1F
1J
1,!
b11111 @!
#610
0Q!
0!
0F
0J
0,!
b11 o!
#620
1Q!
1!
1F
1J
1,!
b100000 @!
#630
0Q!
0!
0F
0J
0,!
b100 o!
#640
1Q!
1!
1F
1J
1,!
b100001 @!
#650
0Q!
0!
0F
0J
0,!
b101 o!
#660
1Q!
1!
1F
1J
1,!
b100010 @!
#670
0Q!
0!
0F
0J
0,!
b110 o!
#680
1Q!
1!
1F
1J
1,!
b100011 @!
#690
0Q!
0!
0F
0J
0,!
b111 o!
#700
1Q!
1!
1F
1J
1,!
b100100 @!
#710
0Q!
0!
0F
0J
0,!
b1000 o!
#720
1Q!
1!
1F
1J
1,!
b100101 @!
#730
0Q!
0!
0F
0J
0,!
b1001 o!
#740
1Q!
1!
1F
1J
1,!
b100110 @!
#750
0Q!
0!
0F
0J
0,!
b1010 o!
#760
1Q!
1!
1F
1J
1,!
b100111 @!
#770
0Q!
0!
0F
0J
0,!
b1011 o!
#780
1Q!
1!
1F
1J
1,!
b101000 @!
#790
0Q!
0!
0F
0J
0,!
b1100 o!
#800
1Q!
1!
1F
1J
1,!
b101001 @!
#810
0Q!
0!
0F
0J
0,!
b1101 o!
#820
1Q!
1!
1F
1J
1,!
b101010 @!
#830
0Q!
0!
0F
0J
0,!
b1110 o!
#840
1Q!
1!
1F
1J
1,!
b101011 @!
#850
0Q!
0!
0F
0J
0,!
b1111 o!
#860
1Q!
1!
1F
1J
1,!
b101100 @!
#870
0Q!
0!
0F
0J
0,!
b10000 o!
#880
1Q!
1!
1F
1J
1,!
b101101 @!
#890
0Q!
0!
0F
0J
0,!
b10001 o!
#900
1Q!
1!
1F
1J
1,!
b101110 @!
#910
0Q!
0!
0F
0J
0,!
b10010 o!
#920
1Q!
1!
1F
1J
1,!
b101111 @!
#930
0Q!
0!
0F
0J
0,!
b10011 o!
#940
1Q!
1!
1F
1J
1,!
b110000 @!
#950
0Q!
0!
0F
0J
0,!
b10100 o!
#960
1Q!
1!
1F
1J
1,!
b110001 @!
#970
0Q!
0!
0F
0J
0,!
b10101 o!
#980
1Q!
1!
1F
1J
1,!
b110010 @!
#990
0Q!
0!
0F
0J
0,!
b10110 o!
#1000
1Q!
1!
1F
1J
1,!
b110011 @!
#1010
0Q!
0!
0F
0J
0,!
b10111 o!
#1020
1Q!
1!
1F
1J
1,!
b110100 @!
#1030
0Q!
0!
0F
0J
0,!
b11000 o!
#1040
1Q!
1!
1F
1J
1,!
b110101 @!
#1050
0Q!
0!
0F
0J
0,!
b11001 o!
#1060
1Q!
1!
1F
1J
1,!
b110110 @!
#1070
0Q!
0!
0F
0J
0,!
b11010 o!
#1080
1Q!
1!
1F
1J
1,!
b110111 @!
#1090
0Q!
0!
0F
0J
0,!
b11011 o!
#1100
1Q!
1!
1F
1J
1,!
b111000 @!
#1110
0Q!
0!
0F
0J
0,!
b11100 o!
#1120
1Q!
1!
1F
1J
1,!
b111001 @!
#1130
0Q!
0!
0F
0J
0,!
b11101 o!
#1140
1Q!
1!
1F
1J
1,!
b111010 @!
#1150
0Q!
0!
0F
0J
0,!
b11110 o!
#1160
1Q!
1!
1F
1J
1,!
b111011 @!
#1170
0Q!
0!
0F
0J
0,!
b11111 o!
#1180
1Q!
1!
1F
1J
1,!
b111100 @!
#1190
0Q!
0!
0F
0J
0,!
b100000 o!
#1200
1Q!
1!
1F
1J
1,!
b111101 @!
#1210
0Q!
0!
0F
0J
0,!
b100001 o!
#1220
1Q!
1!
1F
1J
1,!
b111110 @!
#1230
0Q!
0!
0F
0J
0,!
b100010 o!
#1240
1Q!
1!
1F
1J
1,!
b111111 @!
#1250
0Q!
0!
0F
0J
0,!
b100011 o!
#1260
1Q!
1!
1F
1J
1,!
b1000000 @!
#1270
0Q!
0!
0F
0J
0,!
b100100 o!
#1280
1Q!
1!
1F
1J
1,!
b1000001 @!
#1290
0Q!
0!
0F
0J
0,!
b100101 o!
#1300
1Q!
1!
1F
1J
1,!
b1000010 @!
#1310
0Q!
0!
0F
0J
0,!
b100110 o!
#1320
1Q!
1!
1F
1J
1,!
b1000011 @!
#1330
0Q!
0!
0F
0J
0,!
b100111 o!
#1340
1Q!
1!
1F
1J
1,!
b1000100 @!
#1350
0Q!
0!
0F
0J
0,!
b101000 o!
#1360
1Q!
1!
1F
1J
1,!
b1000101 @!
#1370
0Q!
0!
0F
0J
0,!
b101001 o!
#1380
1Q!
1!
1F
1J
1,!
b1000110 @!
#1390
0Q!
0!
0F
0J
0,!
b101010 o!
#1400
1Q!
1!
1F
1J
1,!
b1000111 @!
#1410
0Q!
0!
0F
0J
0,!
b101011 o!
#1420
1Q!
1!
1F
1J
1,!
b1001000 @!
#1430
0Q!
0!
0F
0J
0,!
b101100 o!
#1440
1Q!
1!
1F
1J
1,!
b1001001 @!
#1450
0Q!
0!
0F
0J
0,!
b101101 o!
#1460
1Q!
1!
1F
1J
1,!
b1001010 @!
#1470
0Q!
0!
0F
0J
0,!
b101110 o!
#1480
1Q!
1!
1F
1J
1,!
b1001011 @!
#1490
0Q!
0!
0F
0J
0,!
b101111 o!
#1500
1Q!
1!
1F
1J
1,!
b1001100 @!
#1510
0Q!
0!
0F
0J
0,!
b110000 o!
#1520
1Q!
1!
1F
1J
1,!
b1001101 @!
#1530
0Q!
0!
0F
0J
0,!
b110001 o!
#1540
1Q!
1!
1F
1J
1,!
b1001110 @!
#1550
0Q!
0!
0F
0J
0,!
b110010 o!
#1560
1Q!
1!
1F
1J
1,!
b1001111 @!
#1570
0Q!
0!
0F
0J
0,!
b110011 o!
#1580
1Q!
1!
1F
1J
1,!
b1010000 @!
#1590
0Q!
0!
0F
0J
0,!
b110100 o!
#1600
1Q!
1!
1F
1J
1,!
b1010001 @!
#1610
0Q!
0!
0F
0J
0,!
b110101 o!
#1620
1Q!
1!
1F
1J
1,!
b1010010 @!
#1630
0Q!
0!
0F
0J
0,!
b110110 o!
#1640
1Q!
1!
1F
1J
1,!
b1010011 @!
#1650
0Q!
0!
0F
0J
0,!
b110111 o!
#1660
1Q!
1!
1F
1J
1,!
b1010100 @!
#1670
0Q!
0!
0F
0J
0,!
b111000 o!
#1680
1Q!
1!
1F
1J
1,!
b1010101 @!
#1690
0Q!
0!
0F
0J
0,!
b111001 o!
#1700
1Q!
1!
1F
1J
1,!
b1010110 @!
#1710
0Q!
0!
0F
0J
0,!
b111010 o!
#1720
1Q!
1!
1F
1J
1,!
b1010111 @!
#1730
0Q!
0!
0F
0J
0,!
b111011 o!
#1740
1Q!
1!
1F
1J
1,!
b1011000 @!
#1750
0Q!
0!
0F
0J
0,!
b111100 o!
#1760
1Q!
1!
1F
1J
1,!
b1011001 @!
#1770
0Q!
0!
0F
0J
0,!
b111101 o!
#1780
1Q!
1!
1F
1J
1,!
b1011010 @!
#1790
0Q!
0!
0F
0J
0,!
b111110 o!
#1800
1Q!
1!
1F
1J
1,!
b1011011 @!
#1810
0Q!
0!
0F
0J
0,!
b111111 o!
#1820
1Q!
1!
1F
1J
1,!
b1011100 @!
#1830
0Q!
0!
0F
0J
0,!
b1000000 o!
#1840
1Q!
1!
1F
1J
1,!
b1011101 @!
#1850
0Q!
0!
0F
0J
0,!
b1000001 o!
#1860
1Q!
1!
1F
1J
1,!
b1011110 @!
#1870
0Q!
0!
0F
0J
0,!
b1000010 o!
#1880
1Q!
1!
1F
1J
1,!
b1011111 @!
#1890
0Q!
0!
0F
0J
0,!
b1000011 o!
#1900
1Q!
1!
1F
1J
1,!
b1100000 @!
#1910
0Q!
0!
0F
0J
0,!
b1000100 o!
#1920
1Q!
1!
1F
1J
1,!
b1100001 @!
#1930
0Q!
0!
0F
0J
0,!
b1000101 o!
#1940
1Q!
1!
1F
1J
1,!
b1100010 @!
#1950
0Q!
0!
0F
0J
0,!
b1000110 o!
#1960
1Q!
1!
1F
1J
1,!
b1100011 @!
#1970
0Q!
0!
0F
0J
0,!
b1000111 o!
#1980
1Q!
1!
1F
1J
1,!
b1100100 @!
#1990
0Q!
0!
0F
0J
0,!
b1001000 o!
#2000
1Q!
1!
1F
1J
1,!
b1100101 @!
#2010
0Q!
0!
0F
0J
0,!
b1001001 o!
#2020
1Q!
1!
1F
1J
1,!
b1100110 @!
#2030
0Q!
0!
0F
0J
0,!
b1001010 o!
#2040
1Q!
1!
1F
1J
1,!
b1100111 @!
#2050
0Q!
0!
0F
0J
0,!
b1001011 o!
#2060
1Q!
1!
1F
1J
1,!
b1101000 @!
#2070
0Q!
0!
0F
0J
0,!
b1001100 o!
#2080
1Q!
1!
1F
1J
1,!
b1101001 @!
#2090
0Q!
0!
0F
0J
0,!
b1001101 o!
#2100
1Q!
1!
1F
1J
1,!
b1101010 @!
#2110
0Q!
0!
0F
0J
0,!
b1001110 o!
#2120
1Q!
1!
1F
1J
1,!
b1101011 @!
