lab3/task2/ksa.rtl.vcd
$date
	Thu Nov 19 07:09:50 2020
$end
$version
	ModelSim Version 10.7c
$end
$timescale
	1ps
$end

$scope module ksa_ag $end

$scope module dut $end
$var wire 1 ! clk $end
$var wire 1 " rst_n $end
$var wire 1 # en $end
$var reg 1 $ rdy $end
$var wire 1 % key [23] $end
$var wire 1 & key [22] $end
$var wire 1 ' key [21] $end
$var wire 1 ( key [20] $end
$var wire 1 ) key [19] $end
$var wire 1 * key [18] $end
$var wire 1 + key [17] $end
$var wire 1 , key [16] $end
$var wire 1 - key [15] $end
$var wire 1 . key [14] $end
$var wire 1 / key [13] $end
$var wire 1 0 key [12] $end
$var wire 1 1 key [11] $end
$var wire 1 2 key [10] $end
$var wire 1 3 key [9] $end
$var wire 1 4 key [8] $end
$var wire 1 5 key [7] $end
$var wire 1 6 key [6] $end
$var wire 1 7 key [5] $end
$var wire 1 8 key [4] $end
$var wire 1 9 key [3] $end
$var wire 1 : key [2] $end
$var wire 1 ; key [1] $end
$var wire 1 < key [0] $end
$var reg 8 = addr [7:0] $end
$var wire 1 > rddata [7] $end
$var wire 1 ? rddata [6] $end
$var wire 1 @ rddata [5] $end
$var wire 1 A rddata [4] $end
$var wire 1 B rddata [3] $end
$var wire 1 C rddata [2] $end
$var wire 1 D rddata [1] $end
$var wire 1 E rddata [0] $end
$var reg 8 F wrdata [7:0] $end
$var reg 1 G wren $end
$var reg 3 H state [2:0] $end
$var reg 18 I out [17:0] $end
$var reg 8 J i [7:0] $end
$var reg 8 K j [7:0] $end
$var reg 8 L I [7:0] $end
$var reg 8 M key_index [7:0] $end
$var reg 8 N key_val [7:0] $end
$var integer 32 O count_i $end
$var integer 32 P count_j $end
$upscope $end
$upscope $end
$enddefinitions $end
#0
$dumpvars
x$
bx =
bx F
xG
bx H
bx I
bx J
bx K
bx L
bx M
bx N
bx O
bx P
xE
xD
xC
xB
xA
x@
x?
x>
1<
1;
0:
09
18
07
16
05
04
03
02
01
10
1/
1.
1-
0,
1+
0*
0)
0(
1'
1&
1%
0#
0"
0!
$end
#5
1!
b0 O
b0 P
b0 H
b0 I
0$
0G
b0 F
b0 =
b0 K
b0 J
b0 M
b11100010 N
#15
0!
#25
1!
#35
0!
#45
1!
#55
0!
#65
1!
#75
0!
#85
1!
#95
0!
#105
1!
#115
0!
#125
1!
#135
0!
#145
1!
#155
0!
#165
1!
#175
0!
#185
1!
#195
0!
#205
1!
#215
0!
#225
1!
#235
0!
#245
1!
#255
0!
#265
1!
#275
0!
#285
1!
#295
0!
#305
1!
#315
0!
#325
1!
#335
0!
#345
1!
#355
0!
#365
1!
#375
0!
#385
1!
#395
0!
#400
1"
#405
1!
b1 I
1$
0E
0D
0C
0B
0A
0@
0?
0>
#415
0!
#425
1!
#435
0!
#445
1!
#455
0!
#465
1!
#475
0!
#485
1!
#495
0!
#505
1!
#515
0!
#525
1!
#535
0!
#545
1!
#555
0!
#565
1!
#575
0!
#585
1!
#595
0!
#605
1!
#615
0!
#625
1!
#635
0!
#645
1!
#655
0!
#665
1!
#675
0!
#685
1!
#695
0!
#705
1!
#715
0!
#725
1!
#735
0!
#745
1!
#755
0!
#765
1!
#775
0!
#785
1!
#795
0!
#800
1#
#805
1!
b1 H
b0 I
0$
#815
0!
#820
0#
#825
1!
b10 H
b0xxxxxxxx00 I
bx F
#835
0!
#845
1!
b11 H
#855
0!
#865
1!
b0 L
b11100010 P
b100 H
b11100010 K
#875
0!
#885
1!
b101 H
b11100010xxxxxxxx00 I
b11100010 =
#895
0!
#905
1!
b110 H
1D
1@
1?
1>
#915
0!
#925
1!
b111 H
b1110001010 I
1G
b11100010 F
b0 =
#935
0!
#945
1!
b1 O
b1 H
b111000100000000010 I
b0 F
b11100010 =
b1 J
b1 M
0D
0@
0?
0>
b11110000 N
#955
0!
#965
1!
b10 H
b1xxxxxxxx00 I
0G
bx F
b1 =
1D
1@
1?
1>
#975
0!
#985
1!
b11 H
1E
0D
0@
0?
0>
#995
0!
#1005
1!
b1 L
b111010011 P
b100 H
b11010011 K
#1015
0!
#1025
1!
b101 H
b11010011xxxxxxxx00 I
b11010011 =
#1035
0!
#1045
1!
b110 H
1D
1A
1?
1>
#1055
0!
#1065
1!
b111 H
b11101001110 I
1G
b11010011 F
b1 =
#1075
0!
#1085
1!
b10 O
b1 H
b110100110000000110 I
b1 F
b11010011 =
b10 J
b10 M
0D
0A
0?
0>
b1010011 N
#1095
0!
#1105
1!
b10 H
b10xxxxxxxx00 I
0G
bx F
b10 =
1D
1A
1?
1>
#1115
0!
#1125
1!
b11 H
0E
0A
0?
0>
#1135
0!
#1145
1!
b10 L
b1000101000 P
b100 H
b101000 K
#1155
0!
#1165
1!
b101 H
b101000xxxxxxxx00 I
b101000 =
#1175
0!
#1185
1!
b110 H
0D
1B
1@
#1195
0!
#1205
1!
b111 H
b100010100010 I
1G
b101000 F
b10 =
#1215
0!
#1225
1!
b11 O
b1 H
b1010000000001010 I
b10 F
b101000 =
b11 J
b0 M
1D
0B
0@
b11100010 N
#1235
0!
#1245
1!
b10 H
b11xxxxxxxx00 I
0G
bx F
b11 =
0D
1B
1@
#1255
0!
#1265
1!
b11 H
1E
1D
0B
0@
#1275
0!
#1285
1!
b11 L
b1100001101 P
b100 H
b1101 K
#1295
0!
#1305
1!
b101 H
b1101xxxxxxxx00 I
b1101 =
#1315
0!
#1325
1!
b110 H
0D
1C
1B
#1335
0!
#1345
1!
b111 H
b110000110110 I
1G
b1101 F
b11 =
#1355
0!
#1365
1!
b100 O
b1 H
b11010000001110 I
b11 F
b1101 =
b100 J
b1 M
1D
0C
0B
b11110000 N
#1375
0!
#1385
1!
b10 H
b100xxxxxxxx00 I
0G
bx F
b100 =
0D
1C
1B
#1395
0!
#1405
1!
b11 H
0E
0B
#1415
0!
#1425
1!
b100 L
b10000000001 P
b100 H
b1 K
#1435
0!
#1445
1!
b101 H
b1xxxxxxxx00 I
b1 =
#1455
0!
#1465
1!
b110 H
1E
1D
0C
1A
1?
1>
#1475
0!
#1485
1!
b111 H
b1001101001110 I
1G
b11010011 F
b100 =
#1495
0!
#1505
1!
b101 O
b1 H
b10000010010 I
b100 F
b1 =
b101 J
b10 M
0E
0D
1C
0A
0?
0>
b1010011 N
#1515
0!
#1525
1!
b10 H
b101xxxxxxxx00 I
0G
bx F
b101 =
1E
1D
0C
1A
1?
1>
#1535
0!
#1545
1!
b11 H
0D
1C
0A
0?
0>
#1555
0!
#1565
1!
b101 L
b10001011001 P
b100 H
b1011001 K
#1575
0!
#1585
1!
b101 H
b1011001xxxxxxxx00 I
b1011001 =
#1595
0!
#1605
1!
b110 H
0C
1B
1A
1?
#1615
0!
#1625
1!
b111 H
b1010101100110 I
1G
b1011001 F
b101 =
#1635
0!
#1645
1!
b110 O
b1 H
b10110010000010110 I
b101 F
b1011001 =
b110 J
b0 M
1C
0B
0A
0?
b11100010 N
#1655
0!
#1665
1!
b10 H
b110xxxxxxxx00 I
0G
bx F
b110 =
0C
1B
1A
1?
#1675
0!
#1685
1!
b11 H
0E
1D
1C
0B
0A
0?
#1695
0!
#1705
1!
b110 L
b10101000001 P
b100 H
b1000001 K
#1715
0!
#1725
1!
b101 H
b1000001xxxxxxxx00 I
b1000001 =
#1735
0!
#1745
1!
b110 H
1E
0D
0C
1?
#1755
0!
#1765
1!
b111 H
b1100100000110 I
1G
b1000001 F
b110 =
#1775
0!
#1785
1!
b111 O
b1 H
b10000010000011010 I
b110 F
b1000001 =
b111 J
b1 M
0E
1D
1C
0?
b11110000 N
#1795
0!
#1805
1!
b10 H
b111xxxxxxxx00 I
0G
bx F
b111 =
1E
0D
0C
1?
#1815
0!
#1825
1!
b11 H
1D
1C
0?
#1835
0!
#1845
1!
b111 L
b11000111000 P
b100 H
b111000 K
#1855
0!
#1865
1!
b101 H
b111000xxxxxxxx00 I
b111000 =
#1875
0!
#1885
1!
b110 H
0E
0D
0C
1B
1A
1@
#1895
0!
#1905
1!
b111 H
b1110011100010 I
1G
b111000 F
b111 =
#1915
0!
#1925
1!
b1000 O
b1 H
b1110000000011110 I
b111 F
b111000 =
b1000 J
b10 M
1E
1D
1C
0B
0A
0@
b1010011 N
#1935
0!
#1945
1!
b10 H
b1000xxxxxxxx00 I
0G
bx F
b1000 =
0E
0D
0C
1B
1A
1@
#1955
0!
#1965
1!
b11 H
0A
0@
#1975
0!
#1985
1!
b1000 L
b11010010011 P
b100 H
b10010011 K
#1995
0!
#2005
1!
b101 H
b10010011xxxxxxxx00 I
b10010011 =
#2015
0!
#2025
1!
b110 H
1E
1D
0B
1A
1>
#2035
0!
#2045
1!
b111 H
b10001001001110 I
1G
b10010011 F
b1000 =
#2055
0!
#2065
1!
b1001 O
b1 H
b100100110000100010 I
b1000 F
b10010011 =
b1001 J
b0 M
0E
0D
1B
0A
0>
b11100010 N
#2075
0!
#2085
1!
b10 H
b1001xxxxxxxx00 I
0G
bx F
b1001 =
1E
1D
0B
1A
1>
#2095
0!
#2105
1!
b11 H
0D
1B
0A
0>
#2115
0!
#2125
1!
b1001 L
b11101111110 P
b100 H
b1111110 K
#2135
0!
#2145
1!
b101 H
b1111110xxxxxxxx00 I
b1111110 =
#2155
0!
#2165
1!
b110 H
0E
1D
1C
1A
1@
1?
#2175
0!
#2185
1!
b111 H
b10010111111010 I
1G
b1111110 F
b1001 =
#2195
0!
#2205
1!
b1010 O
b1 H
b11111100000100110 I
b1001 F
b1111110 =
b1010 J
b1 M
1E
0D
0C
0A
0@
0?
b11110000 N
#2215
0!
#2225
1!
b10 H
b1010xxxxxxxx00 I
0G
bx F
b1010 =
0E
1D
1C
1A
1@
1?
#2235
0!
#2245
1!
b11 H
0C
0A
0@
0?
#2255
0!
#2265
1!
b1010 L
b100001111000 P
b100 H
b1111000 K
#2275
0!
#2285
1!
b101 H
b1111000xxxxxxxx00 I
b1111000 =
#2295
0!
#2305
1!
b110 H
0D
1A
1@
1?
#2315
0!
#2325
1!
b111 H
b10100111100010 I
1G
b1111000 F
b1010 =
#2335
0!
#2345
1!
b1011 O
b1 H
b11110000000101010 I
b1010 F
b1111000 =
b1011 J
b10 M
1D
0A
0@
0?
b1010011 N
#2355
0!
#2365
1!
b10 H
b1011xxxxxxxx00 I
0G
bx F
b1011 =
0D
1A
1@
1?
#2375
0!
#2385
1!
b11 H
1E
1D
0A
0@
0?
#2395
0!
#2405
1!
b1011 L
b100011010110 P
b100 H
b11010110 K
#2415
0!
#2425
1!
b101 H
b11010110xxxxxxxx00 I
b11010110 =
#2435
0!
#2445
1!
b110 H
0E
1C
0B
1A
1?
1>
#2455
0!
#2465
1!
b111 H
b10111101011010 I
1G
b11010110 F
b1011 =
#2475
0!
#2485
1!
b1100 O
b1 H
b110101100000101110 I
b1011 F
b11010110 =
b1100 J
b0 M
1E
0C
1B
0A
0?
0>
b11100010 N
#2495
0!
#2505
1!
b10 H
b1100xxxxxxxx00 I
0G
bx F
b1100 =
0E
1C
0B
1A
1?
1>
#2515
0!
#2525
1!
b11 H
0D
1B
0A
0?
0>
#2535
0!
#2545
1!
b1100 L
b100111000100 P
b100 H
b11000100 K
#2555
0!
#2565
1!
b101 H
b11000100xxxxxxxx00 I
b11000100 =
#2575
0!
#2585
1!
b110 H
0B
1?
1>
#2595
0!
#2605
1!
b111 H
b11001100010010 I
1G
b11000100 F
b1100 =
#2615
0!
#2625
1!
b1101 O
b1 H
b110001000000110010 I
b1100 F
b11000100 =
b1101 J
b1 M
1B
0?
0>
b11110000 N
#2635
0!
#2645
1!
b10 H
b1101xxxxxxxx00 I
0G
bx F
b1101 =
0B
1?
1>
#2655
0!
#2665
1!
b11 H
1E
1D
0C
0?
0>
#2675
0!
#2685
1!
b11 L
b101010110111 P
b100 H
b10110111 K
#2695
0!
#2705
1!
b101 H
b10110111xxxxxxxx00 I
b10110111 =
#2715
0!
#2725
1!
b110 H
1C
1A
1@
1>
#2735
0!
#2745
1!
b111 H
b11011011011110 I
1G
b10110111 F
b1101 =
#2755
0!
#2765
1!
b1110 O
b1 H
b101101110000001110 I
b11 F
b10110111 =
b1110 J
b10 M
0C
0A
0@
0>
b1010011 N
#2775
0!
#2785
1!
b10 H
b1110xxxxxxxx00 I
0G
bx F
b1110 =
1C
1A
1@
1>
#2795
0!
#2805
1!
b11 H
0E
1B
0A
0@
0>
#2815
0!
#2825
1!
b1110 L
b101100011000 P
b100 H
b11000 K
#2835
0!
#2845
1!
b101 H
b11000xxxxxxxx00 I
b11000 =
#2855
0!
#2865
1!
b110 H
0D
0C
1A
#2875
0!
#2885
1!
b111 H
b11100001100010 I
1G
b11000 F
b1110 =
#2895
0!
#2905
1!
b1111 O
b1 H
b110000000111010 I
b1110 F
b11000 =
b1111 J
b0 M
1D
1C
0A
b11100010 N
#2915
0!
#2925
1!
b10 H
b1111xxxxxxxx00 I
0G
bx F
b1111 =
0D
0C
1A
#2935
0!
#2945
1!
b11 H
1E
1D
1C
0A
#2955
0!
#2965
1!
b1111 L
b110000001001 P
b100 H
b1001 K
#2975
0!
#2985
1!
b101 H
b1001xxxxxxxx00 I
b1001 =
#2995
0!
#3005
1!
b110 H
0E
1A
1@
1?
#3015
0!
#3025
1!
b111 H
b11110111111010 I
1G
b1111110 F
b1111 =
#3035
0!
#3045
1!
b10000 O
b1 H
b10010000111110 I
b1111 F
b1001 =
b10000 J
b1 M
1E
0A
0@
0?
b11110000 N
#3055
0!
#3065
1!
b10 H
b10000xxxxxxxx00 I
0G
bx F
b10000 =
0E
1A
1@
1?
#3075
0!
#3085
1!
b11 H
0D
0C
0B
0@
0?
#3095
0!
#3105
1!
b10000 L
b110100001001 P
b100 H
#3115
0!
#3125
1!
b101 H
b1001xxxxxxxx00 I
b1001 =
#3135
0!
#3145
1!
b110 H
1E
1D
1C
1B
0A
#3155
0!
#3165
1!
b111 H
b100000000111110 I
1G
b1111 F
b10000 =
#3175
0!
#3185
1!
b10001 O
b1 H
b10010001000010 I
b10000 F
b1001 =
b10001 J
b10 M
0E
0D
0C
0B
1A
b1010011 N
#3195
0!
#3205
1!
b10 H
b10001xxxxxxxx00 I
0G
bx F
b10001 =
1E
1D
1C
1B
0A
#3215
0!
#3225
1!
b11 H
0D
0C
0B
1A
#3235
0!
#3245
1!
b10001 L
b110101101101 P
b100 H
b1101101 K
#3255
0!
#3265
1!
b101 H
b1101101xxxxxxxx00 I
b1101101 =
#3275
0!
#3285
1!
b110 H
1C
1B
0A
1@
1?
#3295
0!
#3305
1!
b111 H
b100010110110110 I
1G
b1101101 F
b10001 =
#3315
0!
#3325
1!
b10010 O
b1 H
b11011010001000110 I
b10001 F
b1101101 =
b10010 J
b0 M
0C
0B
1A
0@
0?
b11100010 N
#3335
0!
#3345
1!
b10 H
b10010xxxxxxxx00 I
0G
bx F
b10010 =
1C
1B
0A
1@
1?
#3355
0!
#3365
1!
b11 H
0E
1D
0C
0B
1A
0@
0?
#3375
0!
#3385
1!
b10010 L
b111001100001 P
b100 H
b1100001 K
#3395
0!
#3405
1!
b101 H
b1100001xxxxxxxx00 I
b1100001 =
#3415
0!
#3425
1!
b110 H
1E
0D
0A
1@
1?
#3435
0!
#3445
1!
b111 H
b100100110000110 I
1G
b1100001 F
b10010 =
#3455
0!
#3465
1!
b10011 O
b1 H
b11000010001001010 I
b10010 F
b1100001 =
b10011 J
b1 M
0E
1D
1A
0@
0?
b11110000 N
#3475
0!
#3485
1!
b10 H
b10011xxxxxxxx00 I
0G
bx F
b10011 =
1E
0D
0A
1@
1?
#3495
0!
#3505
1!
b11 H
1D
1A
0@
0?
#3515
0!
#3525
1!
b10011 L
b111101100100 P
b100 H
b1100100 K
#3535
0!
#3545
1!
b101 H
b1100100xxxxxxxx00 I
b1100100 =
#3555
0!
#3565
1!
b110 H
0E
0D
1C
0A
1@
1?
#3575
0!
#3585
1!
b111 H
b100110110010010 I
1G
b1100100 F
b10011 =
#3595
0!
#3605
1!
b10100 O
b1 H
b11001000001001110 I
b10011 F
b1100100 =
b10100 J
b10 M
1E
1D
0C
1A
0@
0?
b1010011 N
#3615
0!
#3625
1!
b10 H
b10100xxxxxxxx00 I
0G
bx F
b10100 =
0E
0D
1C
0A
1@
1?
#3635
0!
#3645
1!
b11 H
1A
0@
0?
#3655
0!
#3665
1!
b10100 L
b111111001011 P
b100 H
b11001011 K
#3675
0!
#3685
1!
b101 H
b11001011xxxxxxxx00 I
b11001011 =
#3695
0!
#3705
1!
b110 H
1E
1D
0C
1B
0A
1?
1>
#3715
0!
#3725
1!
b111 H
b101001100101110 I
1G
b11001011 F
b10100 =
#3735
0!
#3745
1!
b10101 O
b1 H
b110010110001010010 I
b10100 F
b11001011 =
b10101 J
b0 M
0E
0D
1C
0B
1A
0?
0>
b11100010 N
#3755
0!
#3765
1!
b10 H
b10101xxxxxxxx00 I
0G
bx F
b10101 =
1E
1D
0C
1B
0A
1?
1>
#3775
0!
#3785
1!
b11 H
0D
1C
0B
1A
0?
0>
#3795
0!
#3805
1!
b10101 L
b1000011000010 P
b100 H
b11000010 K
#3815
0!
#3825
1!
b101 H
b11000010xxxxxxxx00 I
b11000010 =
#3835
0!
#3845
1!
b110 H
0E
1D
0C
0A
1?
1>
#3855
0!
#3865
1!
b111 H
b101011100001010 I
1G
b11000010 F
b10101 =
#3875
0!
#3885
1!
b10110 O
b1 H
b110000100001010110 I
b10101 F
b11000010 =
b10110 J
b1 M
1E
0D
1C
1A
0?
0>
b11110000 N
#3895
0!
#3905
1!
b10 H
b10110xxxxxxxx00 I
0G
bx F
b10110 =
0E
1D
0C
0A
1?
1>
#3915
0!
#3925
1!
b11 H
1C
1A
0?
0>
#3935
0!
#3945
1!
b10110 L
b1000111001000 P
b100 H
b11001000 K
#3955
0!
#3965
1!
b101 H
b11001000xxxxxxxx00 I
b11001000 =
#3975
0!
#3985
1!
b110 H
0D
0C
1B
0A
1?
1>
#3995
0!
#4005
1!
b111 H
b101101100100010 I
1G
b11001000 F
b10110 =
#4015
0!
#4025
1!
b10111 O
b1 H
b110010000001011010 I
b10110 F
b11001000 =
b10111 J
b10 M
1D
1C
0B
1A
0?
0>
b1010011 N
#4035
0!
#4045
1!
b10 H
b10111xxxxxxxx00 I
0G
bx F
b10111 =
0D
0C
1B
0A
1?
1>
#4055
0!
#4065
1!
b11 H
1E
1D
1C
0B
1A
0?
0>
#4075
0!
#4085
1!
b10111 L
b1001000110010 P
b100 H
b110010 K
#4095
0!
#4105
1!
b101 H
b110010xxxxxxxx00 I
b110010 =
#4115
0!
#4125
1!
b110 H
0E
0C
1@
#4135
0!
#4145
1!
b111 H
b101110011001010 I
1G
b110010 F
b10111 =
#4155
0!
#4165
1!
b11000 O
b1 H
b1100100001011110 I
b10111 F
b110010 =
b11000 J
b0 M
1E
1C
0@
b11100010 N
#4175
0!
#4185
1!
b10 H
b11000xxxxxxxx00 I
0G
bx F
b11000 =
0E
0C
1@
#4195
0!
#4205
1!
b11 H
1C
1B
0A
0@
#4215
0!
#4225
1!
b1110 L
b1001100100010 P
b100 H
b100010 K
#4235
0!
#4245
1!
b101 H
b100010xxxxxxxx00 I
b100010 =
#4255
0!
#4265
1!
b110 H
0C
0B
1@
#4275
0!
#4285
1!
b111 H
b110000010001010 I
1G
b100010 F
b11000 =
#4295
0!
#4305
1!
b11001 O
b1 H
b1000100000111010 I
b1110 F
b100010 =
b11001 J
b1 M
1C
1B
0@
b11110000 N
#4315
0!
#4325
1!
b10 H
b11001xxxxxxxx00 I
0G
bx F
b11001 =
0C
0B
1@
#4335
0!
#4345
1!
b11 H
1E
0D
1B
1A
0@
#4355
0!
#4365
1!
b11001 L
b1010000101011 P
b100 H
b101011 K
#4375
0!
#4385
1!
b101 H
b101011xxxxxxxx00 I
b101011 =
#4395
0!
#4405
1!
b110 H
1D
0A
1@
#4415
0!
#4425
1!
b111 H
b110010010101110 I
1G
b101011 F
b11001 =
#4435
0!
#4445
1!
b11010 O
b1 H
b1010110001100110 I
b11001 F
b101011 =
b11010 J
b10 M
0D
1A
0@
b1010011 N
#4455
0!
#4465
1!
b10 H
b11010xxxxxxxx00 I
0G
bx F
b11010 =
1D
0A
1@
#4475
0!
#4485
1!
b11 H
0E
1A
0@
#4495
0!
#4505
1!
b11010 L
b1010010011000 P
b100 H
b10011000 K
#4515
0!
#4525
1!
b101 H
b10011000xxxxxxxx00 I
b10011000 =
#4535
0!
#4545
1!
b110 H
0D
1>
#4555
0!
#4565
1!
b111 H
b110101001100010 I
1G
b10011000 F
b11010 =
#4575
0!
#4585
1!
b11011 O
b1 H
b100110000001101010 I
b11010 F
b10011000 =
b11011 J
b0 M
1D
0>
b11100010 N
#4595
0!
#4605
1!
b10 H
b11011xxxxxxxx00 I
0G
bx F
b11011 =
0D
1>
#4615
0!
#4625
1!
b11 H
1E
1D
0>
#4635
0!
#4645
1!
b11011 L
b1010110010101 P
b100 H
b10010101 K
#4655
0!
#4665
1!
b101 H
b10010101xxxxxxxx00 I
b10010101 =
#4675
0!
#4685
1!
b110 H
0D
1C
0B
1>
#4695
0!
#4705
1!
b111 H
b110111001010110 I
1G
b10010101 F
b11011 =
#4715
0!
#4725
1!
b11100 O
b1 H
b100101010001101110 I
b11011 F
b10010101 =
b11100 J
b1 M
1D
0C
1B
0>
b11110000 N
#4735
0!
#4745
1!
b10 H
b11100xxxxxxxx00 I
0G
bx F
b11100 =
0D
1C
0B
1>
#4755
0!
#4765
1!
b11 H
0E
1B
0>
#4775
0!
#4785
1!
b11100 L
b1011010100001 P
b100 H
b10100001 K
#4795
0!
#4805
1!
b101 H
b10100001xxxxxxxx00 I
b10100001 =
#4815
0!
#4825
1!
b110 H
1E
0C
0B
0A
1@
1>
#4835
0!
#4845
1!
b111 H
b111001010000110 I
1G
b10100001 F
b11100 =
#4855
0!
#4865
1!
b11101 O
b1 H
b101000010001110010 I
b11100 F
b10100001 =
b11101 J
b10 M
0E
1C
1B
1A
0@
0>
b1010011 N
#4875
0!
#4885
1!
b10 H
b11101xxxxxxxx00 I
0G
bx F
b11101 =
1E
0C
0B
0A
1@
1>
#4895
0!
#4905
1!
b11 H
1C
1B
1A
0@
0>
#4915
0!
#4925
1!
b11101 L
b1011100010001 P
b100 H
b10001 K
#4935
0!
#4945
1!
b101 H
b10001xxxxxxxx00 I
b10001 =
#4955
0!
#4965
1!
b110 H
0A
1@
1?
#4975
0!
#4985
1!
b111 H
b111010110110110 I
1G
b1101101 F
b11101 =
#4995
0!
#5005
1!
b11110 O
b1 H
b100010001110110 I
b11101 F
b10001 =
b11110 J
b0 M
1A
0@
0?
b11100010 N
#5015
0!
#5025
1!
b10 H
b11110xxxxxxxx00 I
0G
bx F
b11110 =
0A
1@
1?
#5035
0!
#5045
1!
b11 H
0E
1D
1A
0@
0?
#5055
0!
#5065
1!
b11110 L
b1100000010001 P
b100 H
#5075
0!
#5085
1!
b101 H
b10001xxxxxxxx00 I
b10001 =
#5095
0!
#5105
1!
b110 H
1E
0D
#5115
0!
#5125
1!
b111 H
b111100001110110 I
1G
b11101 F
b11110 =
#5135
0!
#5145
1!
b11111 O
b1 H
b100010001111010 I
b11110 F
b10001 =
b11111 J
b1 M
0E
1D
b11110000 N
#5155
0!
#5165
1!
b10 H
b11111xxxxxxxx00 I
0G
bx F
b11111 =
1E
0D
#5175
0!
#5185
1!
b11 H
1D
#5195
0!
#5205
1!
b11111 L
b1100100100000 P
b100 H
b100000 K
#5215
0!
#5225
1!
b101 H
b100000xxxxxxxx00 I
b100000 =
#5235
0!
#5245
1!
b110 H
0E
0D
0C
0B
0A
1@
#5255
0!
#5265
1!
b111 H
b111110010000010 I
1G
b100000 F
b11111 =
#5275
0!
#5285
1!
b100000 O
b1 H
b1000000001111110 I
b11111 F
b100000 =
b100000 J
b10 M
1E
1D
1C
1B
1A
0@
b1010011 N
#5295
0!
#5305
1!
b10 H
b100000xxxxxxxx00 I
0G
bx F
0E
0D
0C
0B
0A
1@
#5315
0!
#5325
1!
b11 H
1E
1D
1C
1B
1A
0@
#5335
0!
#5345
1!
b1100110010010 P
b100 H
b10010010 K
#5355
0!
#5365
1!
b101 H
b10010010xxxxxxxx00 I
b10010010 =
#5375
0!
#5385
1!
b110 H
0E
0C
0B
1>
#5395
0!
#5405
1!
b111 H
b1000001001001010 I
1G
b10010010 F
b100000 =
#5415
0!
#5425
1!
b100001 O
b1 H
b100100100001111110 I
b11111 F
b10010010 =
b100001 J
b0 M
1E
1C
1B
0>
b11100010 N
#5435
0!
#5445
1!
b10 H
b100001xxxxxxxx00 I
0G
bx F
b100001 =
0E
0C
0B
1>
#5455
0!
#5465
1!
b11 H
1E
0D
0A
1@
0>
#5475
0!
#5485
1!
b100001 L
b1101010010101 P
b100 H
b10010101 K
#5495
0!
#5505
1!
b101 H
b10010101xxxxxxxx00 I
b10010101 =
#5515
0!
#5525
1!
b110 H
1D
1B
1A
0@
#5535
0!
#5545
1!
b111 H
b1000010001101110 I
1G
b11011 F
b100001 =
#5555
0!
#5565
1!
b100010 O
b1 H
b100101010010000110 I
b100001 F
b10010101 =
b100010 J
b1 M
0D
0B
0A
1@
b11110000 N
#5575
0!
#5585
1!
b10 H
b100010xxxxxxxx00 I
0G
bx F
b100010 =
1D
1B
1A
0@
#5595
0!
#5605
1!
b11 H
0E
1C
0A
#5615
0!
#5625
1!
b1110 L
b1101110010011 P
b100 H
b10010011 K
#5635
0!
#5645
1!
b101 H
b10010011xxxxxxxx00 I
b10010011 =
#5655
0!
#5665
1!
b110 H
0D
0C
#5675
0!
#5685
1!
b111 H
b1000100000100010 I
1G
b1000 F
b100010 =
#5695
0!
#5705
1!
b100011 O
b1 H
b100100110000111010 I
b1110 F
b10010011 =
b100011 J
b10 M
1D
1C
b1010011 N
#5715
0!
#5725
1!
b10 H
b100011xxxxxxxx00 I
0G
bx F
b100011 =
0D
0C
#5735
0!
#5745
1!
b11 H
1E
1D
0B
1@
#5755
0!
#5765
1!
b100011 L
b1110000001001 P
b100 H
b1001 K
#5775
0!
#5785
1!
b101 H
b1001xxxxxxxx00 I
b1001 =
#5795
0!
#5805
1!
b110 H
0E
0D
1A
0@
#5815
0!
#5825
1!
b111 H
b1000110001000010 I
1G
b10000 F
b100011 =
#5835
0!
#5845
1!
b100100 O
b1 H
b10010010001110 I
b100011 F
b1001 =
b100100 J
b0 M
1E
1D
0A
1@
b11100010 N
#5855
0!
#5865
1!
b10 H
b100100xxxxxxxx00 I
0G
bx F
b100100 =
0E
0D
1A
0@
#5875
0!
#5885
1!
b11 H
1C
0A
1@
#5895
0!
#5905
1!
b100100 L
b1110100001111 P
b100 H
b1111 K
#5915
0!
#5925
1!
b101 H
b1111xxxxxxxx00 I
b1111 =
#5935
0!
#5945
1!
b110 H
1D
1B
1A
1?
#5955
0!
#5965
1!
b111 H
b1001000111111010 I
1G
b1111110 F
b100100 =
#5975
0!
#5985
1!
b100101 O
b1 H
b11110010010010 I
b100100 F
b1111 =
b100101 J
b1 M
0D
0B
0A
0?
b11110000 N
#5995
0!
#6005
1!
b10 H
b100101xxxxxxxx00 I
0G
bx F
b100101 =
1D
1B
1A
1?
#6015
0!
#6025
1!
b11 H
1E
0D
0B
0A
0?
#6035
0!
#6045
1!
b100101 L
b1111000100100 P
b100 H
b100100 K
#6055
0!
#6065
1!
b101 H
b100100xxxxxxxx00 I
b100100 =
#6075
0!
#6085
1!
b110 H
0E
1D
1B
1A
1?
#6095
0!
#6105
1!
b111 H
b1001010111111010 I
1G
b1111110 F
b100101 =
#6115
0!
#6125
1!
b100110 O
b1 H
b1001000010010110 I
b100101 F
b100100 =
b100110 J
b10 M
1E
0D
0B
0A
0?
b1010011 N
#6135
0!
#6145
1!
b10 H
b100110xxxxxxxx00 I
0G
bx F
b100110 =
0E
1D
1B
1A
1?
#6155
0!
#6165
1!
b11 H
0B
0A
0?
#6175
0!
#6185
1!
b100110 L
b1111010011101 P
b100 H
b10011101 K
#6195
0!
#6205
1!
b101 H
b10011101xxxxxxxx00 I
b10011101 =
#6215
0!
#6225
1!
b110 H
1E
0D
1B
1A
0@
1>
#6235
0!
#6245
1!
b111 H
b1001101001110110 I
1G
b10011101 F
b100110 =
#6255
0!
#6265
1!
b100111 O
b1 H
b100111010010011010 I
b100110 F
b10011101 =
b100111 J
b0 M
0E
1D
0B
0A
1@
0>
b11100010 N
#6275
0!
#6285
1!
b10 H
b100111xxxxxxxx00 I
0G
bx F
b100111 =
1E
0D
1B
1A
0@
1>
#6295
0!
#6305
1!
b11 H
1D
0B
0A
1@
0>
#6315
0!
#6325
1!
b100111 L
b1111110100110 P
b100 H
b10100110 K
#6335
0!
#6345
1!
b101 H
b10100110xxxxxxxx00 I
b10100110 =
#6355
0!
#6365
1!
b110 H
0E
1>
#6375
0!
#6385
1!
b111 H
b1001111010011010 I
1G
b10100110 F
b100111 =
#6395
0!
#6405
1!
b101000 O
b1 H
b101001100010011110 I
b100111 F
b10100110 =
b101000 J
b1 M
1E
0>
b11110000 N
#6415
0!
#6425
1!
b10 H
b101000xxxxxxxx00 I
0G
bx F
b101000 =
0E
1>
#6435
0!
#6445
1!
b11 H
0C
0@
0>
#6455
0!
#6465
1!
b10 L
b10000010011000 P
b100 H
b10011000 K
#6475
0!
#6485
1!
b101 H
b10011000xxxxxxxx00 I
b10011000 =
#6495
0!
#6505
1!
b110 H
1B
1A
#6515
0!
#6525
1!
b111 H
b1010000001101010 I
1G
b11010 F
b101000 =
#6535
0!
#6545
1!
b101001 O
b1 H
b100110000000001010 I
b10 F
b10011000 =
b101001 J
b10 M
0B
0A
b1010011 N
#6555
0!
#6565
1!
b10 H
b101001xxxxxxxx00 I
0G
bx F
b101001 =
1B
1A
#6575
0!
#6585
1!
b11 H
1E
0D
0A
1@
#6595
0!
