lab3/task2/task2.rtl.vcd
$date
	Thu Nov 19 07:10:06 2020
$end
$version
	ModelSim Version 10.7c
$end
$timescale
	1ps
$end

$scope module task2_ag $end

$scope module dut $end
$var wire 1 ! CLOCK_50 $end
$var wire 1 " KEY [3] $end
$var wire 1 # KEY [2] $end
$var wire 1 $ KEY [1] $end
$var wire 1 % KEY [0] $end
$var wire 1 & SW [9] $end
$var wire 1 ' SW [8] $end
$var wire 1 ( SW [7] $end
$var wire 1 ) SW [6] $end
$var wire 1 * SW [5] $end
$var wire 1 + SW [4] $end
$var wire 1 , SW [3] $end
$var wire 1 - SW [2] $end
$var wire 1 . SW [1] $end
$var wire 1 / SW [0] $end
$var reg 7 0 HEX0 [6:0] $end
$var reg 7 1 HEX1 [6:0] $end
$var reg 7 2 HEX2 [6:0] $end
$var reg 7 3 HEX3 [6:0] $end
$var reg 7 4 HEX4 [6:0] $end
$var reg 7 5 HEX5 [6:0] $end
$var reg 10 6 LEDR [9:0] $end
$var reg 1 7 rst_n $end
$var reg 1 8 en_i $end
$var reg 1 9 en_k $end
$var reg 1 : rdy_i $end
$var reg 1 ; rdy_k $end
$var reg 1 < wren $end
$var reg 1 = wren_i $end
$var reg 1 > wren_k $end
$var reg 1 ? enabled_i $end
$var reg 1 @ enabled_k $end
$var reg 8 A addr [7:0] $end
$var reg 8 B addr_i [7:0] $end
$var reg 8 C addr_k [7:0] $end
$var reg 8 D wrdata [7:0] $end
$var reg 8 E wrdata_i [7:0] $end
$var reg 8 F wrdata_k [7:0] $end
$var reg 8 G q [7:0] $end

$scope module i $end
$var wire 1 ! clk $end
$var wire 1 H rst_n $end
$var wire 1 I en $end
$var reg 1 J rdy $end
$var reg 8 K addr [7:0] $end
$var reg 8 L wrdata [7:0] $end
$var reg 1 M wren $end
$var reg 1 N state $end
$var reg 1 O rdy_out $end
$var reg 1 P wren_out $end
$var reg 8 Q count [7:0] $end
$upscope $end

$scope module k $end
$var wire 1 ! clk $end
$var wire 1 R rst_n $end
$var wire 1 S en $end
$var reg 1 T rdy $end
$var wire 1 U key [23] $end
$var wire 1 V key [22] $end
$var wire 1 W key [21] $end
$var wire 1 X key [20] $end
$var wire 1 Y key [19] $end
$var wire 1 Z key [18] $end
$var wire 1 [ key [17] $end
$var wire 1 \ key [16] $end
$var wire 1 ] key [15] $end
$var wire 1 ^ key [14] $end
$var wire 1 _ key [13] $end
$var wire 1 ` key [12] $end
$var wire 1 a key [11] $end
$var wire 1 b key [10] $end
$var wire 1 & key [9] $end
$var wire 1 ' key [8] $end
$var wire 1 ( key [7] $end
$var wire 1 ) key [6] $end
$var wire 1 * key [5] $end
$var wire 1 + key [4] $end
$var wire 1 , key [3] $end
$var wire 1 - key [2] $end
$var wire 1 . key [1] $end
$var wire 1 / key [0] $end
$var reg 8 c addr [7:0] $end
$var wire 1 d rddata [7] $end
$var wire 1 e rddata [6] $end
$var wire 1 f rddata [5] $end
$var wire 1 g rddata [4] $end
$var wire 1 h rddata [3] $end
$var wire 1 i rddata [2] $end
$var wire 1 j rddata [1] $end
$var wire 1 k rddata [0] $end
$var reg 8 l wrdata [7:0] $end
$var reg 1 m wren $end
$var reg 3 n state [2:0] $end
$var reg 18 o out [17:0] $end
$var reg 8 p i [7:0] $end
$var reg 8 q j [7:0] $end
$var reg 8 r I [7:0] $end
$var reg 8 s key_index [7:0] $end
$var reg 8 t key_val [7:0] $end
$var integer 32 u count_i $end
$var integer 32 v count_j $end
$upscope $end

$scope module s $end
$var wire 1 w address [7] $end
$var wire 1 x address [6] $end
$var wire 1 y address [5] $end
$var wire 1 z address [4] $end
$var wire 1 { address [3] $end
$var wire 1 | address [2] $end
$var wire 1 } address [1] $end
$var wire 1 ~ address [0] $end
$var tri1 1 ! clock $end
$var wire 1 !! data [7] $end
$var wire 1 "! data [6] $end
$var wire 1 #! data [5] $end
$var wire 1 $! data [4] $end
$var wire 1 %! data [3] $end
$var wire 1 &! data [2] $end
$var wire 1 '! data [1] $end
$var wire 1 (! data [0] $end
$var wire 1 )! wren $end
$var wire 1 *! q [7] $end
$var wire 1 +! q [6] $end
$var wire 1 ,! q [5] $end
$var wire 1 -! q [4] $end
$var wire 1 .! q [3] $end
$var wire 1 /! q [2] $end
$var wire 1 0! q [1] $end
$var wire 1 1! q [0] $end
$var wire 1 2! sub_wire0 [7] $end
$var wire 1 3! sub_wire0 [6] $end
$var wire 1 4! sub_wire0 [5] $end
$var wire 1 5! sub_wire0 [4] $end
$var wire 1 6! sub_wire0 [3] $end
$var wire 1 7! sub_wire0 [2] $end
$var wire 1 8! sub_wire0 [1] $end
$var wire 1 9! sub_wire0 [0] $end

$scope module altsyncram_component $end
$var tri0 1 )! wren_a $end
$var tri0 1 :! wren_b $end
$var tri1 1 ;! rden_a $end
$var tri1 1 <! rden_b $end
$var tri1 1 ! clock0 $end
$var tri1 1 =! clocken0 $end
$var tri1 1 >! clocken1 $end
$var tri1 1 ?! clocken2 $end
$var tri1 1 @! clocken3 $end
$var tri0 1 A! aclr0 $end
$var tri0 1 B! aclr1 $end
$var tri1 1 C! byteena_a [0] $end
$var tri1 1 D! byteena_b [0] $end
$var tri0 1 E! addressstall_a $end
$var tri0 1 F! addressstall_b $end

$scope begin m_default $end

$scope module altsyncram_inst $end
$var reg 2048 G! ram_initf [2048:1] $end
$var tri1 1 H! i_byteena_a [0] $end

$scope module mem $end

$scope task convert_to_ver_file $end
$var reg 2048 I! in_file [2048:1] $end
$var integer 32 J! width $end
$var reg 2048 K! out_file [2048:1] $end
$upscope $end
$upscope $end
$upscope $end
$upscope $end
$upscope $end
$upscope $end
$upscope $end
$upscope $end
$enddefinitions $end
#0
$dumpvars
bx 0
bx 1
bx 2
bx 3
bx 4
bx 5
bx 6
07
x8
x9
x:
x;
x<
x=
x>
x?
x@
bx A
bx B
bx C
bx D
bx E
bx F
b0 G
xJ
bx K
bx L
xM
xN
xO
xP
bx Q
xT
bx c
bx l
xm
bx n
bx o
bx p
bx q
bx r
bx s
bx t
bx G!
bx I!
bx K!
bx u
bx v
bx J!
09!
08!
07!
06!
05!
04!
03!
02!
1H!
0/
0.
1-
1,
1+
1*
0)
0(
1'
1&
x%
x$
x#
0"
0!
x)!
x(!
x'!
x&!
x%!
x$!
x#!
x"!
x!!
x~
x}
x|
x{
xz
xy
xx
xw
0k
0j
0i
0h
0g
0f
0e
0d
0b
0a
0`
0_
0^
0]
0\
0[
0Z
0Y
0X
0W
0V
0U
xS
0R
xI
0H
01!
00!
0/!
0.!
0-!
0,!
0+!
0*!
0F!
0E!
1D!
1C!
0B!
0A!
1@!
1?!
1>!
1=!
1<!
1;!
0:!
$end
#1
1!
0?
0@
b0 Q
0N
0P
0O
b0 u
b0 v
b0 n
b0 o
0T
0m
b0 l
b0 c
b0 q
b0 p
0J
0M
b0 K
b0 L
09
b0 E
b0 B
0=
0:
b0 s
b0 C
b0 F
0>
0;
0S
08
0<
b0 D
b0 A
0I
0)!
0~
0}
0|
0{
0z
0y
0x
0w
0(!
0'!
0&!
0%!
0$!
0#!
0"!
0!!
b0 t
x9!
x8!
x7!
x6!
x5!
x4!
x3!
x2!
x1!
x0!
x/!
x.!
x-!
x,!
x+!
x*!
bx G
xk
xj
xi
xh
xg
xf
xe
xd
#2
1"
17
1H
1R
0!
#3
1!
b1 o
1O
1J
1T
1;
1:
18
1I
09!
08!
07!
06!
05!
04!
03!
02!
01!
00!
0/!
0.!
0-!
0,!
0+!
0*!
b0 G
0k
0j
0i
0h
0g
0f
0e
0d
#4
0!
#5
1!
1?
1N
1P
0O
0J
1M
08
19
1=
0:
0I
1S
09
1<
0S
1)!
#6
0!
#7
1!
b1 Q
b1 K
b1 L
b1 E
b1 B
b1 D
b1 A
1~
1(!
#8
0!
#9
1!
b10 Q
b10 K
b10 L
b10 E
b10 B
b10 D
b10 A
0~
1}
0(!
1'!
19!
11!
b1 G
1k
#10
0!
#11
1!
b11 Q
b11 K
b11 L
b11 E
b11 B
b11 D
b11 A
1~
1(!
09!
18!
01!
10!
b10 G
0k
1j
#12
0!
#13
1!
b100 Q
b100 K
b100 L
b100 E
b100 B
b100 D
b100 A
0~
0}
1|
0(!
0'!
1&!
19!
11!
b11 G
1k
#14
0!
#15
1!
b101 Q
b101 K
b101 L
b101 E
b101 B
b101 D
b101 A
1~
1(!
09!
08!
17!
01!
00!
1/!
b100 G
0k
0j
1i
#16
0!
#17
1!
b110 Q
b110 K
b110 L
b110 E
b110 B
b110 D
b110 A
0~
1}
0(!
1'!
19!
11!
b101 G
1k
#18
0!
#19
1!
b111 Q
b111 K
b111 L
b111 E
b111 B
b111 D
b111 A
1~
1(!
09!
18!
01!
10!
b110 G
0k
1j
#20
0!
#21
1!
b1000 Q
b1000 K
b1000 L
b1000 E
b1000 B
b1000 D
b1000 A
0~
0}
0|
1{
0(!
0'!
0&!
1%!
19!
11!
b111 G
1k
#22
0!
#23
1!
b1001 Q
b1001 K
b1001 L
b1001 E
b1001 B
b1001 D
b1001 A
1~
1(!
09!
08!
07!
16!
01!
00!
0/!
1.!
b1000 G
0k
0j
0i
1h
#24
0!
#25
1!
b1010 Q
b1010 K
b1010 L
b1010 E
b1010 B
b1010 D
b1010 A
0~
1}
0(!
1'!
19!
11!
b1001 G
1k
#26
0!
#27
1!
b1011 Q
b1011 K
b1011 L
b1011 E
b1011 B
b1011 D
b1011 A
1~
1(!
09!
18!
01!
10!
b1010 G
0k
1j
#28
0!
#29
1!
b1100 Q
b1100 K
b1100 L
b1100 E
b1100 B
b1100 D
b1100 A
0~
0}
1|
0(!
0'!
1&!
19!
11!
b1011 G
1k
#30
0!
#31
1!
b1101 Q
b1101 K
b1101 L
b1101 E
b1101 B
b1101 D
b1101 A
1~
1(!
09!
08!
17!
01!
00!
1/!
b1100 G
0k
0j
1i
#32
0!
#33
1!
b1110 Q
b1110 K
b1110 L
b1110 E
b1110 B
b1110 D
b1110 A
0~
1}
0(!
1'!
19!
11!
b1101 G
1k
#34
0!
#35
1!
b1111 Q
b1111 K
b1111 L
b1111 E
b1111 B
b1111 D
b1111 A
1~
1(!
09!
18!
01!
10!
b1110 G
0k
1j
#36
0!
#37
1!
b10000 Q
b10000 K
b10000 L
b10000 E
b10000 B
b10000 D
b10000 A
0~
0}
0|
0{
1z
0(!
0'!
0&!
0%!
1$!
19!
11!
b1111 G
1k
#38
0!
#39
1!
b10001 Q
b10001 K
b10001 L
b10001 E
b10001 B
b10001 D
b10001 A
1~
1(!
09!
08!
07!
06!
15!
01!
00!
0/!
0.!
1-!
b10000 G
0k
0j
0i
0h
1g
#40
0!
#41
1!
b10010 Q
b10010 K
b10010 L
b10010 E
b10010 B
b10010 D
b10010 A
0~
1}
0(!
1'!
19!
11!
b10001 G
1k
#42
0!
#43
1!
b10011 Q
b10011 K
b10011 L
b10011 E
b10011 B
b10011 D
b10011 A
1~
1(!
09!
18!
01!
10!
b10010 G
0k
1j
#44
0!
#45
1!
b10100 Q
b10100 K
b10100 L
b10100 E
b10100 B
b10100 D
b10100 A
0~
0}
1|
0(!
0'!
1&!
19!
11!
b10011 G
1k
#46
0!
#47
1!
b10101 Q
b10101 K
b10101 L
b10101 E
b10101 B
b10101 D
b10101 A
1~
1(!
09!
08!
17!
01!
00!
1/!
b10100 G
0k
0j
1i
#48
0!
#49
1!
b10110 Q
b10110 K
b10110 L
b10110 E
b10110 B
b10110 D
b10110 A
0~
1}
0(!
1'!
19!
11!
b10101 G
1k
#50
0!
#51
1!
b10111 Q
b10111 K
b10111 L
b10111 E
b10111 B
b10111 D
b10111 A
1~
1(!
09!
18!
01!
10!
b10110 G
0k
1j
#52
0!
#53
1!
b11000 Q
b11000 K
b11000 L
b11000 E
b11000 B
b11000 D
b11000 A
0~
0}
0|
1{
0(!
0'!
0&!
1%!
19!
11!
b10111 G
1k
#54
0!
#55
1!
b11001 Q
b11001 K
b11001 L
b11001 E
b11001 B
b11001 D
b11001 A
1~
1(!
09!
08!
07!
16!
01!
00!
0/!
1.!
b11000 G
0k
0j
0i
1h
#56
0!
#57
1!
b11010 Q
b11010 K
b11010 L
b11010 E
b11010 B
b11010 D
b11010 A
0~
1}
0(!
1'!
19!
11!
b11001 G
1k
#58
0!
#59
1!
b11011 Q
b11011 K
b11011 L
b11011 E
b11011 B
b11011 D
b11011 A
1~
1(!
09!
18!
01!
10!
b11010 G
0k
1j
#60
0!
#61
1!
b11100 Q
b11100 K
b11100 L
b11100 E
b11100 B
b11100 D
b11100 A
0~
0}
1|
0(!
0'!
1&!
19!
11!
b11011 G
1k
#62
0!
#63
1!
b11101 Q
b11101 K
b11101 L
b11101 E
b11101 B
b11101 D
b11101 A
1~
1(!
09!
08!
17!
01!
00!
1/!
b11100 G
0k
0j
1i
#64
0!
#65
1!
b11110 Q
b11110 K
b11110 L
b11110 E
b11110 B
b11110 D
b11110 A
0~
1}
0(!
1'!
19!
11!
b11101 G
1k
#66
0!
#67
1!
b11111 Q
b11111 K
b11111 L
b11111 E
b11111 B
b11111 D
b11111 A
1~
1(!
09!
18!
01!
10!
b11110 G
0k
1j
#68
0!
#69
1!
b100000 Q
b100000 K
b100000 L
b100000 E
b100000 B
b100000 D
b100000 A
0~
0}
0|
0{
0z
1y
0(!
0'!
0&!
0%!
0$!
1#!
19!
11!
b11111 G
1k
#70
0!
#71
1!
b100001 Q
b100001 K
b100001 L
b100001 E
b100001 B
b100001 D
b100001 A
1~
1(!
09!
08!
07!
06!
05!
14!
01!
00!
0/!
0.!
0-!
1,!
b100000 G
0k
0j
0i
0h
0g
1f
#72
0!
#73
1!
b100010 Q
b100010 K
b100010 L
b100010 E
b100010 B
b100010 D
b100010 A
0~
1}
0(!
1'!
19!
11!
b100001 G
1k
#74
0!
#75
1!
b100011 Q
b100011 K
b100011 L
b100011 E
b100011 B
b100011 D
b100011 A
1~
1(!
09!
18!
01!
10!
b100010 G
0k
1j
#76
0!
#77
1!
b100100 Q
b100100 K
b100100 L
b100100 E
b100100 B
b100100 D
b100100 A
0~
0}
1|
0(!
0'!
1&!
19!
11!
b100011 G
1k
#78
0!
#79
1!
b100101 Q
b100101 K
b100101 L
b100101 E
b100101 B
b100101 D
b100101 A
1~
1(!
09!
08!
17!
01!
00!
1/!
b100100 G
0k
0j
1i
#80
0!
#81
1!
b100110 Q
b100110 K
b100110 L
b100110 E
b100110 B
b100110 D
b100110 A
0~
1}
0(!
1'!
19!
11!
b100101 G
1k
#82
0!
#83
1!
b100111 Q
b100111 K
b100111 L
b100111 E
b100111 B
b100111 D
b100111 A
1~
1(!
09!
18!
01!
10!
b100110 G
0k
1j
#84
0!
#85
1!
b101000 Q
b101000 K
b101000 L
b101000 E
b101000 B
b101000 D
b101000 A
0~
0}
0|
1{
0(!
0'!
0&!
1%!
19!
11!
b100111 G
1k
#86
0!
#87
1!
b101001 Q
b101001 K
b101001 L
b101001 E
b101001 B
b101001 D
b101001 A
1~
1(!
09!
08!
07!
16!
01!
00!
0/!
1.!
b101000 G
0k
0j
0i
1h
#88
0!
#89
1!
b101010 Q
b101010 K
b101010 L
b101010 E
b101010 B
b101010 D
b101010 A
0~
1}
0(!
1'!
19!
11!
b101001 G
1k
#90
0!
#91
1!
b101011 Q
b101011 K
b101011 L
b101011 E
b101011 B
b101011 D
b101011 A
1~
1(!
09!
18!
01!
10!
b101010 G
0k
1j
#92
0!
#93
1!
b101100 Q
b101100 K
b101100 L
b101100 E
b101100 B
b101100 D
b101100 A
0~
0}
1|
0(!
0'!
1&!
19!
11!
b101011 G
1k
#94
0!
#95
1!
b101101 Q
b101101 K
b101101 L
b101101 E
b101101 B
b101101 D
b101101 A
1~
1(!
09!
08!
17!
01!
00!
1/!
b101100 G
0k
0j
1i
#96
0!
#97
1!
b101110 Q
b101110 K
b101110 L
b101110 E
b101110 B
b101110 D
b101110 A
0~
1}
0(!
1'!
19!
11!
b101101 G
1k
#98
0!
#99
1!
b101111 Q
b101111 K
b101111 L
b101111 E
b101111 B
b101111 D
b101111 A
1~
1(!
09!
18!
01!
10!
b101110 G
0k
1j
#100
0!
#101
1!
b110000 Q
b110000 K
b110000 L
b110000 E
b110000 B
b110000 D
b110000 A
0~
0}
0|
0{
1z
0(!
0'!
0&!
0%!
1$!
19!
11!
b101111 G
1k
#102
0!
#103
1!
b110001 Q
b110001 K
b110001 L
b110001 E
b110001 B
b110001 D
b110001 A
1~
1(!
09!
08!
07!
06!
15!
01!
00!
0/!
0.!
1-!
b110000 G
0k
0j
0i
0h
1g
#104
0!
#105
1!
b110010 Q
b110010 K
b110010 L
b110010 E
b110010 B
b110010 D
b110010 A
0~
1}
0(!
1'!
19!
11!
b110001 G
1k
#106
0!
#107
1!
b110011 Q
b110011 K
b110011 L
b110011 E
b110011 B
b110011 D
b110011 A
1~
1(!
09!
18!
01!
10!
b110010 G
0k
1j
#108
0!
#109
1!
b110100 Q
b110100 K
b110100 L
b110100 E
b110100 B
b110100 D
b110100 A
0~
0}
1|
0(!
0'!
1&!
19!
11!
b110011 G
1k
#110
0!
#111
1!
b110101 Q
b110101 K
b110101 L
b110101 E
b110101 B
b110101 D
b110101 A
1~
1(!
09!
08!
17!
01!
00!
1/!
b110100 G
0k
0j
1i
#112
0!
#113
1!
b110110 Q
b110110 K
b110110 L
b110110 E
b110110 B
b110110 D
b110110 A
0~
1}
0(!
1'!
19!
11!
b110101 G
1k
#114
0!
#115
1!
b110111 Q
b110111 K
b110111 L
b110111 E
b110111 B
b110111 D
b110111 A
1~
1(!
09!
18!
01!
10!
b110110 G
0k
1j
#116
0!
#117
1!
b111000 Q
b111000 K
b111000 L
b111000 E
b111000 B
b111000 D
b111000 A
0~
0}
0|
1{
0(!
0'!
0&!
1%!
19!
11!
b110111 G
1k
#118
0!
#119
1!
b111001 Q
b111001 K
b111001 L
b111001 E
b111001 B
b111001 D
b111001 A
1~
1(!
09!
08!
07!
16!
01!
00!
0/!
1.!
b111000 G
0k
0j
0i
1h
#120
0!
#121
1!
b111010 Q
b111010 K
b111010 L
b111010 E
b111010 B
b111010 D
b111010 A
0~
1}
0(!
1'!
19!
11!
b111001 G
1k
#122
0!
#123
1!
b111011 Q
b111011 K
b111011 L
b111011 E
b111011 B
b111011 D
b111011 A
1~
1(!
09!
18!
01!
10!
b111010 G
0k
1j
#124
0!
#125
1!
b111100 Q
b111100 K
b111100 L
b111100 E
b111100 B
b111100 D
b111100 A
0~
0}
1|
0(!
0'!
1&!
19!
11!
b111011 G
1k
#126
0!
#127
1!
b111101 Q
b111101 K
b111101 L
b111101 E
b111101 B
b111101 D
b111101 A
1~
1(!
09!
08!
17!
01!
00!
1/!
b111100 G
0k
0j
1i
#128
0!
#129
1!
b111110 Q
b111110 K
b111110 L
b111110 E
b111110 B
b111110 D
b111110 A
0~
1}
0(!
1'!
19!
11!
b111101 G
1k
#130
0!
#131
1!
b111111 Q
b111111 K
b111111 L
b111111 E
b111111 B
b111111 D
b111111 A
1~
1(!
09!
18!
01!
10!
b111110 G
0k
1j
#132
0!
#133
1!
b1000000 Q
b1000000 K
b1000000 L
b1000000 E
b1000000 B
b1000000 D
b1000000 A
0~
0}
0|
0{
0z
0y
1x
0(!
0'!
0&!
0%!
0$!
0#!
1"!
19!
11!
b111111 G
1k
#134
0!
#135
1!
b1000001 Q
b1000001 K
b1000001 L
b1000001 E
b1000001 B
b1000001 D
b1000001 A
1~
1(!
09!
08!
07!
06!
05!
04!
13!
01!
00!
0/!
0.!
0-!
0,!
1+!
b1000000 G
0k
0j
0i
0h
0g
0f
1e
#136
0!
#137
1!
b1000010 Q
b1000010 K
b1000010 L
b1000010 E
b1000010 B
b1000010 D
b1000010 A
0~
1}
0(!
1'!
19!
11!
b1000001 G
1k
#138
0!
#139
1!
b1000011 Q
b1000011 K
b1000011 L
b1000011 E
b1000011 B
b1000011 D
b1000011 A
1~
1(!
09!
18!
01!
10!
b1000010 G
0k
1j
#140
0!
#141
1!
b1000100 Q
b1000100 K
b1000100 L
b1000100 E
b1000100 B
b1000100 D
b1000100 A
0~
0}
1|
0(!
0'!
1&!
19!
11!
b1000011 G
1k
#142
0!
#143
1!
b1000101 Q
b1000101 K
b1000101 L
b1000101 E
b1000101 B
b1000101 D
b1000101 A
1~
1(!
09!
08!
17!
01!
00!
1/!
b1000100 G
0k
0j
1i
#144
0!
#145
1!
b1000110 Q
b1000110 K
b1000110 L
b1000110 E
b1000110 B
b1000110 D
b1000110 A
0~
1}
0(!
1'!
19!
11!
b1000101 G
1k
#146
0!
#147
1!
b1000111 Q
b1000111 K
b1000111 L
b1000111 E
b1000111 B
b1000111 D
b1000111 A
1~
1(!
09!
18!
01!
10!
b1000110 G
0k
1j
#148
0!
#149
1!
b1001000 Q
b1001000 K
b1001000 L
b1001000 E
b1001000 B
b1001000 D
b1001000 A
0~
0}
0|
1{
0(!
0'!
0&!
1%!
19!
11!
b1000111 G
1k
#150
0!
#151
1!
b1001001 Q
b1001001 K
b1001001 L
b1001001 E
b1001001 B
b1001001 D
b1001001 A
1~
1(!
09!
08!
07!
16!
01!
00!
0/!
1.!
b1001000 G
0k
0j
0i
1h
#152
0!
#153
1!
b1001010 Q
b1001010 K
b1001010 L
b1001010 E
b1001010 B
b1001010 D
b1001010 A
0~
1}
0(!
1'!
19!
11!
b1001001 G
1k
#154
0!
#155
1!
b1001011 Q
b1001011 K
b1001011 L
b1001011 E
b1001011 B
b1001011 D
b1001011 A
1~
1(!
09!
18!
01!
10!
b1001010 G
0k
1j
#156
0!
#157
1!
b1001100 Q
b1001100 K
b1001100 L
b1001100 E
b1001100 B
b1001100 D
b1001100 A
0~
0}
1|
0(!
0'!
1&!
19!
11!
b1001011 G
1k
#158
0!
#159
1!
b1001101 Q
b1001101 K
b1001101 L
b1001101 E
b1001101 B
b1001101 D
b1001101 A
1~
1(!
09!
08!
17!
01!
00!
1/!
b1001100 G
0k
0j
1i
#160
0!
#161
1!
b1001110 Q
b1001110 K
b1001110 L
b1001110 E
b1001110 B
b1001110 D
b1001110 A
0~
1}
0(!
1'!
19!
11!
b1001101 G
1k
#162
0!
#163
1!
b1001111 Q
b1001111 K
b1001111 L
b1001111 E
b1001111 B
b1001111 D
b1001111 A
1~
1(!
09!
18!
01!
10!
b1001110 G
0k
1j
#164
0!
#165
1!
b1010000 Q
b1010000 K
b1010000 L
b1010000 E
b1010000 B
b1010000 D
b1010000 A
0~
0}
0|
0{
1z
0(!
0'!
0&!
0%!
1$!
19!
11!
b1001111 G
1k
#166
0!
#167
1!
b1010001 Q
b1010001 K
b1010001 L
b1010001 E
b1010001 B
b1010001 D
b1010001 A
1~
1(!
09!
08!
07!
06!
15!
01!
00!
0/!
0.!
1-!
b1010000 G
0k
0j
0i
0h
1g
#168
0!
#169
1!
b1010010 Q
b1010010 K
b1010010 L
b1010010 E
b1010010 B
b1010010 D
b1010010 A
0~
1}
0(!
1'!
19!
11!
b1010001 G
1k
#170
0!
#171
1!
b1010011 Q
b1010011 K
b1010011 L
b1010011 E
b1010011 B
b1010011 D
b1010011 A
1~
1(!
09!
18!
01!
10!
b1010010 G
0k
1j
#172
0!
#173
1!
b1010100 Q
b1010100 K
b1010100 L
b1010100 E
b1010100 B
b1010100 D
b1010100 A
0~
0}
1|
0(!
0'!
1&!
19!
11!
b1010011 G
1k
#174
0!
#175
1!
b1010101 Q
b1010101 K
b1010101 L
b1010101 E
b1010101 B
b1010101 D
b1010101 A
1~
1(!
09!
08!
17!
01!
00!
1/!
b1010100 G
0k
0j
1i
#176
0!
#177
1!
b1010110 Q
b1010110 K
b1010110 L
b1010110 E
b1010110 B
b1010110 D
b1010110 A
0~
1}
0(!
1'!
19!
11!
b1010101 G
1k
#178
0!
#179
1!
b1010111 Q
b1010111 K
b1010111 L
b1010111 E
b1010111 B
b1010111 D
b1010111 A
1~
1(!
09!
18!
01!
10!
b1010110 G
0k
1j
#180
0!
#181
1!
b1011000 Q
b1011000 K
b1011000 L
b1011000 E
b1011000 B
b1011000 D
b1011000 A
0~
0}
0|
1{
0(!
0'!
0&!
1%!
19!
11!
b1010111 G
1k
#182
0!
#183
1!
b1011001 Q
b1011001 K
b1011001 L
b1011001 E
b1011001 B
b1011001 D
b1011001 A
1~
1(!
09!
08!
07!
16!
01!
00!
0/!
1.!
b1011000 G
0k
0j
0i
1h
#184
0!
#185
1!
b1011010 Q
b1011010 K
b1011010 L
b1011010 E
b1011010 B
b1011010 D
b1011010 A
0~
1}
0(!
1'!
19!
11!
b1011001 G
1k
#186
0!
#187
1!
b1011011 Q
b1011011 K
b1011011 L
b1011011 E
b1011011 B
b1011011 D
b1011011 A
1~
1(!
09!
18!
01!
10!
b1011010 G
0k
1j
#188
0!
#189
1!
b1011100 Q
b1011100 K
b1011100 L
b1011100 E
b1011100 B
b1011100 D
b1011100 A
0~
0}
1|
0(!
0'!
1&!
19!
11!
b1011011 G
1k
#190
0!
#191
1!
b1011101 Q
b1011101 K
b1011101 L
b1011101 E
b1011101 B
b1011101 D
b1011101 A
1~
1(!
09!
08!
17!
01!
00!
1/!
b1011100 G
0k
0j
1i
#192
0!
#193
1!
b1011110 Q
b1011110 K
b1011110 L
b1011110 E
b1011110 B
b1011110 D
b1011110 A
0~
1}
0(!
1'!
19!
11!
b1011101 G
1k
#194
0!
#195
1!
b1011111 Q
b1011111 K
b1011111 L
b1011111 E
b1011111 B
b1011111 D
b1011111 A
1~
1(!
09!
18!
01!
10!
b1011110 G
0k
1j
#196
0!
#197
1!
b1100000 Q
b1100000 K
b1100000 L
b1100000 E
b1100000 B
b1100000 D
b1100000 A
0~
0}
0|
0{
0z
1y
0(!
0'!
0&!
0%!
0$!
1#!
19!
11!
b1011111 G
1k
#198
0!
#199
1!
b1100001 Q
b1100001 K
b1100001 L
b1100001 E
b1100001 B
b1100001 D
b1100001 A
1~
1(!
09!
08!
07!
06!
05!
14!
01!
00!
0/!
0.!
0-!
1,!
b1100000 G
0k
0j
0i
0h
0g
1f
#200
0!
#201
1!
b1100010 Q
b1100010 K
b1100010 L
b1100010 E
b1100010 B
b1100010 D
b1100010 A
0~
1}
0(!
1'!
19!
11!
b1100001 G
1k
#202
0!
#203
1!
b1100011 Q
b1100011 K
b1100011 L
b1100011 E
b1100011 B
b1100011 D
b1100011 A
1~
1(!
09!
18!
01!
10!
b1100010 G
0k
1j
#204
0!
#205
1!
b1100100 Q
b1100100 K
b1100100 L
b1100100 E
b1100100 B
b1100100 D
b1100100 A
0~
0}
1|
0(!
0'!
1&!
19!
11!
b1100011 G
1k
#206
0!
#207
1!
b1100101 Q
b1100101 K
b1100101 L
b1100101 E
b1100101 B
b1100101 D
b1100101 A
1~
1(!
09!
08!
17!
01!
00!
1/!
b1100100 G
0k
0j
1i
#208
0!
#209
1!
b1100110 Q
b1100110 K
b1100110 L
b1100110 E
b1100110 B
b1100110 D
b1100110 A
0~
1}
0(!
1'!
19!
11!
b1100101 G
1k
#210
0!
#211
1!
b1100111 Q
b1100111 K
b1100111 L
b1100111 E
b1100111 B
b1100111 D
b1100111 A
1~
1(!
09!
18!
01!
10!
b1100110 G
0k
1j
#212
0!
#213
1!
b1101000 Q
b1101000 K
b1101000 L
b1101000 E
b1101000 B
b1101000 D
b1101000 A
0~
0}
0|
1{
0(!
0'!
0&!
1%!
19!
11!
b1100111 G
1k
#214
0!
#215
1!
b1101001 Q
b1101001 K
b1101001 L
b1101001 E
b1101001 B
b1101001 D
b1101001 A
1~
1(!
09!
08!
07!
16!
01!
00!
0/!
1.!
b1101000 G
0k
0j
0i
1h
#216
0!
#217
1!
b1101010 Q
b1101010 K
b1101010 L
b1101010 E
b1101010 B
b1101010 D
b1101010 A
0~
1}
0(!
1'!
19!
11!
b1101001 G
1k
#218
0!
#219
1!
b1101011 Q
b1101011 K
b1101011 L
b1101011 E
b1101011 B
b1101011 D
b1101011 A
1~
1(!
09!
18!
01!
10!
b1101010 G
0k
1j
#220
0!
#221
1!
b1101100 Q
b1101100 K
b1101100 L
b1101100 E
b1101100 B
b1101100 D
b1101100 A
0~
0}
1|
0(!
0'!
1&!
19!
11!
b1101011 G
1k
#222
0!
#223
1!
b1101101 Q
b1101101 K
b1101101 L
b1101101 E
b1101101 B
b1101101 D
b1101101 A
1~
1(!
09!
08!
17!
01!
00!
1/!
b1101100 G
0k
0j
1i
#224
0!
#225
1!
b1101110 Q
b1101110 K
b1101110 L
b1101110 E
b1101110 B
b1101110 D
b1101110 A
0~
1}
0(!
1'!
19!
11!
b1101101 G
1k
#226
0!
#227
1!
b1101111 Q
b1101111 K
b1101111 L
b1101111 E
b1101111 B
b1101111 D
b1101111 A
1~
1(!
09!
18!
01!
10!
b1101110 G
0k
1j
#228
0!
#229
1!
b1110000 Q
b1110000 K
b1110000 L
b1110000 E
b1110000 B
b1110000 D
b1110000 A
0~
0}
0|
0{
1z
0(!
0'!
0&!
0%!
1$!
19!
11!
b1101111 G
1k
#230
0!
#231
1!
b1110001 Q
b1110001 K
b1110001 L
b1110001 E
b1110001 B
b1110001 D
b1110001 A
1~
1(!
09!
08!
07!
06!
15!
01!
00!
0/!
0.!
1-!
b1110000 G
0k
0j
0i
0h
1g
#232
0!
#233
1!
b1110010 Q
b1110010 K
b1110010 L
b1110010 E
b1110010 B
b1110010 D
b1110010 A
0~
1}
0(!
1'!
19!
11!
b1110001 G
1k
#234
0!
#235
1!
b1110011 Q
b1110011 K
b1110011 L
b1110011 E
b1110011 B
b1110011 D
b1110011 A
1~
1(!
09!
18!
01!
10!
b1110010 G
0k
1j
#236
0!
#237
1!
b1110100 Q
b1110100 K
b1110100 L
b1110100 E
b1110100 B
b1110100 D
b1110100 A
0~
0}
1|
0(!
0'!
1&!
19!
11!
b1110011 G
1k
#238
0!
