lab1/task5/scorehand.gate.vcd
$date
	Fri Dec  4 10:34:57 2020
$end
$version
	ModelSim Version 10.7c
$end
$timescale
	1ps
$end

$scope module scorehand_ag $end

$scope module dut $end
$var wire 1 ! card1 [3] $end
$var wire 1 " card1 [2] $end
$var wire 1 # card1 [1] $end
$var wire 1 $ card1 [0] $end
$var wire 1 % card2 [3] $end
$var wire 1 & card2 [2] $end
$var wire 1 ' card2 [1] $end
$var wire 1 ( card2 [0] $end
$var wire 1 ) card3 [3] $end
$var wire 1 * card3 [2] $end
$var wire 1 + card3 [1] $end
$var wire 1 , card3 [0] $end
$var wire 1 - total [3] $end
$var wire 1 . total [2] $end
$var wire 1 / total [1] $end
$var wire 1 0 total [0] $end
$var wire 1 1 gnd $end
$var wire 1 2 vcc $end
$var wire 1 3 unknown $end
$var tri1 1 4 devclrn $end
$var tri1 1 5 devpor $end
$var tri1 1 6 devoe $end
$var wire 1 7 ~QUARTUS_CREATED_GND~I_combout $end
$var wire 1 8 card3[1]~input_o $end
$var wire 1 9 card3[3]~input_o $end
$var wire 1 : card3[0]~input_o $end
$var wire 1 ; card3[2]~input_o $end
$var wire 1 < cval3[0]~0_combout $end
$var wire 1 = card1[1]~input_o $end
$var wire 1 > card1[2]~input_o $end
$var wire 1 ? card1[0]~input_o $end
$var wire 1 @ card1[3]~input_o $end
$var wire 1 A cval1[0]~0_combout $end
$var wire 1 B card2[2]~input_o $end
$var wire 1 C card2[3]~input_o $end
$var wire 1 D card2[1]~input_o $end
$var wire 1 E card2[0]~input_o $end
$var wire 1 F cval2[0]~0_combout $end
$var wire 1 G Add1~1_sumout $end
$var wire 1 H cval3[1]~2_combout $end
$var wire 1 I cval2[1]~2_combout $end
$var wire 1 J cval1[1]~2_combout $end
$var wire 1 K Add1~2 $end
$var wire 1 L Add1~3 $end
$var wire 1 M Add1~13_sumout $end
$var wire 1 N cval3[3]~1_combout $end
$var wire 1 O cval1[3]~1_combout $end
$var wire 1 P cval2[3]~1_combout $end
$var wire 1 Q cval1[2]~3_combout $end
$var wire 1 R cval3[2]~3_combout $end
$var wire 1 S cval2[2]~3_combout $end
$var wire 1 T Add1~14 $end
$var wire 1 U Add1~15 $end
$var wire 1 V Add1~18 $end
$var wire 1 W Add1~19 $end
$var wire 1 X Add1~9_sumout $end
$var wire 1 Y Add1~10 $end
$var wire 1 Z Add1~11 $end
$var wire 1 [ Add1~5_sumout $end
$var wire 1 \ Add1~17_sumout $end
$var wire 1 ] calc|lsd[1]~0_combout $end
$var wire 1 ^ calc|lsd[2]~1_combout $end
$var wire 1 _ calc|lsd[3]~2_combout $end
$upscope $end
$upscope $end
$enddefinitions $end
#0
$dumpvars
00
0/
0.
0-
01
12
x3
14
15
16
07
08
09
0:
0;
0<
0=
0>
0?
0@
0A
0B
0C
0D
0E
0F
0G
0H
0I
0J
0K
0L
0M
0N
0O
0P
0Q
0R
0S
0T
0U
0V
0W
0X
0Y
0Z
0[
0\
0]
0^
0_
0,
0+
0*
0)
0(
0'
0&
0%
0$
0#
0"
0!
$end
#5
1$
1?
1A
1G
10
#10
0$
1#
0?
1=
0A
1J
0G
1M
1]
00
1/
#15
1$
1?
1A
1G
10
#20
0$
0#
1"
0?
0=
1>
0A
0J
1Q
0G
0M
1\
0]
1^
00
1.
0/
#25
1$
1?
1A
1G
10
#30
0$
1#
0?
1=
0A
1J
0G
1M
1]
00
1/
#35
1$
1?
1A
1G
10
#40
0$
0#
0"
1!
0?
0=
0>
1@
0A
0J
1O
0Q
0G
0M
1X
0\
0]
0^
1_
00
1-
0.
0/
#45
1$
1?
1A
1G
10
#50
0$
1#
0?
1=
0A
0O
0G
0X
0_
00
0-
#55
1$
1?
#60
0$
0#
1"
0?
0=
1>
#65
1$
1?
#70
1(
0$
0"
0!
1E
0?
0>
0@
1F
1G
10
#75
0(
1'
0E
1D
0F
1I
0G
1M
1]
00
1/
#80
1(
1E
1F
1G
10
#85
0(
0'
1&
0E
0D
1B
0F
0I
1S
0G
0M
1\
0]
1^
00
1.
0/
#90
1(
1E
1F
1G
10
#95
0(
1'
0E
1D
0F
1I
0G
1M
1]
00
1/
#100
1(
1E
1F
1G
10
#105
0(
0'
0&
1%
0E
0D
0B
1C
0F
0I
1P
0S
0G
0M
1X
0\
0]
0^
1_
00
1-
0.
0/
#110
1(
1E
1F
1G
10
#115
0(
1'
0E
1D
0F
0P
0G
0X
0_
00
0-
#120
1(
1E
#125
0(
0'
1&
0E
0D
1B
#130
1(
1E
#135
1,
0(
0&
0%
1:
0E
0B
0C
1<
1G
10
#140
0,
1+
0:
18
0<
1H
0G
1M
1]
00
1/
#145
1,
1:
1<
1G
10
#150
0,
0+
1*
0:
08
1;
0<
0H
1R
0G
0M
1\
0]
1^
00
1.
0/
#155
1,
1:
1<
1G
10
#160
0,
1+
0:
18
0<
1H
0G
1M
1]
00
1/
#165
1,
1:
1<
1G
10
#170
0,
0+
0*
1)
0:
08
0;
19
0<
0H
1N
0R
0G
0M
1X
0\
0]
0^
1_
00
1-
0.
0/
#175
1,
1:
1<
1G
10
#180
0,
1+
0:
18
0<
0N
0G
0X
0_
00
0-
#185
1,
1:
#190
0,
0+
1*
0:
08
1;
#195
1,
1:
#200
0,
0)
1&
0:
09
1B
1R
1S
1W
1X
1_
1-
#205
0*
1)
0;
19
1N
0R
1Y
0X
1\
0W
1[
0Y
1X
1^
0_
0[
0^
1_
0-
1.
1]
0_
1-
0.
0-
1/
