lab1/task5/statemachine.gate.vcd
$date
	Fri Dec  4 10:35:15 2020
$end
$version
	ModelSim Version 10.7c
$end
$timescale
	1ps
$end

$scope module statemachine_ag $end

$scope module dut $end
$var wire 1 ! slow_clock $end
$var wire 1 " resetb $end
$var wire 1 # dscore [3] $end
$var wire 1 $ dscore [2] $end
$var wire 1 % dscore [1] $end
$var wire 1 & dscore [0] $end
$var wire 1 ' pscore [3] $end
$var wire 1 ( pscore [2] $end
$var wire 1 ) pscore [1] $end
$var wire 1 * pscore [0] $end
$var wire 1 + pcard3 [3] $end
$var wire 1 , pcard3 [2] $end
$var wire 1 - pcard3 [1] $end
$var wire 1 . pcard3 [0] $end
$var wire 1 / load_pcard1 $end
$var wire 1 0 load_pcard2 $end
$var wire 1 1 load_pcard3 $end
$var wire 1 2 load_dcard1 $end
$var wire 1 3 load_dcard2 $end
$var wire 1 4 load_dcard3 $end
$var wire 1 5 player_win_light $end
$var wire 1 6 dealer_win_light $end
$var wire 1 7 gnd $end
$var wire 1 8 vcc $end
$var wire 1 9 unknown $end
$var tri1 1 : devclrn $end
$var tri1 1 ; devpor $end
$var tri1 1 < devoe $end
$var wire 1 = ~QUARTUS_CREATED_GND~I_combout $end
$var wire 1 > slow_clock~input_o $end
$var wire 1 ? slow_clock~inputCLKENA0_outclk $end
$var wire 1 @ resetb~input_o $end
$var wire 1 A pscore[1]~input_o $end
$var wire 1 B dscore[2]~input_o $end
$var wire 1 C pscore[3]~input_o $end
$var wire 1 D dscore[1]~input_o $end
$var wire 1 E dscore[3]~input_o $end
$var wire 1 F pscore[2]~input_o $end
$var wire 1 G next_state_rst[2]~0_combout $end
$var wire 1 H Mux10~0_combout $end
$var wire 1 I LessThan5~0_combout $end
$var wire 1 J dscore[0]~input_o $end
$var wire 1 K LessThan5~1_combout $end
$var wire 1 L pscore[0]~input_o $end
$var wire 1 M LessThan5~2_combout $end
$var wire 1 N next_state_rst[1]~7_combout $end
$var wire 1 O pcard3[1]~input_o $end
$var wire 1 P pcard3[3]~input_o $end
$var wire 1 Q Mux1~0_combout $end
$var wire 1 R pcard3[2]~input_o $end
$var wire 1 S pcard3[0]~input_o $end
$var wire 1 T Mux1~1_combout $end
$var wire 1 U Mux1~2_combout $end
$var wire 1 V LessThan0~0_combout $end
$var wire 1 W always0~0_combout $end
$var wire 1 X out~1_combout $end
$var wire 1 Y next_state_rst[0]~5_combout $end
$var wire 1 Z next_state_rst[0]~6_combout $end
$var wire 1 [ next_state_rst[3]~2_combout $end
$var wire 1 \ next_state_rst[0]~3_combout $end
$var wire 1 ] next_state_rst[1]~4_combout $end
$var wire 1 ^ next_state_rst[2]~1_combout $end
$var wire 1 _ Mux6~0_combout $end
$var wire 1 ` Decoder0~0_combout $end
$var wire 1 a out~0_combout $end
$var wire 1 b Mux7~0_combout $end
$var wire 1 c Mux8~0_combout $end
$var wire 1 d Mux9~0_combout $end
$var wire 1 e Mux10~1_combout $end
$var wire 1 f Mux11~0_combout $end
$var wire 1 g STATE|Q [3] $end
$var wire 1 h STATE|Q [2] $end
$var wire 1 i STATE|Q [1] $end
$var wire 1 j STATE|Q [0] $end
$upscope $end
$var reg 1 k slow_clock $end
$var reg 1 l resetb $end
$var reg 1 m test_start $end
$var reg 4 n dscore [3:0] $end
$var reg 4 o pscore [3:0] $end
$var reg 4 p pcard3 [3:0] $end
$var wire 1 / load_pcard1 $end
$var wire 1 0 load_pcard2 $end
$var wire 1 1 load_pcard3 $end
$var wire 1 2 load_dcard1 $end
$var wire 1 3 load_dcard2 $end
$var wire 1 4 load_dcard3 $end
$var wire 1 5 player_win_light $end
$var wire 1 6 dealer_win_light $end
$var integer 32 q subtests_passed $end
$var integer 32 r subtests_failed $end

$scope task subtest_fail $end
$upscope $end

$scope task subtest_pass $end
$upscope $end

$scope task test_reset $end
$upscope $end

$scope task test_msg $end
$upscope $end

$scope task test_report $end
$upscope $end

$scope task clock_if_silly $end
$upscope $end

$scope task toggle_clock $end
$upscope $end

$scope task setup $end
$upscope $end

$scope module dut $end
$var wire 1 ! slow_clock $end
$var wire 1 " resetb $end
$var wire 1 # dscore [3] $end
$var wire 1 $ dscore [2] $end
$var wire 1 % dscore [1] $end
$var wire 1 & dscore [0] $end
$var wire 1 ' pscore [3] $end
$var wire 1 ( pscore [2] $end
$var wire 1 ) pscore [1] $end
$var wire 1 * pscore [0] $end
$var wire 1 + pcard3 [3] $end
$var wire 1 , pcard3 [2] $end
$var wire 1 - pcard3 [1] $end
$var wire 1 . pcard3 [0] $end
$var wire 1 / load_pcard1 $end
$var wire 1 0 load_pcard2 $end
$var wire 1 1 load_pcard3 $end
$var wire 1 2 load_dcard1 $end
$var wire 1 3 load_dcard2 $end
$var wire 1 4 load_dcard3 $end
$var wire 1 5 player_win_light $end
$var wire 1 6 dealer_win_light $end
$var wire 1 7 gnd $end
$var wire 1 8 vcc $end
$var wire 1 9 unknown $end
$var tri1 1 : devclrn $end
$var tri1 1 ; devpor $end
$var tri1 1 < devoe $end
$var wire 1 = ~QUARTUS_CREATED_GND~I_combout $end
$var wire 1 > slow_clock~input_o $end
$var wire 1 ? slow_clock~inputCLKENA0_outclk $end
$var wire 1 @ resetb~input_o $end
$var wire 1 A pscore[1]~input_o $end
$var wire 1 B dscore[2]~input_o $end
$var wire 1 C pscore[3]~input_o $end
$var wire 1 D dscore[1]~input_o $end
$var wire 1 E dscore[3]~input_o $end
$var wire 1 F pscore[2]~input_o $end
$var wire 1 G next_state_rst[2]~0_combout $end
$var wire 1 H Mux10~0_combout $end
$var wire 1 I LessThan5~0_combout $end
$var wire 1 J dscore[0]~input_o $end
$var wire 1 K LessThan5~1_combout $end
$var wire 1 L pscore[0]~input_o $end
$var wire 1 M LessThan5~2_combout $end
$var wire 1 N next_state_rst[1]~7_combout $end
$var wire 1 O pcard3[1]~input_o $end
$var wire 1 P pcard3[3]~input_o $end
$var wire 1 Q Mux1~0_combout $end
$var wire 1 R pcard3[2]~input_o $end
$var wire 1 S pcard3[0]~input_o $end
$var wire 1 T Mux1~1_combout $end
$var wire 1 U Mux1~2_combout $end
$var wire 1 V LessThan0~0_combout $end
$var wire 1 W always0~0_combout $end
$var wire 1 X out~1_combout $end
$var wire 1 Y next_state_rst[0]~5_combout $end
$var wire 1 Z next_state_rst[0]~6_combout $end
$var wire 1 [ next_state_rst[3]~2_combout $end
$var wire 1 \ next_state_rst[0]~3_combout $end
$var wire 1 ] next_state_rst[1]~4_combout $end
$var wire 1 ^ next_state_rst[2]~1_combout $end
$var wire 1 _ Mux6~0_combout $end
$var wire 1 ` Decoder0~0_combout $end
$var wire 1 a out~0_combout $end
$var wire 1 b Mux7~0_combout $end
$var wire 1 c Mux8~0_combout $end
$var wire 1 d Mux9~0_combout $end
$var wire 1 e Mux10~1_combout $end
$var wire 1 f Mux11~0_combout $end
$var wire 1 g STATE|Q [3] $end
$var wire 1 h STATE|Q [2] $end
$var wire 1 i STATE|Q [1] $end
$var wire 1 j STATE|Q [0] $end

$scope module load_pcard1~output $end
$upscope $end

$scope module load_pcard2~output $end
$upscope $end

$scope module load_pcard3~output $end
$upscope $end

$scope module load_dcard1~output $end
$upscope $end

$scope module load_dcard2~output $end
$upscope $end

$scope module load_dcard3~output $end
$upscope $end

$scope module player_win_light~output $end
$upscope $end

$scope module dealer_win_light~output $end
$upscope $end

$scope module slow_clock~input $end
$upscope $end

$scope module slow_clock~inputCLKENA0 $end
$upscope $end

$scope module resetb~input $end
$upscope $end

$scope module pscore[1]~input $end
$upscope $end

$scope module dscore[2]~input $end
$upscope $end

$scope module pscore[3]~input $end
$upscope $end

$scope module dscore[1]~input $end
$upscope $end

$scope module dscore[3]~input $end
$upscope $end

$scope module pscore[2]~input $end
$upscope $end

$scope module next_state_rst[2]~0 $end
$upscope $end

$scope module Mux10~0 $end
$upscope $end

$scope module LessThan5~0 $end
$upscope $end

$scope module dscore[0]~input $end
$upscope $end

$scope module LessThan5~1 $end
$upscope $end

$scope module pscore[0]~input $end
$upscope $end

$scope module LessThan5~2 $end
$upscope $end

$scope module next_state_rst[1]~7 $end
$upscope $end

$scope module pcard3[1]~input $end
$upscope $end

$scope module pcard3[3]~input $end
$upscope $end

$scope module Mux1~0 $end
$upscope $end

$scope module pcard3[2]~input $end
$upscope $end

$scope module pcard3[0]~input $end
$upscope $end

$scope module Mux1~1 $end
$upscope $end

$scope module Mux1~2 $end
$upscope $end

$scope module LessThan0~0 $end
$upscope $end

$scope module always0~0 $end
$upscope $end

$scope module out~1 $end
$upscope $end

$scope module next_state_rst[0]~5 $end
$upscope $end

$scope module next_state_rst[0]~6 $end
$upscope $end

$scope module next_state_rst[3]~2 $end
$upscope $end

$scope module STATE|Q[3] $end
$upscope $end

$scope module next_state_rst[0]~3 $end
$upscope $end

$scope module STATE|Q[0] $end
$upscope $end

$scope module next_state_rst[1]~4 $end
$upscope $end

$scope module STATE|Q[1] $end
$upscope $end

$scope module next_state_rst[2]~1 $end
$upscope $end

$scope module STATE|Q[2] $end
$upscope $end

$scope module Mux6~0 $end
$upscope $end

$scope module Decoder0~0 $end
$upscope $end

$scope module out~0 $end
$upscope $end

$scope module Mux7~0 $end
$upscope $end

$scope module Mux8~0 $end
$upscope $end

$scope module Mux9~0 $end
$upscope $end

$scope module Mux10~1 $end
$upscope $end

$scope module Mux11~0 $end
$upscope $end

$scope module ~QUARTUS_CREATED_GND~I $end
$upscope $end
$upscope $end
$upscope $end
$enddefinitions $end
#0
$dumpvars
1k
0l
0m
b0 n
b0 o
b0 p
bx q
bx r
1/
00
01
02
03
04
05
06
07
18
x9
1:
1;
1<
0=
1>
1?
0@
0A
0B
0C
0D
0E
0F
0G
0H
1I
0J
0K
0L
1M
1N
0O
0P
0Q
0R
0S
1T
0U
1V
0W
0X
0Y
0Z
0[
0\
0]
0^
1_
0`
1a
0b
0c
1d
0e
0f
0j
0i
0h
0g
0.
0-
0,
0+
0*
0)
0(
0'
0&
0%
0$
0#
0"
1!
$end
#13002
0k
0!
0>
0?
#25836
1k
1!
1>
1?
#70952
0k
0!
0>
0?
#83786
1k
1!
1>
1?
#128902
0k
0!
0>
0?
#141736
1k
1!
1>
1?
#186852
0k
0!
0>
0?
#199686
1k
1!
1>
1?
#244802
0k
0!
0>
0?
#257636
1k
1!
1>
1?
#302752
0k
0!
0>
0?
#315586
1k
1!
1>
1?
#360702
0k
0!
0>
0?
#373536
1k
1!
1>
1?
#418652
0k
0!
0>
0?
#431486
1k
1!
1>
1?
#476602
0k
0!
0>
0?
#489436
1k
1!
1>
1?
#534552
0k
0!
0>
0?
#547386
1k
1!
1>
1?
#592502
0k
0!
0>
0?
#605336
1k
1!
1>
1?
#650452
0k
0!
0>
0?
#663286
1k
1!
1>
1?
#708402
0k
0!
0>
0?
#721236
1k
1!
1>
1?
#766352
0k
0!
0>
0?
#779186
1k
1!
1>
1?
#824302
0k
0!
0>
0?
#837136
1k
1!
1>
1?
#882252
0k
0!
0>
0?
#895086
1k
1!
1>
1?
#928200
1l
1"
1@
1\
b0 q
b0 r
#960623
b1 q
b10 q
b11 q
b100 q
b101 q
b110 q
b111 q
b1000 q
0l
0"
0@
0\
#973625
0k
0!
0>
0?
#986459
1k
1!
1>
1?
#1031575
0k
0!
0>
0?
#1044409
1k
1!
1>
1?
#1089525
0k
0!
0>
0?
#1102359
1k
1!
1>
1?
#1147475
0k
0!
0>
0?
#1160309
1k
1!
1>
1?
#1205425
0k
0!
0>
0?
#1218259
1k
1!
1>
1?
#1263375
0k
0!
0>
0?
#1276209
1k
1!
1>
1?
#1321325
0k
0!
0>
0?
#1334159
1k
1!
1>
1?
#1379275
0k
0!
0>
0?
#1392109
1k
1!
1>
1?
#1437225
0k
0!
0>
0?
#1450059
1k
1!
1>
1?
#1495175
0k
0!
0>
0?
#1508009
1k
1!
1>
1?
#1553125
0k
0!
0>
0?
#1565959
1k
1!
1>
1?
#1611075
0k
0!
0>
0?
#1623909
1k
1!
1>
1?
#1669025
0k
0!
0>
0?
#1681859
1k
1!
1>
1?
#1726975
0k
0!
0>
0?
#1739809
1k
1!
1>
1?
#1784925
0k
0!
0>
0?
#1797759
1k
1!
1>
1?
#1842875
0k
0!
0>
0?
#1855709
1k
1!
1>
1?
#1888823
1l
1"
1@
1\
b0 q
#1921246
b1 q
0l
0"
0@
0\
#1934248
0k
0!
0>
0?
#1947082
1k
1!
1>
1?
#1992198
0k
0!
0>
0?
#2005032
1k
1!
1>
1?
#2050148
0k
0!
0>
0?
#2062982
1k
1!
1>
1?
#2108098
0k
0!
0>
0?
#2120932
1k
1!
1>
1?
#2166048
0k
0!
0>
0?
#2178882
1k
1!
1>
1?
#2223998
0k
0!
0>
0?
#2236832
1k
1!
1>
1?
#2281948
0k
0!
0>
0?
#2294782
1k
1!
1>
1?
#2339898
0k
0!
0>
0?
#2352732
1k
1!
1>
1?
#2397848
0k
0!
0>
0?
#2410682
1k
1!
1>
1?
#2455798
0k
0!
0>
0?
#2468632
1k
1!
1>
1?
#2513748
0k
0!
0>
0?
#2526582
1k
1!
1>
1?
#2571698
0k
0!
0>
0?
#2584532
1k
1!
1>
1?
#2629648
0k
0!
0>
0?
#2642482
1k
1!
1>
1?
#2687598
0k
0!
0>
0?
#2700432
1k
1!
1>
1?
#2745548
0k
0!
0>
0?
#2758382
1k
1!
1>
1?
#2803498
0k
0!
0>
0?
#2816332
1k
1!
1>
1?
#2849446
1l
1"
1@
1\
b0 q
#2862448
0k
0!
0>
0?
#2875282
1k
1!
1>
1?
1j
0\
1^
0_
1b
12
0/
#2910930
b1 q
b10 q
b11 q
b100 q
b101 q
b110 q
b111 q
b1000 q
0l
0"
0@
0^
#2923932
0k
0!
0>
0?
#2936766
1k
1!
1>
1?
0j
1_
0b
02
1/
#2981882
0k
0!
0>
0?
#2994716
1k
1!
1>
1?
#3039832
0k
0!
0>
0?
#3052666
1k
1!
1>
1?
#3097782
0k
0!
0>
0?
#3110616
1k
1!
1>
1?
#3155732
0k
0!
0>
0?
#3168566
1k
1!
1>
1?
#3213682
0k
0!
0>
0?
#3226516
1k
1!
1>
1?
#3271632
0k
0!
0>
0?
#3284466
1k
1!
1>
1?
#3329582
0k
0!
0>
0?
#3342416
1k
1!
1>
1?
#3387532
0k
0!
0>
0?
#3400366
1k
1!
1>
1?
#3445482
0k
0!
0>
0?
#3458316
1k
1!
1>
1?
#3503432
0k
0!
0>
0?
#3516266
1k
1!
1>
1?
#3561382
0k
0!
0>
0?
#3574216
1k
1!
1>
1?
#3619332
0k
0!
0>
0?
#3632166
1k
1!
1>
1?
#3677282
0k
0!
0>
0?
#3690116
1k
1!
1>
1?
#3735232
0k
0!
0>
0?
#3748066
1k
1!
1>
1?
#3793182
0k
0!
0>
0?
#3806016
1k
1!
1>
1?
#3839130
1l
1"
1@
1\
b0 q
#3852132
0k
0!
0>
0?
#3864966
1k
1!
1>
1?
1j
0\
1^
0_
1b
12
0/
#3900614
b1 q
0l
0"
0@
0^
#3913616
0k
0!
0>
0?
#3926450
1k
1!
1>
1?
0j
1_
0b
02
1/
#3971566
0k
0!
0>
0?
#3984400
1k
1!
1>
1?
#4029516
0k
0!
0>
0?
#4042350
1k
1!
1>
1?
#4087466
0k
0!
0>
0?
#4100300
1k
1!
1>
1?
#4145416
0k
0!
0>
0?
#4158250
1k
1!
1>
1?
#4203366
0k
0!
0>
0?
#4216200
1k
1!
1>
1?
#4261316
0k
0!
0>
0?
#4274150
1k
1!
1>
1?
#4319266
0k
0!
0>
0?
#4332100
1k
1!
1>
1?
#4377216
0k
0!
0>
0?
#4390050
1k
1!
1>
1?
#4435166
0k
0!
0>
0?
#4448000
1k
1!
1>
1?
#4493116
0k
0!
0>
0?
#4505950
1k
1!
1>
1?
#4551066
0k
0!
0>
0?
#4563900
1k
1!
1>
1?
#4609016
0k
0!
0>
0?
#4621850
1k
1!
1>
1?
#4666966
0k
0!
0>
0?
#4679800
1k
1!
1>
1?
#4724916
0k
0!
0>
0?
#4737750
1k
1!
1>
1?
#4782866
0k
0!
0>
0?
#4795700
1k
1!
1>
1?
#4828814
1l
1"
1@
1\
b0 q
#4841816
0k
0!
0>
0?
#4854650
1k
1!
1>
1?
1j
0\
1^
0_
1b
12
0/
#4899766
0k
0!
0>
0?
#4912600
1k
1!
1>
1?
1h
0j
1Z
1]
0^
1`
0b
02
10
#5828181
b1 q
b10 q
b11 q
b100 q
b101 q
b110 q
b111 q
b1000 q
0l
0"
0@
0]
#5841183
0k
0!
0>
0?
#5854017
1k
1!
1>
1?
0h
0Z
1_
0`
00
1/
#5899133
0k
0!
0>
0?
#5911967
1k
1!
1>
1?
#5957083
0k
0!
0>
0?
#5969917
1k
1!
1>
1?
#6015033
0k
0!
0>
0?
#6027867
1k
1!
1>
1?
#6072983
0k
0!
0>
0?
#6085817
1k
1!
1>
1?
#6130933
0k
0!
0>
0?
#6143767
1k
1!
1>
1?
#6188883
0k
0!
0>
0?
#6201717
1k
1!
1>
1?
#6246833
0k
0!
0>
0?
#6259667
1k
1!
1>
1?
#6304783
0k
0!
0>
0?
#6317617
1k
1!
1>
1?
#6362733
0k
0!
0>
0?
#6375567
1k
1!
1>
1?
#6420683
0k
0!
0>
0?
#6433517
1k
1!
1>
1?
#6478633
0k
0!
0>
0?
#6491467
1k
1!
1>
1?
#6536583
0k
0!
0>
0?
#6549417
1k
1!
1>
1?
#6594533
0k
0!
0>
0?
#6607367
1k
1!
1>
1?
#6652483
0k
0!
0>
0?
#6665317
1k
1!
1>
1?
#6710433
0k
0!
0>
0?
#6723267
1k
1!
1>
1?
#6756381
1l
1"
1@
1\
b0 q
#6769383
0k
0!
0>
0?
#6782217
1k
1!
1>
1?
1j
0\
1^
0_
1b
12
0/
#6827333
0k
0!
0>
0?
#6840167
1k
1!
1>
1?
1h
0j
1Z
1]
0^
1`
0b
02
10
#7755748
b1 q
0l
0"
0@
0]
#7768750
0k
0!
0>
0?
#7781584
1k
1!
1>
1?
0h
0Z
1_
0`
00
1/
#7826700
0k
0!
0>
0?
#7839534
1k
1!
1>
1?
#7884650
0k
0!
0>
0?
#7897484
1k
1!
1>
1?
#7942600
0k
0!
0>
0?
#7955434
1k
1!
1>
1?
#8000550
0k
0!
0>
0?
#8013384
1k
1!
1>
1?
#8058500
0k
0!
0>
0?
#8071334
1k
1!
1>
1?
#8116450
0k
0!
0>
0?
#8129284
1k
1!
1>
1?
#8174400
0k
0!
0>
0?
#8187234
1k
1!
1>
1?
#8232350
0k
0!
0>
0?
#8245184
1k
1!
1>
1?
#8290300
0k
0!
0>
0?
#8303134
1k
1!
1>
1?
#8348250
0k
0!
0>
0?
#8361084
1k
1!
1>
1?
#8406200
0k
0!
0>
0?
#8419034
1k
1!
1>
1?
#8464150
0k
0!
0>
0?
#8476984
1k
1!
1>
1?
#8522100
0k
0!
0>
0?
#8534934
1k
1!
1>
1?
#8580050
0k
0!
0>
0?
#8592884
1k
1!
1>
1?
#8638000
0k
0!
0>
0?
#8650834
1k
1!
1>
1?
#8683948
1l
1"
1@
1\
b0 q
#8696950
0k
0!
0>
0?
#8709784
1k
1!
1>
1?
1j
0\
1^
0_
1b
12
0/
#8754900
0k
0!
0>
0?
#8767734
1k
1!
1>
1?
1h
0j
1Z
1]
0^
1`
0b
02
10
#8812850
0k
0!
0>
0?
#8825684
1k
1!
1>
1?
1i
0h
0Z
1\
0]
1^
0`
1c
13
00
#9246265
b1 q
b10 q
b11 q
b100 q
b101 q
b110 q
b111 q
b1000 q
0l
0"
0@
0\
0^
#9259267
0k
0!
0>
0?
#9272101
1k
1!
1>
1?
0i
1_
0c
03
1/
#9317217
0k
0!
0>
0?
#9330051
1k
1!
1>
1?
#9375167
0k
0!
0>
0?
#9388001
1k
1!
1>
1?
#9433117
0k
0!
0>
0?
#9445951
1k
1!
1>
1?
#9491067
0k
0!
0>
0?
#9503901
1k
1!
1>
1?
#9549017
0k
0!
0>
0?
#9561851
1k
1!
1>
1?
#9606967
0k
0!
0>
0?
#9619801
1k
1!
1>
1?
#9664917
0k
0!
0>
0?
#9677751
1k
1!
1>
1?
#9722867
0k
0!
0>
0?
#9735701
1k
1!
1>
1?
#9780817
0k
0!
0>
0?
#9793651
1k
1!
1>
1?
#9838767
0k
0!
0>
0?
#9851601
1k
1!
1>
1?
#9896717
0k
0!
0>
0?
#9909551
1k
1!
1>
1?
#9954667
0k
0!
0>
0?
#9967501
1k
1!
1>
1?
#10012617
0k
0!
0>
0?
#10025451
1k
1!
1>
1?
#10070567
0k
0!
0>
0?
#10083401
1k
1!
1>
1?
#10128517
0k
0!
0>
0?
#10141351
1k
1!
1>
1?
#10174465
1l
1"
1@
1\
b0 q
#10187467
0k
0!
0>
0?
#10200301
1k
1!
1>
1?
1j
0\
1^
0_
1b
12
0/
#10245417
0k
0!
0>
0?
#10258251
1k
1!
1>
1?
1h
0j
1Z
1]
0^
1`
0b
02
10
#10303367
0k
0!
0>
0?
#10316201
1k
1!
1>
1?
1i
0h
0Z
1\
0]
1^
0`
1c
13
00
#10736782
b1 q
0l
0"
0@
0\
0^
#10749784
0k
0!
0>
0?
#10762618
1k
1!
1>
1?
0i
1_
0c
03
1/
#10807734
0k
0!
0>
0?
#10820568
1k
1!
1>
1?
#10865684
0k
0!
0>
0?
#10878518
1k
1!
1>
1?
#10923634
0k
0!
0>
0?
#10936468
1k
1!
1>
1?
#10981584
0k
0!
0>
0?
#10994418
1k
1!
1>
1?
#11039534
0k
0!
0>
0?
#11052368
1k
1!
1>
1?
#11097484
0k
0!
0>
0?
#11110318
1k
1!
1>
1?
#11155434
0k
0!
0>
0?
#11168268
1k
1!
1>
1?
#11213384
0k
0!
0>
0?
#11226218
1k
1!
1>
1?
#11271334
0k
0!
0>
0?
#11284168
1k
1!
1>
1?
#11329284
0k
0!
0>
0?
#11342118
1k
1!
1>
1?
#11387234
0k
0!
0>
0?
#11400068
1k
1!
1>
1?
#11445184
0k
0!
0>
0?
#11458018
1k
1!
1>
1?
#11503134
0k
0!
0>
0?
#11515968
1k
1!
1>
1?
#11561084
0k
0!
0>
0?
#11573918
1k
1!
1>
1?
#11619034
0k
0!
0>
0?
#11631868
1k
1!
1>
1?
#11664982
1l
1"
1@
1\
b0 q
#11677984
0k
0!
0>
0?
#11690818
1k
1!
1>
1?
1j
0\
1^
0_
1b
12
0/
#11735934
0k
0!
0>
0?
#11748768
1k
1!
1>
1?
1h
0j
1Z
1]
0^
1`
0b
02
10
#11793884
0k
0!
0>
0?
#11806718
1k
1!
1>
1?
1i
0h
0Z
1\
0]
1^
0`
1c
13
00
#11851834
0k
0!
0>
0?
#11864668
1k
1!
1>
1?
0i
1h
1j
1Z
0\
1]
0^
0a
0c
1\
11
03
#11896782
b1001 n
b1000 o
1'
1&
1#
1C
1J
1E
1H
0V
1W
0N
1X
1[
0]
1f
1a
01
16
#11980973
b1 q
b10 q
b11 q
b100 q
b101 q
b110 q
b111 q
b1000 q
0l
b0 n
b0 o
0"
0'
0&
0#
0@
0C
0J
0E
0[
0\
0H
1V
0W
1N
0X
0f
0a
11
06
#11993975
0k
0!
0>
0?
#12006809
1k
1!
1>
1?
0h
0j
0Z
1_
1a
01
1/
#12051925
0k
0!
0>
0?
#12064759
1k
1!
1>
1?
#12109875
0k
0!
0>
0?
#12122709
1k
1!
1>
1?
#12167825
0k
0!
0>
0?
#12180659
1k
1!
1>
1?
#12225775
0k
0!
0>
0?
#12238609
1k
1!
1>
1?
#12283725
0k
0!
0>
0?
#12296559
1k
1!
1>
1?
#12341675
0k
0!
0>
0?
#12354509
1k
1!
1>
1?
#12399625
0k
0!
0>
0?
#12412459
1k
1!
1>
1?
#12457575
0k
0!
0>
0?
#12470409
1k
1!
1>
1?
#12515525
0k
0!
0>
0?
#12528359
1k
1!
1>
1?
#12573475
0k
0!
0>
0?
#12586309
1k
1!
1>
1?
#12631425
0k
0!
0>
0?
#12644259
1k
1!
1>
1?
#12689375
0k
0!
0>
0?
#12702209
1k
1!
1>
1?
#12747325
0k
0!
0>
0?
#12760159
1k
1!
1>
1?
#12805275
0k
0!
0>
0?
#12818109
1k
1!
1>
1?
#12863225
0k
0!
0>
0?
#12876059
1k
1!
1>
1?
#12909173
1l
1"
1@
1\
b0 q
#12922175
0k
0!
0>
0?
#12935009
1k
1!
1>
1?
1j
0\
1^
0_
1b
12
0/
#12980125
0k
0!
0>
0?
#12992959
1k
1!
1>
1?
1h
0j
1Z
1]
0^
1`
0b
02
10
#13038075
0k
0!
0>
0?
#13050909
1k
1!
1>
1?
1i
0h
0Z
1\
0]
1^
0`
1c
13
00
#13096025
0k
0!
0>
0?
#13108859
1k
1!
1>
1?
0i
1h
1j
1Z
0\
1]
0^
0a
0c
1\
11
03
#13140973
b1001 n
b1000 o
1'
1&
1#
1C
1J
1E
1H
0V
1W
0N
1X
1[
0]
1f
1a
01
16
#13225164
b1 q
0l
b0 n
b0 o
0"
0'
0&
0#
0@
0C
0J
0E
0[
0\
0H
1V
0W
1N
0X
0f
0a
11
06
#13238166
0k
0!
0>
0?
#13251000
1k
1!
1>
1?
0h
0j
0Z
1_
1a
01
1/
#13296116
0k
0!
0>
0?
#13308950
1k
1!
1>
1?
#13354066
0k
0!
0>
0?
#13366900
1k
1!
1>
1?
#13412016
0k
0!
0>
0?
#13424850
1k
1!
1>
1?
#13469966
0k
0!
0>
0?
#13482800
1k
1!
1>
1?
#13527916
0k
0!
0>
0?
#13540750
1k
1!
1>
1?
#13585866
0k
0!
0>
0?
#13598700
1k
1!
1>
1?
#13643816
0k
0!
0>
0?
#13656650
1k
1!
1>
1?
#13701766
0k
0!
0>
0?
#13714600
1k
1!
1>
1?
#13759716
0k
0!
0>
0?
#13772550
1k
1!
1>
1?
#13817666
0k
0!
0>
0?
#13830500
1k
1!
1>
1?
#13875616
0k
0!
0>
0?
#13888450
1k
1!
1>
1?
#13933566
0k
0!
0>
0?
#13946400
1k
1!
1>
1?
#13991516
0k
0!
0>
0?
#14004350
1k
1!
1>
1?
#14049466
0k
0!
0>
0?
#14062300
1k
1!
1>
1?
#14107416
0k
0!
0>
0?
#14120250
1k
1!
1>
1?
#14153364
1l
1"
1@
1\
b0 q
#14166366
0k
0!
0>
0?
#14179200
1k
1!
1>
1?
1j
0\
1^
0_
1b
12
0/
#14224316
0k
0!
0>
0?
#14237150
1k
1!
1>
1?
1h
0j
1Z
1]
0^
1`
0b
02
10
#14282266
0k
0!
0>
0?
#14295100
1k
1!
1>
1?
1i
0h
0Z
1\
0]
1^
0`
1c
13
00
#14340216
0k
0!
0>
0?
#14353050
1k
1!
1>
1?
0i
1h
1j
1Z
0\
1]
0^
0a
0c
1\
11
03
#14385164
b1000 n
b1001 o
1*
1'
1#
1L
1C
1E
0M
0N
1H
0V
1W
0]
1[
1e
1Y
1a
0Z
01
15
0\
#14469355
b1 q
b10 q
b11 q
b100 q
b101 q
b110 q
b111 q
b1000 q
0l
b0 n
b0 o
0"
0*
0'
0#
0@
0L
0C
0E
0[
1M
0H
1V
0W
1N
0e
0Y
0a
1Z
11
05
#14482357
0k
0!
0>
0?
#14495191
1k
1!
1>
1?
0h
0j
0Z
1_
1a
01
1/
#14540307
0k
0!
0>
0?
#14553141
1k
1!
1>
1?
#14598257
0k
0!
0>
0?
#14611091
1k
1!
1>
1?
#14656207
0k
0!
0>
0?
#14669041
1k
1!
1>
1?
#14714157
0k
0!
0>
0?
#14726991
1k
1!
1>
1?
#14772107
0k
0!
0>
0?
#14784941
1k
1!
1>
1?
#14830057
0k
0!
0>
0?
#14842891
1k
1!
1>
1?
#14888007
0k
0!
0>
0?
#14900841
1k
1!
1>
1?
#14945957
0k
0!
0>
0?
#14958791
1k
1!
1>
1?
#15003907
0k
0!
0>
0?
#15016741
1k
1!
1>
1?
#15061857
0k
0!
0>
0?
#15074691
1k
1!
1>
1?
#15119807
0k
0!
0>
0?
#15132641
1k
1!
1>
1?
#15177757
0k
0!
0>
0?
#15190591
1k
1!
1>
1?
#15235707
0k
0!
0>
0?
#15248541
1k
1!
1>
1?
#15293657
0k
0!
0>
0?
#15306491
1k
1!
1>
1?
#15351607
0k
0!
0>
0?
#15364441
1k
1!
1>
1?
#15397555
1l
1"
1@
1\
b0 q
#15410557
0k
0!
0>
0?
#15423391
1k
1!
1>
1?
1j
0\
1^
0_
1b
12
0/
#15468507
0k
0!
0>
0?
#15481341
1k
1!
1>
1?
1h
0j
1Z
1]
0^
1`
0b
02
10
#15526457
0k
0!
0>
0?
#15539291
1k
1!
1>
1?
1i
0h
0Z
1\
0]
1^
0`
1c
13
00
#15584407
0k
0!
0>
0?
#15597241
1k
1!
1>
1?
0i
1h
1j
1Z
0\
1]
0^
0a
0c
1\
11
03
#15629355
b1000 n
b1000 o
1'
1#
1C
1E
1H
0V
1W
1[
1e
1f
1Y
1a
0Z
01
16
15
0\
#15713546
b1 q
b10 q
b11 q
b100 q
b101 q
b110 q
b111 q
b1000 q
0l
b0 n
b0 o
0"
0'
0#
0@
0C
0E
0[
0]
0H
1V
0W
0e
0f
0Y
0a
1Z
11
06
05
#15726548
0k
0!
0>
0?
#15739382
1k
1!
1>
1?
0h
0j
0Z
1_
1a
01
1/
#15784498
0k
0!
0>
0?
#15797332
1k
1!
1>
1?
#15842448
0k
0!
0>
0?
#15855282
1k
1!
1>
1?
#15900398
0k
0!
0>
0?
#15913232
1k
1!
1>
1?
#15958348
0k
0!
0>
0?
#15971182
1k
1!
1>
1?
#16016298
0k
0!
0>
0?
#16029132
1k
1!
1>
1?
#16074248
0k
0!
0>
0?
#16087082
1k
1!
1>
1?
#16132198
0k
0!
0>
0?
#16145032
1k
1!
1>
1?
#16190148
0k
0!
0>
0?
#16202982
1k
1!
1>
1?
