lab3/task3/prga.rtl.vcd
$date
	Thu Nov 19 07:10:12 2020
$end
$version
	ModelSim Version 10.7c
$end
$timescale
	1ps
$end

$scope module prga_ag $end

$scope module dut $end
$var wire 1 ! clk $end
$var wire 1 " rst_n $end
$var wire 1 # en $end
$var reg 1 $ rdy $end
$var wire 1 % key [23] $end
$var wire 1 & key [22] $end
$var wire 1 ' key [21] $end
$var wire 1 ( key [20] $end
$var wire 1 ) key [19] $end
$var wire 1 * key [18] $end
$var wire 1 + key [17] $end
$var wire 1 , key [16] $end
$var wire 1 - key [15] $end
$var wire 1 . key [14] $end
$var wire 1 / key [13] $end
$var wire 1 0 key [12] $end
$var wire 1 1 key [11] $end
$var wire 1 2 key [10] $end
$var wire 1 3 key [9] $end
$var wire 1 4 key [8] $end
$var wire 1 5 key [7] $end
$var wire 1 6 key [6] $end
$var wire 1 7 key [5] $end
$var wire 1 8 key [4] $end
$var wire 1 9 key [3] $end
$var wire 1 : key [2] $end
$var wire 1 ; key [1] $end
$var wire 1 < key [0] $end
$var reg 8 = s_addr [7:0] $end
$var wire 1 > s_rddata [7] $end
$var wire 1 ? s_rddata [6] $end
$var wire 1 @ s_rddata [5] $end
$var wire 1 A s_rddata [4] $end
$var wire 1 B s_rddata [3] $end
$var wire 1 C s_rddata [2] $end
$var wire 1 D s_rddata [1] $end
$var wire 1 E s_rddata [0] $end
$var reg 8 F s_wrdata [7:0] $end
$var reg 1 G s_wren $end
$var reg 8 H ct_addr [7:0] $end
$var wire 1 I ct_rddata [7] $end
$var wire 1 J ct_rddata [6] $end
$var wire 1 K ct_rddata [5] $end
$var wire 1 L ct_rddata [4] $end
$var wire 1 M ct_rddata [3] $end
$var wire 1 N ct_rddata [2] $end
$var wire 1 O ct_rddata [1] $end
$var wire 1 P ct_rddata [0] $end
$var reg 8 Q pt_addr [7:0] $end
$var wire 1 R pt_rddata [7] $end
$var wire 1 S pt_rddata [6] $end
$var wire 1 T pt_rddata [5] $end
$var wire 1 U pt_rddata [4] $end
$var wire 1 V pt_rddata [3] $end
$var wire 1 W pt_rddata [2] $end
$var wire 1 X pt_rddata [1] $end
$var wire 1 Y pt_rddata [0] $end
$var reg 8 Z pt_wrdata [7:0] $end
$var reg 1 [ pt_wren $end
$var reg 1 \ rdy_out $end
$var reg 4 ] state [3:0] $end
$var reg 8 ^ ct_addr_out [7:0] $end
$var reg 8 _ i [7:0] $end
$var reg 8 ` j [7:0] $end
$var reg 8 a k [7:0] $end
$var reg 8 b I [7:0] $end
$var reg 8 c pad_i [7:0] $end
$var reg 8 d message_length [7:0] $end
$var reg 17 e s_out [16:0] $end
$var reg 17 f pt_out [16:0] $end
$var reg 24 g #implicit-var###Asgnpat:0 [23:0] $end
$upscope $end
$upscope $end
$enddefinitions $end
#0
$dumpvars
x$
bx =
bx F
xG
bx H
bx Q
bx Z
x[
x\
bx ]
bx ^
bx _
bx `
bx a
bx b
bx c
bx d
bx e
bx f
bx g
xY
xX
xW
xV
xU
xT
xS
xR
xP
xO
xN
xM
xL
xK
xJ
xI
xE
xD
xC
xB
xA
x@
x?
x>
0#
0"
0!
x<
x;
x:
x9
x8
x7
x6
x5
x4
x3
x2
x1
x0
x/
x.
x-
x,
x+
x*
x)
x(
x'
x&
x%
$end
#5
1!
0\
b0 _
b0 `
b0 a
b0 ]
b0 ^
b0 e
b0 f
0[
b0 Z
b0 Q
0G
b0 F
b0 =
b0 H
0$
#15
0!
#25
1!
1P
1O
1N
1M
0L
1K
1J
1I
0E
0D
1C
1B
0A
1@
0?
1>
#35
0!
#45
1!
#55
0!
#65
1!
#75
0!
#85
1!
#95
0!
#105
1!
#115
0!
#125
1!
#135
0!
#145
1!
#155
0!
#165
1!
#175
0!
#185
1!
#195
0!
#205
1!
#215
0!
#225
1!
#235
0!
#245
1!
#255
0!
#265
1!
#275
0!
#285
1!
#295
0!
#305
1!
#315
0!
#325
1!
#335
0!
#345
1!
#355
0!
#365
1!
#375
0!
#385
1!
#395
0!
#400
1"
#405
1!
1\
1$
#415
0!
#425
1!
#435
0!
#445
1!
#455
0!
#465
1!
#475
0!
#485
1!
#495
0!
#505
1!
#515
0!
#525
1!
#535
0!
#545
1!
#555
0!
#565
1!
#575
0!
#585
1!
#595
0!
#605
1!
#615
0!
#625
1!
#635
0!
#645
1!
#655
0!
#665
1!
#675
0!
#685
1!
#695
0!
#705
1!
#715
0!
#725
1!
#735
0!
#745
1!
#755
0!
#765
1!
#775
0!
#785
1!
#795
0!
#800
1#
#805
1!
0\
b1 ]
b11101111 d
0$
#815
0!
#820
0#
#825
1!
b1 _
b10 ]
b1 ^
b1xxxxxxxx0 e
bx F
b1 =
b1 H
#835
0!
#845
1!
b11 ]
0P
0O
0M
0K
0I
0C
0B
0>
#855
0!
#865
1!
b100000 b
b100000 `
b100 ]
b0 ^
b100000xxxxxxxx0 e
b100000 =
b0 H
#875
0!
#885
1!
b101 ]
1P
1O
1M
1K
1I
1D
0@
#895
0!
#905
1!
b100010 c
b110 ]
b1000000101 e
1G
b10 F
b1 =
#915
0!
#925
1!
b111 ]
b100000001000001 e
b100000 F
b100000 =
0D
1@
#935
0!
#945
1!
b1000 ]
b100010xxxxxxxx0 e
0G
bx F
b100010 =
1D
0@
#955
0!
#965
1!
b1001 ]
1B
1A
1?
1>
#975
0!
#985
1!
b1 a
b1 ]
b0 e
b0 F
b0 =
#995
0!
#1005
1!
b10 _
b10 ]
b10 ^
b10xxxxxxxx0 e
bx F
b10 =
b10 H
0D
1C
0A
1@
0?
#1015
0!
#1025
1!
b11 ]
0O
0N
1L
0J
0I
1D
1A
0>
#1035
0!
#1045
1!
b111110 b
b1011110 `
b100 ]
b0 ^
b1011110xxxxxxxx0 e
b1011110 =
b0 H
#1055
0!
#1065
1!
b101 ]
1O
1N
0L
1J
1I
0D
0C
0B
0A
0@
1>
#1075
0!
#1085
1!
b10111110 c
b110 ]
b10100000001 e
1G
b10000000 F
b10 =
#1095
0!
#1105
1!
b111 ]
b1011110001111101 e
b111110 F
b1011110 =
1D
1C
1B
1A
1@
0>
#1115
0!
#1125
1!
b1000 ]
b10111110xxxxxxxx0 e
0G
bx F
b10111110 =
0D
0C
0B
0A
0@
1>
#1135
0!
#1145
1!
b1001 ]
1E
1D
1C
#1155
0!
#1165
1!
b10 a
b1 ]
b0 e
b0 F
b0 =
#1175
0!
#1185
1!
b11 _
b10 ]
b11 ^
b11xxxxxxxx0 e
bx F
b11 =
b11 H
0E
0D
1B
1@
#1195
0!
#1205
1!
b11 ]
0N
1L
0J
1E
1D
0C
0>
#1215
0!
#1225
1!
b101011 b
b10001001 `
b100 ]
b0 ^
b10001001xxxxxxxx0 e
b10001001 =
b0 H
#1235
0!
#1245
1!
b101 ]
1N
0L
1J
0E
0D
1A
0@
#1255
0!
#1265
1!
b1000011 c
b110 ]
b11000110001 e
1G
b11000 F
b11 =
#1275
0!
#1285
1!
b111 ]
b10001001001010111 e
b101011 F
b10001001 =
1E
1D
0A
1@
#1295
0!
#1305
1!
b1000 ]
b1000011xxxxxxxx0 e
0G
bx F
b1000011 =
0E
0D
1A
0@
#1315
0!
#1325
1!
b1001 ]
1E
1D
1C
0B
1>
#1335
0!
#1345
1!
b11 a
b1 ]
b0 e
b0 F
b0 =
#1355
0!
#1365
1!
b100 _
b10 ]
b100 ^
b100xxxxxxxx0 e
bx F
b100 =
b100 H
0E
0D
1B
0A
1@
#1375
0!
#1385
1!
b11 ]
0O
0N
0K
1D
0C
0B
1A
1?
#1395
0!
#1405
1!
b11110010 b
b1111011 `
b100 ]
b0 ^
b1111011xxxxxxxx0 e
b1111011 =
b0 H
#1415
0!
#1425
1!
b101 ]
1O
1N
1K
1E
0D
1B
0A
0@
0>
#1435
0!
#1445
1!
b111011 c
b110 ]
b100010010011 e
1G
b1001001 F
b100 =
#1455
0!
#1465
1!
b111 ]
b1111011111100101 e
b11110010 F
b1111011 =
0E
1D
0B
1A
1@
1>
#1475
0!
#1485
1!
b1000 ]
b111011xxxxxxxx0 e
0G
bx F
b111011 =
1E
0D
1B
0A
0@
0>
#1495
0!
#1505
1!
b1001 ]
0E
1@
#1515
0!
#1525
1!
b100 a
b1 ]
b0 e
b0 F
b0 =
#1535
0!
#1545
1!
b101 _
b10 ]
b101 ^
b101xxxxxxxx0 e
bx F
b101 =
b101 H
1C
0?
1>
#1555
0!
#1565
1!
b11 ]
0O
0N
1L
0J
0I
1E
1D
0C
1A
0@
1?
0>
#1575
0!
#1585
1!
b1011011 b
b11010110 `
b100 ]
b0 ^
b11010110xxxxxxxx0 e
b11010110 =
b0 H
#1595
0!
#1605
1!
b101 ]
1O
1N
0L
1J
1I
0E
0D
1>
#1615
0!
#1625
1!
b110011 c
b110 ]
b101110110001 e
1G
b11011000 F
b101 =
#1635
0!
#1645
1!
b111 ]
b11010110010110111 e
b1011011 F
b11010110 =
1E
1D
0>
#1655
0!
#1665
1!
b1000 ]
b110011xxxxxxxx0 e
0G
bx F
b110011 =
0E
0D
1>
#1675
0!
#1685
1!
b1001 ]
1C
0B
0A
#1695
0!
#1705
1!
b101 a
b1 ]
b0 e
b0 F
b0 =
#1715
0!
#1725
1!
b110 _
b10 ]
b110 ^
b110xxxxxxxx0 e
bx F
b110 =
b110 H
1B
1@
0?
#1735
0!
#1745
1!
b11 ]
0P
0O
0M
1L
0K
1D
0C
1A
0@
#1755
0!
#1765
1!
b10011010 b
b1110000 `
b100 ]
b0 ^
b1110000xxxxxxxx0 e
b1110000 =
b0 H
#1775
0!
#1785
1!
b101 ]
1P
1O
1M
0L
1K
0D
0A
1?
0>
#1795
0!
#1805
1!
b11100010 c
b110 ]
b110010010001 e
1G
b1001000 F
b110 =
#1815
0!
#1825
1!
b111 ]
b1110000100110101 e
b10011010 F
b1110000 =
1D
1A
0?
1>
#1835
0!
#1845
1!
b1000 ]
b11100010xxxxxxxx0 e
0G
bx F
b11100010 =
0D
0A
1?
0>
#1855
0!
#1865
1!
b1001 ]
1D
1A
1@
0?
#1875
0!
#1885
1!
b110 a
b1 ]
b0 e
b0 F
b0 =
#1895
0!
#1905
1!
b111 _
b10 ]
b111 ^
b111xxxxxxxx0 e
bx F
b111 =
b111 H
0D
1C
0A
1>
#1915
0!
#1925
1!
b11 ]
0O
0N
0M
1L
0J
1D
0B
1A
#1935
0!
#1945
1!
b10110110 b
b100110 `
b100 ]
b0 ^
b100110xxxxxxxx0 e
b100110 =
b0 H
#1955
0!
#1965
1!
b101 ]
1O
1N
1M
0L
1J
1E
0D
0C
1B
0@
1?
#1975
0!
#1985
1!
b10001111 c
b110 ]
b111110110011 e
1G
b11011001 F
b111 =
#1995
0!
#2005
1!
b111 ]
b100110101101101 e
b10110110 F
b100110 =
0E
1D
1C
0B
1@
0?
#2015
0!
#2025
1!
b1000 ]
b10001111xxxxxxxx0 e
0G
bx F
b10001111 =
1E
0D
0C
1B
0@
1?
#2035
0!
#2045
1!
b1001 ]
0E
1D
1C
0B
#2055
0!
#2065
1!
b111 a
b1 ]
b0 e
b0 F
b0 =
#2075
0!
#2085
1!
b1000 _
b10 ]
b1000 ^
b1000xxxxxxxx0 e
bx F
b1000 =
b1000 H
0D
1B
0A
1@
0?
#2095
0!
#2105
1!
b11 ]
0P
0O
1L
0K
0I
1D
0C
0>
#2115
0!
#2125
1!
b101010 b
b1010000 `
b100 ]
b0 ^
b1010000xxxxxxxx0 e
b1010000 =
b0 H
#2135
0!
#2145
1!
b101 ]
1P
1O
0L
1K
1I
1E
0D
1C
0B
0@
#2155
0!
#2165
1!
b101111 c
b110 ]
b1000000001011 e
1G
b101 F
b1000 =
#2175
0!
#2185
1!
b111 ]
b1010000001010101 e
b101010 F
b1010000 =
0E
1D
0C
1B
1@
#2195
0!
#2205
1!
b1000 ]
b101111xxxxxxxx0 e
0G
bx F
b101111 =
1E
0D
1C
0B
0@
#2215
0!
#2225
1!
b1001 ]
0C
1@
1?
1>
#2235
0!
#2245
1!
b1000 a
b1 ]
b0 e
b0 F
b0 =
#2255
0!
#2265
1!
b1001 _
b10 ]
b1001 ^
b1001xxxxxxxx0 e
bx F
b1001 =
b1001 H
0E
1C
1B
0?
#2275
0!
#2285
1!
b11 ]
0O
1L
0K
0J
1D
0C
0B
#2295
0!
#2305
1!
b10100010 b
b11110010 `
b100 ]
b0 ^
b11110010xxxxxxxx0 e
b11110010 =
b0 H
#2315
0!
#2325
1!
b101 ]
1O
0L
1K
1J
1C
#2335
0!
#2345
1!
b1001000 c
b110 ]
b1001101001101 e
1G
b10100110 F
b1001 =
#2355
0!
#2365
1!
b111 ]
b11110010101000101 e
b10100010 F
b11110010 =
0C
#2375
0!
#2385
1!
b1000 ]
b1001000xxxxxxxx0 e
0G
bx F
b1001000 =
1C
#2395
0!
#2405
1!
b1001 ]
1E
0D
0C
1A
1?
#2415
0!
#2425
1!
b1001 a
b1 ]
b0 e
b0 F
b0 =
#2435
0!
#2445
1!
b1010 _
b10 ]
b1010 ^
b1010xxxxxxxx0 e
bx F
b1010 =
b1010 H
0E
1C
1B
0A
0?
#2455
0!
#2465
1!
b11 ]
0P
0O
0N
0M
1L
0J
0I
0C
0B
1A
1?
#2475
0!
#2485
1!
b11110000 b
b11100010 `
b100 ]
b0 ^
b11100010xxxxxxxx0 e
b11100010 =
b0 H
#2495
0!
#2505
1!
b101 ]
1P
1O
1N
1M
0L
1J
1I
1D
1B
0?
0>
#2515
0!
#2525
1!
b101010 c
b110 ]
b1010001110101 e
1G
b111010 F
b1010 =
#2535
0!
#2545
1!
b111 ]
b11100010111100001 e
b11110000 F
b11100010 =
0D
0B
1?
1>
#2555
0!
#2565
1!
b1000 ]
b101010xxxxxxxx0 e
0G
bx F
b101010 =
1D
1B
0?
0>
#2575
0!
#2585
1!
b1001 ]
0D
1>
#2595
0!
#2605
1!
b1010 a
b1 ]
b0 e
b0 F
b0 =
#2615
0!
#2625
1!
b1011 _
b10 ]
b1011 ^
b1011xxxxxxxx0 e
bx F
b1011 =
b1011 H
1C
0A
#2635
0!
#2645
1!
b11 ]
0P
1L
0K
0J
1E
1D
0C
0@
#2655
0!
#2665
1!
b10001011 b
b1101101 `
b100 ]
b0 ^
b1101101xxxxxxxx0 e
b1101101 =
b0 H
#2675
0!
#2685
1!
b101 ]
1P
0L
1K
1J
0E
0D
1A
1@
1?
0>
#2695
0!
#2705
1!
b11 c
b110 ]
b1011011110001 e
1G
b1111000 F
b1011 =
#2715
0!
#2725
1!
b111 ]
b1101101100010111 e
b10001011 F
b1101101 =
1E
1D
0A
0@
0?
1>
#2735
0!
#2745
1!
b1000 ]
b11xxxxxxxx0 e
0G
bx F
b11 =
0E
0D
1A
1@
1?
0>
#2755
0!
#2765
1!
b1001 ]
0@
0?
#2775
0!
#2785
1!
b1011 a
b1 ]
b0 e
b0 F
b0 =
#2795
0!
#2805
1!
b1100 _
b10 ]
b1100 ^
b1100xxxxxxxx0 e
bx F
b1100 =
b1100 H
1C
0A
1@
1>
#2815
0!
#2825
1!
b11 ]
0N
1L
1E
1?
#2835
0!
#2845
1!
b11101101 b
b1011010 `
b100 ]
b0 ^
b1011010xxxxxxxx0 e
b1011010 =
b0 H
#2855
0!
#2865
1!
b101 ]
1N
0L
0C
#2875
0!
#2885
1!
b11010110 c
b110 ]
b1100111010011 e
1G
b11101001 F
b1100 =
#2895
0!
#2905
1!
b111 ]
b1011010111011011 e
b11101101 F
b1011010 =
1C
#2915
0!
#2925
1!
b1000 ]
b11010110xxxxxxxx0 e
0G
bx F
b11010110 =
0C
#2935
0!
#2945
1!
b1001 ]
1D
1A
0@
0>
#2955
0!
#2965
1!
b1100 a
b1 ]
b0 e
b0 F
b0 =
#2975
0!
#2985
1!
b1101 _
b10 ]
b1101 ^
b1101xxxxxxxx0 e
bx F
b1101 =
b1101 H
0E
0D
1C
0A
1@
0?
1>
#2995
0!
#3005
1!
b11 ]
0P
0O
0K
0C
0B
1?
0>
#3015
0!
#3025
1!
b1100000 b
b10111010 `
b100 ]
b0 ^
b10111010xxxxxxxx0 e
b10111010 =
b0 H
#3035
0!
#3045
1!
b101 ]
1P
1O
1K
1B
0@
1>
#3055
0!
#3065
1!
b101000 c
b110 ]
b1101110010001 e
1G
b11001000 F
b1101 =
#3075
0!
#3085
1!
b111 ]
b10111010011000001 e
b1100000 F
b10111010 =
0B
1@
0>
#3095
0!
#3105
1!
b1000 ]
b101000xxxxxxxx0 e
0G
bx F
b101000 =
1B
0@
1>
#3115
0!
#3125
1!
b1001 ]
1E
1A
0>
#3135
0!
#3145
1!
b1101 a
b1 ]
b0 e
b0 F
b0 =
#3155
0!
#3165
1!
b1110 _
b10 ]
b1110 ^
b1110xxxxxxxx0 e
bx F
b1110 =
b1110 H
0E
1C
0A
1@
0?
1>
#3175
0!
#3185
1!
b11 ]
0P
0N
0M
0I
1D
0B
1?
0>
#3195
0!
#3205
1!
b1100110 b
b100000 `
b100 ]
b0 ^
b100000xxxxxxxx0 e
b100000 =
b0 H
#3215
0!
#3225
1!
b101 ]
1P
1N
1M
1I
0D
0C
0?
#3235
0!
#3245
1!
b10000110 c
b110 ]
b1110001000001 e
1G
b100000 F
b1110 =
#3255
0!
#3265
1!
b111 ]
b100000011001101 e
b1100110 F
b100000 =
1D
1C
1?
#3275
0!
#3285
1!
b1000 ]
b10000110xxxxxxxx0 e
0G
bx F
b10000110 =
0D
0C
0?
#3295
0!
#3305
1!
b1001 ]
1C
1B
1A
0@
1?
#3315
0!
#3325
1!
b1110 a
b1 ]
b0 e
b0 F
b0 =
#3335
0!
#3345
1!
b1111 _
b10 ]
b1111 ^
b1111xxxxxxxx0 e
bx F
b1111 =
b1111 H
0A
1@
0?
1>
#3355
0!
#3365
1!
b11 ]
0O
0N
0M
0B
1A
1?
#3375
0!
#3385
1!
b11110100 b
b10100 `
b100 ]
b0 ^
b10100xxxxxxxx0 e
b10100 =
b0 H
#3395
0!
#3405
1!
b101 ]
1O
1N
1M
0@
0>
#3415
0!
#3425
1!
b1001000 c
b110 ]
b1111010101001 e
1G
b1010100 F
b1111 =
#3435
0!
#3445
1!
b111 ]
b10100111101001 e
b11110100 F
b10100 =
1@
1>
#3455
0!
#3465
1!
b1000 ]
b1001000xxxxxxxx0 e
0G
bx F
b1001000 =
0@
0>
#3475
0!
#3485
1!
b1001 ]
1E
0C
1@
1>
#3495
0!
#3505
1!
b1111 a
b1 ]
b0 e
b0 F
b0 =
#3515
0!
#3525
1!
b10000 _
b10 ]
b10000 ^
b10000xxxxxxxx0 e
bx F
b10000 =
b10000 H
0E
1C
1B
0A
0?
#3535
0!
#3545
1!
b11 ]
0O
0N
0M
0K
0I
0B
0@
#3555
0!
#3565
1!
b10000100 b
b10011000 `
b100 ]
b0 ^
b10011000xxxxxxxx0 e
b10011000 =
b0 H
#3575
0!
#3585
1!
b101 ]
1O
1N
1M
1K
1I
1E
1D
0C
1A
1@
#3595
0!
#3605
1!
b110111 c
b110 ]
b10000101100111 e
1G
b10110011 F
b10000 =
#3615
0!
#3625
1!
b111 ]
b10011000100001001 e
b10000100 F
b10011000 =
0E
0D
1C
0A
0@
#3635
0!
#3645
1!
b1000 ]
b110111xxxxxxxx0 e
0G
bx F
b110111 =
1E
1D
0C
1A
1@
#3655
0!
#3665
1!
b1001 ]
0E
0D
1C
0A
0>
#3675
0!
#3685
1!
b10000 a
b1 ]
b0 e
b0 F
b0 =
#3695
0!
#3705
1!
b10001 _
b10 ]
b10001 ^
b10001xxxxxxxx0 e
bx F
b10001 =
b10001 H
1B
1>
#3715
0!
#3725
1!
b11 ]
0O
0N
0M
0J
0C
0B
1A
0>
#3735
0!
#3745
1!
b110000 b
b11001000 `
b100 ]
b0 ^
b11001000xxxxxxxx0 e
b11001000 =
b0 H
#3755
0!
#3765
1!
b101 ]
1O
1N
1M
1J
1E
1C
0A
#3775
0!
#3785
1!
b1010101 c
b110 ]
b10001001001011 e
1G
b100101 F
b10001 =
#3795
0!
#3805
1!
b111 ]
b11001000001100001 e
b110000 F
b11001000 =
0E
0C
1A
#3815
0!
#3825
1!
b1000 ]
b1010101xxxxxxxx0 e
0G
bx F
b1010101 =
1E
1C
0A
#3835
0!
#3845
1!
b1001 ]
0C
1B
1>
#3855
0!
#3865
1!
b10001 a
b1 ]
b0 e
b0 F
b0 =
#3875
0!
#3885
1!
b10010 _
b10 ]
b10010 ^
b10010xxxxxxxx0 e
bx F
b10010 =
b10010 H
0E
1C
#3895
0!
#3905
1!
b11 ]
0N
0M
0K
0J
0C
0B
0@
1?
#3915
0!
#3925
1!
b11000000 b
b10001000 `
b100 ]
b0 ^
b10001000xxxxxxxx0 e
b10001000 =
b0 H
#3935
0!
#3945
1!
b101 ]
1N
1M
1K
1J
1D
1A
0>
#3955
0!
#3965
1!
b10010 c
b110 ]
b10010010100101 e
1G
b1010010 F
b10010 =
#3975
0!
#3985
1!
b111 ]
b10001000110000001 e
b11000000 F
b10001000 =
0D
0A
1>
#3995
0!
#4005
1!
b1000 ]
b10010xxxxxxxx0 e
0G
bx F
b10010 =
1D
1A
0>
#4015
0!
#4025
1!
b1001 ]
#4035
0!
#4045
1!
b10010 a
b1 ]
b0 e
b0 F
b0 =
#4055
0!
#4065
1!
b10011 _
b10 ]
b10011 ^
b10011xxxxxxxx0 e
bx F
b10011 =
b10011 H
0D
1C
1B
0A
1@
0?
1>
#4075
0!
#4085
1!
b11 ]
0O
0M
1L
0J
1E
0B
1A
#4095
0!
#4105
1!
b10110101 b
b111101 `
b100 ]
b0 ^
b111101xxxxxxxx0 e
b111101 =
b0 H
#4115
0!
#4125
1!
b101 ]
1O
1M
0L
1J
0E
1D
0C
1B
1?
0>
#4135
0!
#4145
1!
b101111 c
b110 ]
b10011011110101 e
1G
b1111010 F
b10011 =
#4155
0!
#4165
1!
b111 ]
b111101101101011 e
b10110101 F
b111101 =
1E
0D
1C
0B
0?
1>
#4175
0!
#4185
1!
b1000 ]
b101111xxxxxxxx0 e
0G
bx F
b101111 =
0E
1D
0C
1B
1?
0>
#4195
0!
#4205
1!
b1001 ]
1E
0D
0B
0A
1>
#4215
0!
#4225
1!
b10011 a
b1 ]
b0 e
b0 F
b0 =
#4235
0!
#4245
1!
b10100 _
b10 ]
b10100 ^
b10100xxxxxxxx0 e
bx F
b10100 =
b10100 H
0E
1C
1B
0?
#4255
0!
#4265
1!
b11 ]
0P
1L
0J
0B
1A
1?
#4275
0!
#4285
1!
b11110100 b
b110001 `
b100 ]
b0 ^
b110001xxxxxxxx0 e
b110001 =
b0 H
#4295
0!
#4305
1!
b101 ]
1P
0L
1J
1D
0C
0A
0>
#4315
0!
#4325
1!
b1010110 c
b110 ]
b10100011000101 e
1G
b1100010 F
b10100 =
#4335
0!
#4345
1!
b111 ]
b110001111101001 e
b11110100 F
b110001 =
0D
1C
1A
1>
#4355
0!
#4365
1!
b1000 ]
b1010110xxxxxxxx0 e
0G
bx F
b1010110 =
1D
0C
0A
0>
#4375
0!
#4385
1!
b1001 ]
1E
0D
1A
0@
0?
1>
#4395
0!
#4405
1!
b10100 a
b1 ]
b0 e
b0 F
b0 =
#4415
0!
#4425
1!
b10101 _
b10 ]
b10101 ^
b10101xxxxxxxx0 e
bx F
b10101 =
b10101 H
0E
1C
1B
0A
1@
#4435
0!
#4445
1!
b11 ]
0P
0O
0N
0M
1L
0J
0I
1E
0C
1A
1?
0>
#4455
0!
#4465
1!
b1111001 b
b10101010 `
b100 ]
b0 ^
b10101010xxxxxxxx0 e
b10101010 =
b0 H
#4475
0!
#4485
1!
b101 ]
1P
1O
1N
1M
0L
1J
1I
0B
#4495
0!
#4505
1!
b11101010 c
b110 ]
b10101011100011 e
1G
b1110001 F
b10101 =
#4515
0!
#4525
1!
b111 ]
b10101010011110011 e
b1111001 F
b10101010 =
1B
#4535
0!
#4545
1!
b1000 ]
b11101010xxxxxxxx0 e
0G
bx F
b11101010 =
0B
#4555
0!
#4565
1!
b1001 ]
0E
1D
1C
1B
0A
0@
1>
#4575
0!
#4585
1!
b10101 a
b1 ]
b0 e
b0 F
b0 =
#4595
0!
#4605
1!
b10110 _
b10 ]
b10110 ^
b10110xxxxxxxx0 e
bx F
b10110 =
b10110 H
0D
1@
0?
#4615
0!
#4625
1!
b11 ]
0O
0N
0J
1E
0C
0@
1?
#4635
0!
#4645
1!
b11001001 b
b1110011 `
b100 ]
b0 ^
b1110011xxxxxxxx0 e
b1110011 =
b0 H
#4655
0!
#4665
1!
b101 ]
1O
1N
1J
0E
1C
1@
#4675
0!
#4685
1!
b10110101 c
b110 ]
b10110111011001 e
1G
b11101100 F
b10110 =
#4695
0!
#4705
1!
b111 ]
b1110011110010011 e
b11001001 F
b1110011 =
1E
0C
0@
#4715
0!
#4725
1!
b1000 ]
b10110101xxxxxxxx0 e
0G
bx F
b10110101 =
0E
1C
1@
#4735
0!
#4745
1!
b1001 ]
0C
0B
#4755
0!
#4765
1!
b10110 a
b1 ]
b0 e
b0 F
b0 =
#4775
0!
#4785
1!
b10111 _
b10 ]
b10111 ^
b10111xxxxxxxx0 e
bx F
b10111 =
b10111 H
1C
1B
0?
#4795
0!
#4805
1!
b11 ]
0P
0O
1L
0J
0I
1E
0C
0B
0@
0>
#4815
0!
#4825
1!
b1 b
b1110100 `
b100 ]
b0 ^
b1110100xxxxxxxx0 e
b1110100 =
b0 H
#4835
0!
#4845
1!
b101 ]
1P
1O
0L
1J
1I
1D
1A
1@
1?
1>
#4855
0!
#4865
1!
b11110100 c
b110 ]
b10111111100111 e
1G
b11110011 F
b10111 =
#4875
0!
#4885
1!
b111 ]
b1110100000000011 e
b1 F
b1110100 =
0D
0A
0@
0?
0>
#4895
0!
#4905
1!
b1000 ]
b11110100xxxxxxxx0 e
0G
bx F
b11110100 =
1D
1A
1@
1?
1>
#4915
0!
#4925
1!
b1001 ]
0D
1C
1B
0A
0@
0>
#4935
0!
#4945
1!
b10111 a
b1 ]
b0 e
b0 F
b0 =
#4955
0!
#4965
1!
b11000 _
b10 ]
b11000 ^
b11000xxxxxxxx0 e
bx F
b11000 =
b11000 H
0E
1@
0?
1>
#4975
0!
#4985
1!
b11 ]
0J
0B
1A
0>
#4995
0!
#5005
1!
b110100 b
b10101000 `
b100 ]
b0 ^
b10101000xxxxxxxx0 e
b10101000 =
b0 H
#5015
0!
#5025
1!
b101 ]
1J
1E
1D
1B
0A
1>
#5035
0!
#5045
1!
b11100011 c
b110 ]
b11000101011111 e
1G
b10101111 F
b11000 =
#5055
0!
#5065
1!
b111 ]
b10101000001101001 e
b110100 F
b10101000 =
0E
0D
0B
1A
0>
#5075
0!
#5085
1!
b1000 ]
b11100011xxxxxxxx0 e
0G
bx F
b11100011 =
1E
1D
1B
0A
1>
#5095
0!
#5105
1!
b1001 ]
0E
0D
1A
1?
0>
#5115
0!
#5125
1!
b11000 a
b1 ]
b0 e
b0 F
b0 =
#5135
0!
#5145
1!
b11001 _
b10 ]
b11001 ^
b11001xxxxxxxx0 e
bx F
b11001 =
b11001 H
0A
0?
1>
#5155
0!
#5165
1!
b11 ]
0N
0I
1E
0C
0B
0@
1?
0>
#5175
0!
#5185
1!
b1000001 b
b11101001 `
b100 ]
b0 ^
b11101001xxxxxxxx0 e
b11101001 =
b0 H
#5195
0!
#5205
1!
b101 ]
1N
1I
1D
1C
1A
1@
1>
#5215
0!
#5225
1!
b111000 c
b110 ]
b11001111101111 e
1G
b11110111 F
b11001 =
#5235
0!
#5245
1!
b111 ]
b11101001010000011 e
b1000001 F
b11101001 =
0D
0C
0A
0@
0>
#5255
0!
#5265
1!
b1000 ]
b111000xxxxxxxx0 e
0G
bx F
b111000 =
1D
1C
1A
1@
1>
#5275
0!
#5285
1!
b1001 ]
0D
0A
#5295
0!
#5305
1!
b11001 a
b1 ]
b0 e
b0 F
b0 =
#5315
0!
#5325
1!
b11010 _
b10 ]
b11010 ^
b11010xxxxxxxx0 e
bx F
b11010 =
b11010 H
0E
1B
0?
#5335
0!
#5345
1!
b11 ]
0O
0M
0J
0I
0C
0>
#5355
0!
#5365
1!
b101000 b
b10001 `
b100 ]
b0 ^
b10001xxxxxxxx0 e
b10001 =
b0 H
#5375
0!
#5385
1!
b101 ]
1O
1M
1J
1I
1E
1C
0B
#5395
0!
#5405
1!
b1001101 c
b110 ]
b11010001001011 e
1G
b100101 F
b11010 =
#5415
0!
#5425
1!
b111 ]
b10001001010001 e
b101000 F
b10001 =
0E
0C
1B
#5435
0!
#5445
1!
b1000 ]
b1001101xxxxxxxx0 e
0G
bx F
b1001101 =
1E
1C
0B
#5455
0!
#5465
1!
b1001 ]
1B
1A
1>
#5475
0!
#5485
1!
b11010 a
b1 ]
b0 e
b0 F
b0 =
#5495
0!
#5505
1!
b11011 _
b10 ]
b11011 ^
b11011xxxxxxxx0 e
bx F
b11011 =
b11011 H
0E
0A
#5515
0!
#5525
1!
b11 ]
0N
0M
1L
0J
1E
1A
0>
#5535
0!
#5545
1!
b111101 b
b1001110 `
b100 ]
b0 ^
b1001110xxxxxxxx0 e
b1001110 =
b0 H
#5555
0!
#5565
1!
b101 ]
1N
1M
0L
1J
0E
0C
0B
0@
#5575
0!
#5585
1!
b110 ]
b11011000100001 e
1G
b10000 F
b11011 =
#5595
0!
#5605
1!
b111 ]
b1001110001111011 e
b111101 F
b1001110 =
1E
1C
1B
1@
#5615
0!
#5625
1!
b1000 ]
b1001101xxxxxxxx0 e
0G
bx F
b1001101 =
0E
0C
0B
0@
#5635
0!
#5645
1!
b1001 ]
1E
1C
1B
1@
1>
#5655
0!
#5665
1!
b11011 a
b1 ]
b0 e
b0 F
b0 =
#5675
0!
#5685
1!
b11100 _
b10 ]
b11100 ^
b11100xxxxxxxx0 e
bx F
b11100 =
b11100 H
0E
0A
#5695
0!
