lab3/task3/task3.rtl.vcd
$date
	Thu Nov 19 07:10:24 2020
$end
$version
	ModelSim Version 10.7c
$end
$timescale
	1ps
$end

$scope module task3_ag $end

$scope module dut $end
$var wire 1 ! CLOCK_50 $end
$var wire 1 " KEY [3] $end
$var wire 1 # KEY [2] $end
$var wire 1 $ KEY [1] $end
$var wire 1 % KEY [0] $end
$var wire 1 & SW [9] $end
$var wire 1 ' SW [8] $end
$var wire 1 ( SW [7] $end
$var wire 1 ) SW [6] $end
$var wire 1 * SW [5] $end
$var wire 1 + SW [4] $end
$var wire 1 , SW [3] $end
$var wire 1 - SW [2] $end
$var wire 1 . SW [1] $end
$var wire 1 / SW [0] $end
$var reg 7 0 HEX0 [6:0] $end
$var reg 7 1 HEX1 [6:0] $end
$var reg 7 2 HEX2 [6:0] $end
$var reg 7 3 HEX3 [6:0] $end
$var reg 7 4 HEX4 [6:0] $end
$var reg 7 5 HEX5 [6:0] $end
$var reg 10 6 LEDR [9:0] $end
$var reg 1 7 rst_n $end
$var reg 1 8 rdy $end
$var reg 1 9 en $end
$var reg 1 : enabled $end
$var reg 1 ; ct_wren $end
$var reg 1 < pt_wren $end
$var reg 8 = ct_addr [7:0] $end
$var reg 8 > ct_rddata [7:0] $end
$var reg 8 ? ct_wrdata [7:0] $end
$var reg 8 @ pt_addr [7:0] $end
$var reg 8 A pt_rddata [7:0] $end
$var reg 8 B pt_wrdata [7:0] $end

$scope module ct $end
$var wire 1 C address [7] $end
$var wire 1 D address [6] $end
$var wire 1 E address [5] $end
$var wire 1 F address [4] $end
$var wire 1 G address [3] $end
$var wire 1 H address [2] $end
$var wire 1 I address [1] $end
$var wire 1 J address [0] $end
$var tri1 1 ! clock $end
$var wire 1 K data [7] $end
$var wire 1 L data [6] $end
$var wire 1 M data [5] $end
$var wire 1 N data [4] $end
$var wire 1 O data [3] $end
$var wire 1 P data [2] $end
$var wire 1 Q data [1] $end
$var wire 1 R data [0] $end
$var wire 1 S wren $end
$var wire 1 T q [7] $end
$var wire 1 U q [6] $end
$var wire 1 V q [5] $end
$var wire 1 W q [4] $end
$var wire 1 X q [3] $end
$var wire 1 Y q [2] $end
$var wire 1 Z q [1] $end
$var wire 1 [ q [0] $end
$var wire 1 \ sub_wire0 [7] $end
$var wire 1 ] sub_wire0 [6] $end
$var wire 1 ^ sub_wire0 [5] $end
$var wire 1 _ sub_wire0 [4] $end
$var wire 1 ` sub_wire0 [3] $end
$var wire 1 a sub_wire0 [2] $end
$var wire 1 b sub_wire0 [1] $end
$var wire 1 c sub_wire0 [0] $end

$scope module altsyncram_component $end
$var tri0 1 d wren_a $end
$var tri0 1 e wren_b $end
$var tri1 1 f rden_a $end
$var tri1 1 g rden_b $end
$var tri1 1 ! clock0 $end
$var tri1 1 h clocken0 $end
$var tri1 1 i clocken1 $end
$var tri1 1 j clocken2 $end
$var tri1 1 k clocken3 $end
$var tri0 1 l aclr0 $end
$var tri0 1 m aclr1 $end
$var tri1 1 n byteena_a [0] $end
$var tri1 1 o byteena_b [0] $end
$var tri0 1 p addressstall_a $end
$var tri0 1 q addressstall_b $end

$scope begin m_default $end

$scope module altsyncram_inst $end
$var reg 2048 r ram_initf [2048:1] $end
$var tri1 1 s i_byteena_a [0] $end

$scope module mem $end

$scope task convert_to_ver_file $end
$var reg 2048 t in_file [2048:1] $end
$var integer 32 u width $end
$var reg 2048 v out_file [2048:1] $end
$upscope $end
$upscope $end
$upscope $end
$upscope $end
$upscope $end
$upscope $end

$scope module pt $end
$var wire 1 w address [7] $end
$var wire 1 x address [6] $end
$var wire 1 y address [5] $end
$var wire 1 z address [4] $end
$var wire 1 { address [3] $end
$var wire 1 | address [2] $end
$var wire 1 } address [1] $end
$var wire 1 ~ address [0] $end
$var tri1 1 ! clock $end
$var wire 1 !! data [7] $end
$var wire 1 "! data [6] $end
$var wire 1 #! data [5] $end
$var wire 1 $! data [4] $end
$var wire 1 %! data [3] $end
$var wire 1 &! data [2] $end
$var wire 1 '! data [1] $end
$var wire 1 (! data [0] $end
$var wire 1 )! wren $end
$var wire 1 *! q [7] $end
$var wire 1 +! q [6] $end
$var wire 1 ,! q [5] $end
$var wire 1 -! q [4] $end
$var wire 1 .! q [3] $end
$var wire 1 /! q [2] $end
$var wire 1 0! q [1] $end
$var wire 1 1! q [0] $end
$var wire 1 2! sub_wire0 [7] $end
$var wire 1 3! sub_wire0 [6] $end
$var wire 1 4! sub_wire0 [5] $end
$var wire 1 5! sub_wire0 [4] $end
$var wire 1 6! sub_wire0 [3] $end
$var wire 1 7! sub_wire0 [2] $end
$var wire 1 8! sub_wire0 [1] $end
$var wire 1 9! sub_wire0 [0] $end

$scope module altsyncram_component $end
$var tri0 1 )! wren_a $end
$var tri0 1 :! wren_b $end
$var tri1 1 ;! rden_a $end
$var tri1 1 <! rden_b $end
$var tri1 1 ! clock0 $end
$var tri1 1 =! clocken0 $end
$var tri1 1 >! clocken1 $end
$var tri1 1 ?! clocken2 $end
$var tri1 1 @! clocken3 $end
$var tri0 1 A! aclr0 $end
$var tri0 1 B! aclr1 $end
$var tri1 1 C! byteena_a [0] $end
$var tri1 1 D! byteena_b [0] $end
$var tri0 1 E! addressstall_a $end
$var tri0 1 F! addressstall_b $end

$scope begin m_default $end

$scope module altsyncram_inst $end
$var reg 2048 G! ram_initf [2048:1] $end
$var tri1 1 H! i_byteena_a [0] $end

$scope module mem $end

$scope task convert_to_ver_file $end
$var reg 2048 I! in_file [2048:1] $end
$var integer 32 J! width $end
$var reg 2048 K! out_file [2048:1] $end
$upscope $end
$upscope $end
$upscope $end
$upscope $end
$upscope $end
$upscope $end

$scope module a4 $end
$var wire 1 ! clk $end
$var wire 1 L! rst_n $end
$var wire 1 M! en $end
$var reg 1 N! rdy $end
$var wire 1 O! key [23] $end
$var wire 1 P! key [22] $end
$var wire 1 Q! key [21] $end
$var wire 1 R! key [20] $end
$var wire 1 S! key [19] $end
$var wire 1 T! key [18] $end
$var wire 1 U! key [17] $end
$var wire 1 V! key [16] $end
$var wire 1 W! key [15] $end
$var wire 1 X! key [14] $end
$var wire 1 Y! key [13] $end
$var wire 1 Z! key [12] $end
$var wire 1 [! key [11] $end
$var wire 1 \! key [10] $end
$var wire 1 & key [9] $end
$var wire 1 ' key [8] $end
$var wire 1 ( key [7] $end
$var wire 1 ) key [6] $end
$var wire 1 * key [5] $end
$var wire 1 + key [4] $end
$var wire 1 , key [3] $end
$var wire 1 - key [2] $end
$var wire 1 . key [1] $end
$var wire 1 / key [0] $end
$var reg 8 ]! ct_addr [7:0] $end
$var wire 1 ^! ct_rddata [7] $end
$var wire 1 _! ct_rddata [6] $end
$var wire 1 `! ct_rddata [5] $end
$var wire 1 a! ct_rddata [4] $end
$var wire 1 b! ct_rddata [3] $end
$var wire 1 c! ct_rddata [2] $end
$var wire 1 d! ct_rddata [1] $end
$var wire 1 e! ct_rddata [0] $end
$var reg 8 f! pt_addr [7:0] $end
$var wire 1 g! pt_rddata [7] $end
$var wire 1 h! pt_rddata [6] $end
$var wire 1 i! pt_rddata [5] $end
$var wire 1 j! pt_rddata [4] $end
$var wire 1 k! pt_rddata [3] $end
$var wire 1 l! pt_rddata [2] $end
$var wire 1 m! pt_rddata [1] $end
$var wire 1 n! pt_rddata [0] $end
$var reg 8 o! pt_wrdata [7:0] $end
$var reg 1 p! pt_wren $end
$var reg 1 q! s_wren $end
$var reg 1 r! rdy_out $end
$var reg 1 s! en_i $end
$var reg 1 t! en_k $end
$var reg 1 u! en_p $end
$var reg 1 v! rdy_i $end
$var reg 1 w! rdy_k $end
$var reg 1 x! rdy_p $end
$var reg 1 y! wren_i $end
$var reg 1 z! wren_k $end
$var reg 1 {! wren_p $end
$var reg 1 |! enabled_i $end
$var reg 1 }! enabled_k $end
$var reg 1 ~! enabled_p $end
$var reg 1 !" done_init $end
$var reg 1 "" done_ksa $end
$var reg 1 #" done_prga $end
$var reg 2 $" state [1:0] $end
$var reg 8 %" s_addr [7:0] $end
$var reg 8 &" s_wrdata [7:0] $end
$var reg 8 '" s_rddata [7:0] $end
$var reg 8 (" addr_i [7:0] $end
$var reg 8 )" wrdata_i [7:0] $end
$var reg 8 *" addr_k [7:0] $end
$var reg 8 +" wrdata_k [7:0] $end
$var reg 8 ," addr_p [7:0] $end
$var reg 8 -" wrdata_p [7:0] $end

$scope module s $end
$var wire 1 ." address [7] $end
$var wire 1 /" address [6] $end
$var wire 1 0" address [5] $end
$var wire 1 1" address [4] $end
$var wire 1 2" address [3] $end
$var wire 1 3" address [2] $end
$var wire 1 4" address [1] $end
$var wire 1 5" address [0] $end
$var tri1 1 ! clock $end
$var wire 1 6" data [7] $end
$var wire 1 7" data [6] $end
$var wire 1 8" data [5] $end
$var wire 1 9" data [4] $end
$var wire 1 :" data [3] $end
$var wire 1 ;" data [2] $end
$var wire 1 <" data [1] $end
$var wire 1 =" data [0] $end
$var wire 1 >" wren $end
$var wire 1 ?" q [7] $end
$var wire 1 @" q [6] $end
$var wire 1 A" q [5] $end
$var wire 1 B" q [4] $end
$var wire 1 C" q [3] $end
$var wire 1 D" q [2] $end
$var wire 1 E" q [1] $end
$var wire 1 F" q [0] $end
$var wire 1 G" sub_wire0 [7] $end
$var wire 1 H" sub_wire0 [6] $end
$var wire 1 I" sub_wire0 [5] $end
$var wire 1 J" sub_wire0 [4] $end
$var wire 1 K" sub_wire0 [3] $end
$var wire 1 L" sub_wire0 [2] $end
$var wire 1 M" sub_wire0 [1] $end
$var wire 1 N" sub_wire0 [0] $end

$scope module altsyncram_component $end
$var tri0 1 >" wren_a $end
$var tri0 1 O" wren_b $end
$var tri1 1 P" rden_a $end
$var tri1 1 Q" rden_b $end
$var tri1 1 ! clock0 $end
$var tri1 1 R" clocken0 $end
$var tri1 1 S" clocken1 $end
$var tri1 1 T" clocken2 $end
$var tri1 1 U" clocken3 $end
$var tri0 1 V" aclr0 $end
$var tri0 1 W" aclr1 $end
$var tri1 1 X" byteena_a [0] $end
$var tri1 1 Y" byteena_b [0] $end
$var tri0 1 Z" addressstall_a $end
$var tri0 1 [" addressstall_b $end

$scope begin m_default $end

$scope module altsyncram_inst $end
$var reg 2048 \" ram_initf [2048:1] $end
$var tri1 1 ]" i_byteena_a [0] $end

$scope module mem $end

$scope task convert_to_ver_file $end
$var reg 2048 ^" in_file [2048:1] $end
$var integer 32 _" width $end
$var reg 2048 `" out_file [2048:1] $end
$upscope $end
$upscope $end
$upscope $end
$upscope $end
$upscope $end
$upscope $end

$scope module i $end
$var wire 1 ! clk $end
$var wire 1 L! rst_n $end
$var wire 1 a" en $end
$var reg 1 b" rdy $end
$var reg 8 c" addr [7:0] $end
$var reg 8 d" wrdata [7:0] $end
$var reg 1 e" wren $end
$var reg 1 f" state $end
$var reg 1 g" rdy_out $end
$var reg 1 h" wren_out $end
$var reg 8 i" count [7:0] $end
$upscope $end

$scope module k $end
$var wire 1 ! clk $end
$var wire 1 L! rst_n $end
$var wire 1 j" en $end
$var reg 1 k" rdy $end
$var wire 1 O! key [23] $end
$var wire 1 P! key [22] $end
$var wire 1 Q! key [21] $end
$var wire 1 R! key [20] $end
$var wire 1 S! key [19] $end
$var wire 1 T! key [18] $end
$var wire 1 U! key [17] $end
$var wire 1 V! key [16] $end
$var wire 1 W! key [15] $end
$var wire 1 X! key [14] $end
$var wire 1 Y! key [13] $end
$var wire 1 Z! key [12] $end
$var wire 1 [! key [11] $end
$var wire 1 \! key [10] $end
$var wire 1 & key [9] $end
$var wire 1 ' key [8] $end
$var wire 1 ( key [7] $end
$var wire 1 ) key [6] $end
$var wire 1 * key [5] $end
$var wire 1 + key [4] $end
$var wire 1 , key [3] $end
$var wire 1 - key [2] $end
$var wire 1 . key [1] $end
$var wire 1 / key [0] $end
$var reg 8 l" addr [7:0] $end
$var wire 1 m" rddata [7] $end
$var wire 1 n" rddata [6] $end
$var wire 1 o" rddata [5] $end
$var wire 1 p" rddata [4] $end
$var wire 1 q" rddata [3] $end
$var wire 1 r" rddata [2] $end
$var wire 1 s" rddata [1] $end
$var wire 1 t" rddata [0] $end
$var reg 8 u" wrdata [7:0] $end
$var reg 1 v" wren $end
$var reg 3 w" state [2:0] $end
$var reg 18 x" out [17:0] $end
$var reg 8 y" i [7:0] $end
$var reg 8 z" j [7:0] $end
$var reg 8 {" I [7:0] $end
$var reg 8 |" key_index [7:0] $end
$var reg 8 }" key_val [7:0] $end
$var integer 32 ~" count_i $end
$var integer 32 !# count_j $end
$upscope $end

$scope module p $end
$var wire 1 ! clk $end
$var wire 1 L! rst_n $end
$var wire 1 "# en $end
$var reg 1 ## rdy $end
$var wire 1 O! key [23] $end
$var wire 1 P! key [22] $end
$var wire 1 Q! key [21] $end
$var wire 1 R! key [20] $end
$var wire 1 S! key [19] $end
$var wire 1 T! key [18] $end
$var wire 1 U! key [17] $end
$var wire 1 V! key [16] $end
$var wire 1 W! key [15] $end
$var wire 1 X! key [14] $end
$var wire 1 Y! key [13] $end
$var wire 1 Z! key [12] $end
$var wire 1 [! key [11] $end
$var wire 1 \! key [10] $end
$var wire 1 & key [9] $end
$var wire 1 ' key [8] $end
$var wire 1 ( key [7] $end
$var wire 1 ) key [6] $end
$var wire 1 * key [5] $end
$var wire 1 + key [4] $end
$var wire 1 , key [3] $end
$var wire 1 - key [2] $end
$var wire 1 . key [1] $end
$var wire 1 / key [0] $end
$var reg 8 $# s_addr [7:0] $end
$var wire 1 %# s_rddata [7] $end
$var wire 1 &# s_rddata [6] $end
$var wire 1 '# s_rddata [5] $end
$var wire 1 (# s_rddata [4] $end
$var wire 1 )# s_rddata [3] $end
$var wire 1 *# s_rddata [2] $end
$var wire 1 +# s_rddata [1] $end
$var wire 1 ,# s_rddata [0] $end
$var reg 8 -# s_wrdata [7:0] $end
$var reg 1 .# s_wren $end
$var reg 8 /# ct_addr [7:0] $end
$var wire 1 ^! ct_rddata [7] $end
$var wire 1 _! ct_rddata [6] $end
$var wire 1 `! ct_rddata [5] $end
$var wire 1 a! ct_rddata [4] $end
$var wire 1 b! ct_rddata [3] $end
$var wire 1 c! ct_rddata [2] $end
$var wire 1 d! ct_rddata [1] $end
$var wire 1 e! ct_rddata [0] $end
$var reg 8 0# pt_addr [7:0] $end
$var wire 1 g! pt_rddata [7] $end
$var wire 1 h! pt_rddata [6] $end
$var wire 1 i! pt_rddata [5] $end
$var wire 1 j! pt_rddata [4] $end
$var wire 1 k! pt_rddata [3] $end
$var wire 1 l! pt_rddata [2] $end
$var wire 1 m! pt_rddata [1] $end
$var wire 1 n! pt_rddata [0] $end
$var reg 8 1# pt_wrdata [7:0] $end
$var reg 1 2# pt_wren $end
$var reg 1 3# rdy_out $end
$var reg 4 4# state [3:0] $end
$var reg 8 5# ct_addr_out [7:0] $end
$var reg 8 6# i [7:0] $end
$var reg 8 7# j [7:0] $end
$var reg 8 8# k [7:0] $end
$var reg 8 9# I [7:0] $end
$var reg 8 :# pad_i [7:0] $end
$var reg 8 ;# message_length [7:0] $end
$var reg 17 <# s_out [16:0] $end
$var reg 17 =# pt_out [16:0] $end
$upscope $end
$upscope $end
$upscope $end
$upscope $end
$enddefinitions $end
#0
$dumpvars
bx 0
bx 1
bx 2
bx 3
bx 4
bx 5
bx 6
07
x8
x9
x:
x;
x<
bx =
b0 >
bx ?
bx @
b0 A
bx B
b111010001100101011100110111010000101110011101100110010101110010 r
b111010001100101011100110111010000101110011011010110100101100110 t
b111010001100101011100110111010000101110011101100110010101110010 v
bx G!
bx I!
bx K!
xN!
bx ]!
bx f!
bx o!
xp!
xq!
xr!
xs!
xt!
xu!
xv!
xw!
xx!
xy!
xz!
x{!
x|!
x}!
x~!
x!"
x""
x#"
bx $"
bx %"
bx &"
b0 '"
bx ("
bx )"
bx *"
bx +"
bx ,"
bx -"
bx \"
bx ^"
bx `"
xb"
bx c"
bx d"
xe"
xf"
xg"
xh"
bx i"
xk"
bx l"
bx u"
xv"
bx w"
bx x"
bx y"
bx z"
bx {"
bx |"
bx }"
x##
bx $#
bx -#
x.#
bx /#
bx 0#
bx 1#
x2#
x3#
bx 4#
bx 5#
bx 6#
bx 7#
bx 8#
bx 9#
bx :#
bx ;#
bx <#
bx =#
b1000 u
bx J!
bx _"
bx ~"
bx !#
0c
0b
0a
0`
0_
0^
0]
0\
1s
09!
08!
07!
06!
05!
04!
03!
02!
1H!
0N"
0M"
0L"
0K"
0J"
0I"
0H"
0G"
1]"
0/
0.
0-
1,
1+
0*
0)
0(
0'
0&
x%
x$
x#
0"
0!
0n!
0m!
0l!
0k!
0j!
0i!
0h!
0g!
0e!
0d!
0c!
0b!
0a!
0`!
0_!
0^!
0\!
0[!
0Z!
0Y!
0X!
0W!
0V!
0U!
0T!
0S!
0R!
0Q!
0P!
0O!
xM!
0L!
x)!
x(!
x'!
x&!
x%!
x$!
x#!
x"!
x!!
x~
x}
x|
x{
xz
xy
xx
xw
xS
xR
xQ
xP
xO
xN
xM
xL
xK
xJ
xI
xH
xG
xF
xE
xD
xC
0[
0Z
0Y
0X
0W
0V
0U
0T
0q
0p
1o
1n
0m
0l
1k
1j
1i
1h
1g
1f
0e
0d
01!
00!
0/!
0.!
0-!
0,!
0+!
0*!
0F!
0E!
1D!
1C!
0B!
0A!
1@!
1?!
1>!
1=!
1<!
1;!
0:!
0,#
0+#
0*#
0)#
0(#
0'#
0&#
0%#
x"#
0t"
0s"
0r"
0q"
0p"
0o"
0n"
0m"
xj"
xa"
x>"
x="
x<"
x;"
x:"
x9"
x8"
x7"
x6"
x5"
x4"
x3"
x2"
x1"
x0"
x/"
x."
0F"
0E"
0D"
0C"
0B"
0A"
0@"
0?"
0["
0Z"
1Y"
1X"
0W"
0V"
1U"
1T"
1S"
1R"
1Q"
1P"
0O"
$end
#1
1!
0:
0r!
b0 $"
b0 i"
0f"
0h"
0g"
b0 ~"
b0 !#
b0 w"
b0 x"
03#
b0 6#
b0 7#
b0 8#
b0 4#
b0 5#
b0 <#
b0 =#
02#
b0 1#
b0 0#
0.#
b0 -#
b0 $#
b0 /#
0##
0k"
0v"
b0 u"
b0 l"
b0 z"
b0 y"
0b"
0e"
b0 c"
b0 d"
0N!
08
b0 )"
b0 ("
0y!
0v!
b0 |"
b0 *"
b0 +"
0z!
0w!
0x!
b0 ]!
b0 ,"
b0 -"
0{!
b0 f!
b0 o!
0p!
0<
b0 B
b0 @
b0 =
0u!
0t!
0s!
09
bx0 6
0)!
0"#
0j"
0a"
0M!
0J
0I
0H
0G
0F
0E
0D
0C
0~
0}
0|
0{
0z
0y
0x
0w
0(!
0'!
0&!
0%!
0$!
0#!
0"!
0!!
0#"
0""
0!"
b0 }"
b0 %"
b0 &"
0q!
0="
0<"
0;"
0:"
09"
08"
07"
06"
05"
04"
03"
02"
01"
00"
0/"
0."
0>"
xN"
xM"
xL"
xK"
xJ"
xI"
xH"
xG"
x9!
x8!
x7!
x6!
x5!
x4!
x3!
x2!
xc
xb
xa
x`
x_
x^
x]
x\
x[
xZ
xY
xX
xW
xV
xU
xT
x1!
x0!
x/!
x.!
x-!
x,!
x+!
x*!
xF"
xE"
xD"
xC"
xB"
xA"
x@"
x?"
bx '"
bx A
bx >
xe!
xd!
xc!
xb!
xa!
x`!
x_!
x^!
xn!
xm!
xl!
xk!
xj!
xi!
xh!
xg!
x,#
x+#
x*#
x)#
x(#
x'#
x&#
x%#
xt"
xs"
xr"
xq"
xp"
xo"
xn"
xm"
#2
1"
17
1L!
0!
#3
1!
13#
b1 x"
1g"
1r!
1N!
1b"
1k"
1##
1x!
1w!
1v!
18
19
bx1 6
xs!
1M!
xa"
x!"
x""
x#"
xu!
xt!
x"#
xj"
0N"
0M"
0L"
0K"
0J"
0I"
0H"
0G"
09!
08!
07!
06!
05!
04!
03!
02!
1c
0b
1a
0`
1_
1^
0]
0\
1[
0Z
1Y
0X
1W
1V
0U
0T
01!
00!
0/!
0.!
0-!
0,!
0+!
0*!
0F"
0E"
0D"
0C"
0B"
0A"
0@"
0?"
b0 '"
b0 A
b110101 >
1e!
0d!
1c!
0b!
1a!
1`!
0_!
0^!
0n!
0m!
0l!
0k!
0j!
0i!
0h!
0g!
0,#
0+#
0*#
0)#
0(#
0'#
0&#
0%#
0t"
0s"
0r"
0q"
0p"
0o"
0n"
0m"
#4
0!
#5
1!
1:
0r!
b1 $"
0|!
0}!
0~!
x3#
x##
1s!
0N!
09
08
xx!
1a"
0M!
bx0 6
0#"
0""
0!"
0t!
0u!
0j"
0"#
#6
0!
#7
1!
1f"
1h"
0g"
13#
1|!
0s!
1##
0b"
1e"
1y!
0v!
1x!
0a"
1q!
1>"
#8
0!
#9
1!
b1 i"
b1 c"
b1 d"
b1 )"
b1 ("
b1 %"
b1 &"
1="
15"
#10
0!
#11
1!
b10 i"
b10 c"
b10 d"
b10 )"
b10 ("
b10 %"
b10 &"
0="
1<"
05"
14"
1N"
1F"
b1 '"
1,#
1t"
#12
0!
#13
1!
b11 i"
b11 c"
b11 d"
b11 )"
b11 ("
b11 %"
b11 &"
1="
15"
0N"
1M"
0F"
1E"
b10 '"
0,#
1+#
0t"
1s"
#14
0!
#15
1!
b100 i"
b100 c"
b100 d"
b100 )"
b100 ("
b100 %"
b100 &"
0="
0<"
1;"
05"
04"
13"
1N"
1F"
b11 '"
1,#
1t"
#16
0!
#17
1!
b101 i"
b101 c"
b101 d"
b101 )"
b101 ("
b101 %"
b101 &"
1="
15"
0N"
0M"
1L"
0F"
0E"
1D"
b100 '"
0,#
0+#
1*#
0t"
0s"
1r"
#18
0!
#19
1!
b110 i"
b110 c"
b110 d"
b110 )"
b110 ("
b110 %"
b110 &"
0="
1<"
05"
14"
1N"
1F"
b101 '"
1,#
1t"
#20
0!
#21
1!
b111 i"
b111 c"
b111 d"
b111 )"
b111 ("
b111 %"
b111 &"
1="
15"
0N"
1M"
0F"
1E"
b110 '"
0,#
1+#
0t"
1s"
#22
0!
#23
1!
b1000 i"
b1000 c"
b1000 d"
b1000 )"
b1000 ("
b1000 %"
b1000 &"
0="
0<"
0;"
1:"
05"
04"
03"
12"
1N"
1F"
b111 '"
1,#
1t"
#24
0!
#25
1!
b1001 i"
b1001 c"
b1001 d"
b1001 )"
b1001 ("
b1001 %"
b1001 &"
1="
15"
0N"
0M"
0L"
1K"
0F"
0E"
0D"
1C"
b1000 '"
0,#
0+#
0*#
1)#
0t"
0s"
0r"
1q"
#26
0!
#27
1!
b1010 i"
b1010 c"
b1010 d"
b1010 )"
b1010 ("
b1010 %"
b1010 &"
0="
1<"
05"
14"
1N"
1F"
b1001 '"
1,#
1t"
#28
0!
#29
1!
b1011 i"
b1011 c"
b1011 d"
b1011 )"
b1011 ("
b1011 %"
b1011 &"
1="
15"
0N"
1M"
0F"
1E"
b1010 '"
0,#
1+#
0t"
1s"
#30
0!
#31
1!
b1100 i"
b1100 c"
b1100 d"
b1100 )"
b1100 ("
b1100 %"
b1100 &"
0="
0<"
1;"
05"
04"
13"
1N"
1F"
b1011 '"
1,#
1t"
#32
0!
#33
1!
b1101 i"
b1101 c"
b1101 d"
b1101 )"
b1101 ("
b1101 %"
b1101 &"
1="
15"
0N"
0M"
1L"
0F"
0E"
1D"
b1100 '"
0,#
0+#
1*#
0t"
0s"
1r"
#34
0!
#35
1!
b1110 i"
b1110 c"
b1110 d"
b1110 )"
b1110 ("
b1110 %"
b1110 &"
0="
1<"
05"
14"
1N"
1F"
b1101 '"
1,#
1t"
#36
0!
#37
1!
b1111 i"
b1111 c"
b1111 d"
b1111 )"
b1111 ("
b1111 %"
b1111 &"
1="
15"
0N"
1M"
0F"
1E"
b1110 '"
0,#
1+#
0t"
1s"
#38
0!
#39
1!
b10000 i"
b10000 c"
b10000 d"
b10000 )"
b10000 ("
b10000 %"
b10000 &"
0="
0<"
0;"
0:"
19"
05"
04"
03"
02"
11"
1N"
1F"
b1111 '"
1,#
1t"
#40
0!
#41
1!
b10001 i"
b10001 c"
b10001 d"
b10001 )"
b10001 ("
b10001 %"
b10001 &"
1="
15"
0N"
0M"
0L"
0K"
1J"
0F"
0E"
0D"
0C"
1B"
b10000 '"
0,#
0+#
0*#
0)#
1(#
0t"
0s"
0r"
0q"
1p"
#42
0!
#43
1!
b10010 i"
b10010 c"
b10010 d"
b10010 )"
b10010 ("
b10010 %"
b10010 &"
0="
1<"
05"
14"
1N"
1F"
b10001 '"
1,#
1t"
#44
0!
#45
1!
b10011 i"
b10011 c"
b10011 d"
b10011 )"
b10011 ("
b10011 %"
b10011 &"
1="
15"
0N"
1M"
0F"
1E"
b10010 '"
0,#
1+#
0t"
1s"
#46
0!
#47
1!
b10100 i"
b10100 c"
b10100 d"
b10100 )"
b10100 ("
b10100 %"
b10100 &"
0="
0<"
1;"
05"
04"
13"
1N"
1F"
b10011 '"
1,#
1t"
#48
0!
#49
1!
b10101 i"
b10101 c"
b10101 d"
b10101 )"
b10101 ("
b10101 %"
b10101 &"
1="
15"
0N"
0M"
1L"
0F"
0E"
1D"
b10100 '"
0,#
0+#
1*#
0t"
0s"
1r"
#50
0!
#51
1!
b10110 i"
b10110 c"
b10110 d"
b10110 )"
b10110 ("
b10110 %"
b10110 &"
0="
1<"
05"
14"
1N"
1F"
b10101 '"
1,#
1t"
#52
0!
#53
1!
b10111 i"
b10111 c"
b10111 d"
b10111 )"
b10111 ("
b10111 %"
b10111 &"
1="
15"
0N"
1M"
0F"
1E"
b10110 '"
0,#
1+#
0t"
1s"
#54
0!
#55
1!
b11000 i"
b11000 c"
b11000 d"
b11000 )"
b11000 ("
b11000 %"
b11000 &"
0="
0<"
0;"
1:"
05"
04"
03"
12"
1N"
1F"
b10111 '"
1,#
1t"
#56
0!
#57
1!
b11001 i"
b11001 c"
b11001 d"
b11001 )"
b11001 ("
b11001 %"
b11001 &"
1="
15"
0N"
0M"
0L"
1K"
0F"
0E"
0D"
1C"
b11000 '"
0,#
0+#
0*#
1)#
0t"
0s"
0r"
1q"
#58
0!
#59
1!
b11010 i"
b11010 c"
b11010 d"
b11010 )"
b11010 ("
b11010 %"
b11010 &"
0="
1<"
05"
14"
1N"
1F"
b11001 '"
1,#
1t"
#60
0!
#61
1!
b11011 i"
b11011 c"
b11011 d"
b11011 )"
b11011 ("
b11011 %"
b11011 &"
1="
15"
0N"
1M"
0F"
1E"
b11010 '"
0,#
1+#
0t"
1s"
#62
0!
#63
1!
b11100 i"
b11100 c"
b11100 d"
b11100 )"
b11100 ("
b11100 %"
b11100 &"
0="
0<"
1;"
05"
04"
13"
1N"
1F"
b11011 '"
1,#
1t"
#64
0!
#65
1!
b11101 i"
b11101 c"
b11101 d"
b11101 )"
b11101 ("
b11101 %"
b11101 &"
1="
15"
0N"
0M"
1L"
0F"
0E"
1D"
b11100 '"
0,#
0+#
1*#
0t"
0s"
1r"
#66
0!
#67
1!
b11110 i"
b11110 c"
b11110 d"
b11110 )"
b11110 ("
b11110 %"
b11110 &"
0="
1<"
05"
14"
1N"
1F"
b11101 '"
1,#
1t"
#68
0!
#69
1!
b11111 i"
b11111 c"
b11111 d"
b11111 )"
b11111 ("
b11111 %"
b11111 &"
1="
15"
0N"
1M"
0F"
1E"
b11110 '"
0,#
1+#
0t"
1s"
#70
0!
#71
1!
b100000 i"
b100000 c"
b100000 d"
b100000 )"
b100000 ("
b100000 %"
b100000 &"
0="
0<"
0;"
0:"
09"
18"
05"
04"
03"
02"
01"
10"
1N"
1F"
b11111 '"
1,#
1t"
#72
0!
#73
1!
b100001 i"
b100001 c"
b100001 d"
b100001 )"
b100001 ("
b100001 %"
b100001 &"
1="
15"
0N"
0M"
0L"
0K"
0J"
1I"
0F"
0E"
0D"
0C"
0B"
1A"
b100000 '"
0,#
0+#
0*#
0)#
0(#
1'#
0t"
0s"
0r"
0q"
0p"
1o"
#74
0!
#75
1!
b100010 i"
b100010 c"
b100010 d"
b100010 )"
b100010 ("
b100010 %"
b100010 &"
0="
1<"
05"
14"
1N"
1F"
b100001 '"
1,#
1t"
#76
0!
#77
1!
b100011 i"
b100011 c"
b100011 d"
b100011 )"
b100011 ("
b100011 %"
b100011 &"
1="
15"
0N"
1M"
0F"
1E"
b100010 '"
0,#
1+#
0t"
1s"
#78
0!
#79
1!
b100100 i"
b100100 c"
b100100 d"
b100100 )"
b100100 ("
b100100 %"
b100100 &"
0="
0<"
1;"
05"
04"
13"
1N"
1F"
b100011 '"
1,#
1t"
#80
0!
#81
1!
b100101 i"
b100101 c"
b100101 d"
b100101 )"
b100101 ("
b100101 %"
b100101 &"
1="
15"
0N"
0M"
1L"
0F"
0E"
1D"
b100100 '"
0,#
0+#
1*#
0t"
0s"
1r"
#82
0!
#83
1!
b100110 i"
b100110 c"
b100110 d"
b100110 )"
b100110 ("
b100110 %"
b100110 &"
0="
1<"
05"
14"
1N"
1F"
b100101 '"
1,#
1t"
#84
0!
#85
1!
b100111 i"
b100111 c"
b100111 d"
b100111 )"
b100111 ("
b100111 %"
b100111 &"
1="
15"
0N"
1M"
0F"
1E"
b100110 '"
0,#
1+#
0t"
1s"
#86
0!
#87
1!
b101000 i"
b101000 c"
b101000 d"
b101000 )"
b101000 ("
b101000 %"
b101000 &"
0="
0<"
0;"
1:"
05"
04"
03"
12"
1N"
1F"
b100111 '"
1,#
1t"
#88
0!
#89
1!
b101001 i"
b101001 c"
b101001 d"
b101001 )"
b101001 ("
b101001 %"
b101001 &"
1="
15"
0N"
0M"
0L"
1K"
0F"
0E"
0D"
1C"
b101000 '"
0,#
0+#
0*#
1)#
0t"
0s"
0r"
1q"
#90
0!
#91
1!
b101010 i"
b101010 c"
b101010 d"
b101010 )"
b101010 ("
b101010 %"
b101010 &"
0="
1<"
05"
14"
1N"
1F"
b101001 '"
1,#
1t"
#92
0!
