lab1/task4/statemachine.rtl.vcd
$date
	Fri Dec  4 08:25:59 2020
$end
$version
	ModelSim Version 10.7c
$end
$timescale
	1ps
$end

$scope module statemachine_ag $end

$scope module dut $end
$var wire 1 ! slow_clock $end
$var wire 1 " resetb $end
$var wire 1 # dscore [3] $end
$var wire 1 $ dscore [2] $end
$var wire 1 % dscore [1] $end
$var wire 1 & dscore [0] $end
$var wire 1 ' pscore [3] $end
$var wire 1 ( pscore [2] $end
$var wire 1 ) pscore [1] $end
$var wire 1 * pscore [0] $end
$var wire 1 + pcard3 [3] $end
$var wire 1 , pcard3 [2] $end
$var wire 1 - pcard3 [1] $end
$var wire 1 . pcard3 [0] $end
$var wire 1 / load_pcard1 $end
$var wire 1 0 load_pcard2 $end
$var wire 1 1 load_pcard3 $end
$var wire 1 2 load_dcard1 $end
$var wire 1 3 load_dcard2 $end
$var wire 1 4 load_dcard3 $end
$var wire 1 5 player_win_light $end
$var wire 1 6 dealer_win_light $end
$var reg 8 7 out [7:0] $end
$var wire 1 8 present_state [2] $end
$var wire 1 9 present_state [1] $end
$var wire 1 : present_state [0] $end
$var wire 1 ; next_state_rst [2] $end
$var wire 1 < next_state_rst [1] $end
$var wire 1 = next_state_rst [0] $end
$var reg 3 > next_state [2:0] $end

$scope module STATE $end
$var parameter 32 ? n $end
$var wire 1 ! clk $end
$var wire 1 ; D [2] $end
$var wire 1 < D [1] $end
$var wire 1 = D [0] $end
$var reg 3 @ Q [2:0] $end
$upscope $end
$upscope $end
$upscope $end
$enddefinitions $end
#0
$dumpvars
b0 7
b1 >
b0 @
b11 ?
0/
00
01
02
03
04
05
06
0:
09
08
0=
0<
0;
0.
0-
0,
0+
0*
0)
0(
0'
0&
0%
0$
0#
0"
1!
$end
#13002
0!
#25836
1!
#70952
0!
#83786
1!
#128902
0!
#141736
1!
#186852
0!
#199686
1!
#244802
0!
#257636
1!
#302752
0!
#315586
1!
#360702
0!
#373536
1!
#418652
0!
#431486
1!
#476602
0!
#489436
1!
#534552
0!
#547386
1!
#592502
0!
#605336
1!
#650452
0!
#663286
1!
#708402
0!
#721236
1!
#766352
0!
#779186
1!
#824302
0!
#837136
1!
#882252
0!
#895086
1!
#928200
1"
1=
#928300
0"
0=
#928400
1"
1=
#941402
0!
#954236
1!
b1 @
1:
b11 >
b10000000 7
1/
1<
#1018773
0"
0=
0<
#1031775
0!
#1044609
1!
b0 @
0:
b1 >
b0 7
0/
#1089725
0!
#1102559
1!
#1147675
0!
#1160509
1!
#1205625
0!
#1218459
1!
#1263575
0!
#1276409
1!
#1321525
0!
#1334359
1!
#1379475
0!
#1392309
1!
#1437425
0!
#1450259
1!
#1495375
0!
#1508209
1!
#1553325
0!
#1566159
1!
#1611275
0!
#1624109
1!
#1669225
0!
#1682059
1!
#1727175
0!
#1740009
1!
#1785125
0!
#1797959
1!
#1843075
0!
#1855909
1!
#1901025
0!
#1913859
1!
#1946973
1"
1=
#1947073
0"
0=
#1947173
1"
1=
#1960175
0!
#1973009
1!
b1 @
1:
b11 >
b10000000 7
1/
1<
#2037546
0"
0=
0<
#2050548
0!
#2063382
1!
b0 @
0:
b1 >
b0 7
0/
#2108498
0!
#2121332
1!
#2166448
0!
#2179282
1!
#2224398
0!
#2237232
1!
#2282348
0!
#2295182
1!
#2340298
0!
#2353132
1!
#2398248
0!
#2411082
1!
#2456198
0!
#2469032
1!
#2514148
0!
#2526982
1!
#2572098
0!
#2584932
1!
#2630048
0!
#2642882
1!
#2687998
0!
#2700832
1!
#2745948
0!
#2758782
1!
#2803898
0!
#2816732
1!
#2861848
0!
#2874682
1!
#2919798
0!
#2932632
1!
#2965746
1"
1=
#2965846
0"
0=
#2965946
1"
1=
#2978948
0!
#2991782
1!
b1 @
1:
b11 >
b10000000 7
1/
1<
#3036898
0!
#3049732
1!
b11 @
19
b10 >
b10000 7
12
0/
0=
#3085380
0"
0<
#3098382
0!
#3111216
1!
b0 @
0:
09
b1 >
b0 7
02
#3156332
0!
#3169166
1!
#3214282
0!
#3227116
1!
#3272232
0!
#3285066
1!
#3330182
0!
#3343016
1!
#3388132
0!
#3400966
1!
#3446082
0!
#3458916
1!
#3504032
0!
#3516866
1!
#3561982
0!
#3574816
1!
#3619932
0!
#3632766
1!
#3677882
0!
#3690716
1!
#3735832
0!
#3748666
1!
#3793782
0!
#3806616
1!
#3851732
0!
#3864566
1!
#3909682
0!
#3922516
1!
#3967632
0!
#3980466
1!
#4013580
1"
1=
#4013680
0"
0=
#4013780
1"
1=
#4026782
0!
#4039616
1!
b1 @
1:
b11 >
b10000000 7
1/
1<
#4084732
0!
#4097566
1!
b11 @
19
b10 >
b10000 7
12
0/
0=
#4133214
0"
0<
#4146216
0!
#4159050
1!
b0 @
0:
09
b1 >
b0 7
02
#4204166
0!
#4217000
1!
#4262116
0!
#4274950
1!
#4320066
0!
#4332900
1!
#4378016
0!
#4390850
1!
#4435966
0!
#4448800
1!
#4493916
0!
#4506750
1!
#4551866
0!
#4564700
1!
#4609816
0!
#4622650
1!
#4667766
0!
#4680600
1!
#4725716
0!
#4738550
1!
#4783666
0!
#4796500
1!
#4841616
0!
#4854450
1!
#4899566
0!
#4912400
1!
#4957516
0!
#4970350
1!
#5015466
0!
#5028300
1!
#5061414
1"
1=
#5061514
0"
0=
#5061614
1"
1=
#5074616
0!
#5087450
1!
b1 @
1:
b11 >
b10000000 7
1/
1<
#5132566
0!
#5145400
1!
b11 @
19
b10 >
b10000 7
12
0/
0=
#5190516
0!
#5203350
1!
b10 @
0:
b100 >
b1000000 7
02
10
0<
1;
#6118931
0"
0;
#6131933
0!
#6144767
1!
b0 @
09
b1 >
b0 7
00
#6189883
0!
#6202717
1!
#6247833
0!
#6260667
1!
#6305783
0!
#6318617
1!
#6363733
0!
#6376567
1!
#6421683
0!
#6434517
1!
#6479633
0!
#6492467
1!
#6537583
0!
#6550417
1!
#6595533
0!
#6608367
1!
#6653483
0!
#6666317
1!
#6711433
0!
#6724267
1!
#6769383
0!
#6782217
1!
#6827333
0!
#6840167
1!
#6885283
0!
#6898117
1!
#6943233
0!
#6956067
1!
#7001183
0!
#7014017
1!
#7047131
1"
1=
#7047231
0"
0=
#7047331
1"
1=
#7060333
0!
#7073167
1!
b1 @
1:
b11 >
b10000000 7
1/
1<
#7118283
0!
#7131117
1!
b11 @
19
b10 >
b10000 7
12
0/
0=
#7176233
0!
#7189067
1!
b10 @
0:
b100 >
b1000000 7
02
10
0<
1;
#8104648
0"
0;
#8117650
0!
#8130484
1!
b0 @
09
b1 >
b0 7
00
#8175600
0!
#8188434
1!
#8233550
0!
#8246384
1!
#8291500
0!
#8304334
1!
#8349450
0!
#8362284
1!
#8407400
0!
#8420234
1!
#8465350
0!
#8478184
1!
#8523300
0!
#8536134
1!
#8581250
0!
#8594084
1!
#8639200
0!
#8652034
1!
#8697150
0!
#8709984
1!
#8755100
0!
#8767934
1!
#8813050
0!
#8825884
1!
#8871000
0!
#8883834
1!
#8928950
0!
#8941784
1!
#8986900
0!
#8999734
1!
#9032848
1"
1=
#9032948
0"
0=
#9033048
1"
1=
#9046050
0!
#9058884
1!
b1 @
1:
b11 >
b10000000 7
1/
1<
#9104000
0!
#9116834
1!
b11 @
19
b10 >
b10000 7
12
0/
0=
#9161950
0!
#9174784
1!
b10 @
0:
b100 >
b1000000 7
02
10
0<
1;
#9219900
0!
#9232734
1!
b100 @
09
18
b0 >
b1000 7
13
00
0;
#9653315
0"
#9666317
0!
#9679151
1!
b0 @
08
b1 >
b0 7
03
#9724267
0!
#9737101
1!
#9782217
0!
#9795051
1!
#9840167
0!
#9853001
1!
#9898117
0!
#9910951
1!
#9956067
0!
#9968901
1!
#10014017
0!
#10026851
1!
#10071967
0!
#10084801
1!
#10129917
0!
#10142751
1!
#10187867
0!
#10200701
1!
#10245817
0!
#10258651
1!
#10303767
0!
#10316601
1!
#10361717
0!
#10374551
1!
#10419667
0!
#10432501
1!
#10477617
0!
#10490451
1!
#10535567
0!
#10548401
1!
#10581515
1"
1=
#10581615
0"
0=
#10581715
1"
1=
#10594717
0!
#10607551
1!
b1 @
1:
b11 >
b10000000 7
1/
1<
#10652667
0!
#10665501
1!
b11 @
19
b10 >
b10000 7
12
0/
0=
#10710617
0!
#10723451
1!
b10 @
0:
b100 >
b1000000 7
02
10
0<
1;
#10768567
0!
#10781401
1!
b100 @
09
18
b0 >
b1000 7
13
00
0;
