lab2/task3/circle.rtl.vcd
$date
	Tue Oct 27 14:09:16 2020
$end
$version
	ModelSim Version 10.7c
$end
$timescale
	1ps
$end

$scope module circle_ag $end

$scope module dut $end
$var wire 1 ! clk $end
$var wire 1 " rst_n $end
$var wire 1 # colour [2] $end
$var wire 1 $ colour [1] $end
$var wire 1 % colour [0] $end
$var wire 1 & centre_x [7] $end
$var wire 1 ' centre_x [6] $end
$var wire 1 ( centre_x [5] $end
$var wire 1 ) centre_x [4] $end
$var wire 1 * centre_x [3] $end
$var wire 1 + centre_x [2] $end
$var wire 1 , centre_x [1] $end
$var wire 1 - centre_x [0] $end
$var wire 1 . centre_y [6] $end
$var wire 1 / centre_y [5] $end
$var wire 1 0 centre_y [4] $end
$var wire 1 1 centre_y [3] $end
$var wire 1 2 centre_y [2] $end
$var wire 1 3 centre_y [1] $end
$var wire 1 4 centre_y [0] $end
$var wire 1 5 radius [7] $end
$var wire 1 6 radius [6] $end
$var wire 1 7 radius [5] $end
$var wire 1 8 radius [4] $end
$var wire 1 9 radius [3] $end
$var wire 1 : radius [2] $end
$var wire 1 ; radius [1] $end
$var wire 1 < radius [0] $end
$var wire 1 = start $end
$var reg 1 > done $end
$var reg 8 ? vga_x [7:0] $end
$var reg 7 @ vga_y [6:0] $end
$var reg 3 A vga_colour [2:0] $end
$var reg 1 B vga_plot $end
$var integer 32 C offset_x $end
$var integer 32 D offset_y $end
$var integer 32 E crit $end
$var integer 32 F val_x $end
$var integer 32 G val_y $end
$var reg 4 H state [3:0] $end
$var reg 2 I out [1:0] $end
$upscope $end
$upscope $end
$enddefinitions $end
#0
$dumpvars
0>
b0 ?
b0 @
b10 A
0B
b0 H
b0 I
b101000 C
b0 D
b11111111111111111111111111011001 E
b0 F
b0 G
x=
0<
0;
0:
19
08
17
06
05
04
03
12
11
10
1/
0.
0-
0,
0+
0*
1)
0(
1'
0&
0%
1$
0#
x"
1!
$end
#5
0!
0=
1"
#8
0"
#10
1!
#11
1=
1"
#15
0!
#20
1!
b1111000 F
b111100 G
b1 H
b1 I
1B
b111100 @
b1111000 ?
#25
0!
#30
1!
b1010000 F
b1100100 G
b10 H
b1100100 @
b1010000 ?
#35
0!
#40
1!
b101000 F
b111100 G
b100 H
b111100 @
b101000 ?
#45
0!
#50
1!
b1010000 F
b1100100 G
b11 H
b1100100 @
b1010000 ?
#55
0!
#60
1!
b101000 F
b111100 G
b101 H
b111100 @
b101000 ?
#65
0!
#70
1!
b1010000 F
b10100 G
b110 H
b10100 @
b1010000 ?
#75
0!
#80
1!
b1111000 F
b111100 G
b1000 H
b111100 @
b1111000 ?
#85
0!
#90
1!
b1010000 F
b10100 G
b0 H
b1 D
b10100 @
b1010000 ?
#95
0!
#100
1!
b11111111111111111111111111011100 E
b1111000 F
b111101 G
b1 H
b111101 @
b1111000 ?
#105
0!
#110
1!
b1010001 F
b1100100 G
b10 H
b1100100 @
b1010001 ?
#115
0!
#120
1!
b101000 F
b111101 G
b100 H
b111101 @
b101000 ?
#125
0!
#130
1!
b1001111 F
b1100100 G
b11 H
b1100100 @
b1001111 ?
#135
0!
#140
1!
b101000 F
b111011 G
b101 H
b111011 @
b101000 ?
#145
0!
#150
1!
b1001111 F
b10100 G
b110 H
b10100 @
b1001111 ?
#155
0!
#160
1!
b1111000 F
b111011 G
b1000 H
b111011 @
b1111000 ?
#165
0!
#170
1!
b1010001 F
b10100 G
b0 H
b10 D
b10100 @
b1010001 ?
#175
0!
#180
1!
b11111111111111111111111111100001 E
b1111000 F
b111110 G
b1 H
b111110 @
b1111000 ?
#185
0!
#190
1!
b1010010 F
b1100100 G
b10 H
b1100100 @
b1010010 ?
#195
0!
#200
1!
b101000 F
b111110 G
b100 H
b111110 @
b101000 ?
#205
0!
#210
1!
b1001110 F
b1100100 G
b11 H
b1100100 @
b1001110 ?
#215
0!
#220
1!
b101000 F
b111010 G
b101 H
b111010 @
b101000 ?
#225
0!
#230
1!
b1001110 F
b10100 G
b110 H
b10100 @
b1001110 ?
#235
0!
#240
1!
b1111000 F
b111010 G
b1000 H
b111010 @
b1111000 ?
#245
0!
#250
1!
b1010010 F
b10100 G
b0 H
b11 D
b10100 @
b1010010 ?
#255
0!
#260
1!
b11111111111111111111111111101000 E
b1111000 F
b111111 G
b1 H
b111111 @
b1111000 ?
#265
0!
#270
1!
b1010011 F
b1100100 G
b10 H
b1100100 @
b1010011 ?
#275
0!
#280
1!
b101000 F
b111111 G
b100 H
b111111 @
b101000 ?
#285
0!
#290
1!
b1001101 F
b1100100 G
b11 H
b1100100 @
b1001101 ?
#295
0!
#300
1!
b101000 F
b111001 G
b101 H
b111001 @
b101000 ?
#305
0!
#310
1!
b1001101 F
b10100 G
b110 H
b10100 @
b1001101 ?
#315
0!
#320
1!
b1111000 F
b111001 G
b1000 H
b111001 @
b1111000 ?
#325
0!
#330
1!
b1010011 F
b10100 G
b0 H
b100 D
b10100 @
b1010011 ?
#335
0!
#340
1!
b11111111111111111111111111110001 E
b1111000 F
b1000000 G
b1 H
b1000000 @
b1111000 ?
#345
0!
#350
1!
b1010100 F
b1100100 G
b10 H
b1100100 @
b1010100 ?
#355
0!
#360
1!
b101000 F
b1000000 G
b100 H
b1000000 @
b101000 ?
#365
0!
#370
1!
b1001100 F
b1100100 G
b11 H
b1100100 @
b1001100 ?
#375
0!
#380
1!
b101000 F
b111000 G
b101 H
b111000 @
b101000 ?
#385
0!
#390
1!
b1001100 F
b10100 G
b110 H
b10100 @
b1001100 ?
#395
0!
#400
1!
b1111000 F
b111000 G
b1000 H
b111000 @
b1111000 ?
#405
0!
#410
1!
b1010100 F
b10100 G
b0 H
b101 D
b10100 @
b1010100 ?
#415
0!
#420
1!
b11111111111111111111111111111100 E
b1111000 F
b1000001 G
b1 H
b1000001 @
b1111000 ?
#425
0!
#430
1!
b1010101 F
b1100100 G
b10 H
b1100100 @
b1010101 ?
#435
0!
#440
1!
b101000 F
b1000001 G
b100 H
b1000001 @
b101000 ?
#445
0!
#450
1!
b1001011 F
b1100100 G
b11 H
b1100100 @
b1001011 ?
#455
0!
#460
1!
b101000 F
b110111 G
b101 H
b110111 @
b101000 ?
#465
0!
#470
1!
b1001011 F
b10100 G
b110 H
b10100 @
b1001011 ?
#475
0!
#480
1!
b1111000 F
b110111 G
b1000 H
b110111 @
b1111000 ?
#485
0!
#490
1!
b1010101 F
b10100 G
b0 H
b110 D
b10100 @
b1010101 ?
#495
0!
#500
1!
b1001 E
b1111000 F
b1000010 G
b1 H
b1000010 @
b1111000 ?
#505
0!
#510
1!
b1010110 F
b1100100 G
b10 H
b1100100 @
b1010110 ?
#515
0!
#520
1!
b101000 F
b1000010 G
b100 H
b1000010 @
b101000 ?
#525
0!
#530
1!
b1001010 F
b1100100 G
b11 H
b1100100 @
b1001010 ?
#535
0!
#540
1!
b101000 F
b110110 G
b101 H
b110110 @
b101000 ?
#545
0!
#550
1!
b1001010 F
b10100 G
b110 H
b10100 @
b1001010 ?
#555
0!
#560
1!
b1111000 F
b110110 G
b1000 H
b110110 @
b1111000 ?
#565
0!
#570
1!
b1010110 F
b10100 G
b0 H
b111 D
b10100 @
b1010110 ?
#575
0!
#580
1!
b100111 C
b11111111111111111111111111001010 E
b1110111 F
b1000011 G
b1 H
b1000011 @
b1110111 ?
#585
0!
#590
1!
b1010111 F
b1100011 G
b10 H
b1100011 @
b1010111 ?
#595
0!
#600
1!
b101001 F
b1000011 G
b100 H
b1000011 @
b101001 ?
#605
0!
#610
1!
b1001001 F
b1100011 G
b11 H
b1100011 @
b1001001 ?
#615
0!
#620
1!
b101001 F
b110101 G
b101 H
b110101 @
b101001 ?
#625
0!
#630
1!
b1001001 F
b10101 G
b110 H
b10101 @
b1001001 ?
#635
0!
#640
1!
b1110111 F
b110101 G
b1000 H
b110101 @
b1110111 ?
#645
0!
#650
1!
b1010111 F
b10101 G
b0 H
b1000 D
b10101 @
b1010111 ?
#655
0!
#660
1!
b11111111111111111111111111011011 E
b1110111 F
b1000100 G
b1 H
b1000100 @
b1110111 ?
#665
0!
#670
1!
b1011000 F
b1100011 G
b10 H
b1100011 @
b1011000 ?
#675
0!
#680
1!
b101001 F
b1000100 G
b100 H
b1000100 @
b101001 ?
#685
0!
#690
1!
b1001000 F
b1100011 G
b11 H
b1100011 @
b1001000 ?
#695
0!
#700
1!
b101001 F
b110100 G
b101 H
b110100 @
b101001 ?
#705
0!
#710
1!
b1001000 F
b10101 G
b110 H
b10101 @
b1001000 ?
#715
0!
#720
1!
b1110111 F
b110100 G
b1000 H
b110100 @
b1110111 ?
#725
0!
#730
1!
b1011000 F
b10101 G
b0 H
b1001 D
b10101 @
b1011000 ?
#735
0!
#740
1!
b11111111111111111111111111101110 E
b1110111 F
b1000101 G
b1 H
b1000101 @
b1110111 ?
#745
0!
#750
1!
b1011001 F
b1100011 G
b10 H
b1100011 @
b1011001 ?
#755
0!
#760
1!
b101001 F
b1000101 G
b100 H
b1000101 @
b101001 ?
#765
0!
#770
1!
b1000111 F
b1100011 G
b11 H
b1100011 @
b1000111 ?
#775
0!
#780
1!
b101001 F
b110011 G
b101 H
b110011 @
b101001 ?
#785
0!
#790
1!
b1000111 F
b10101 G
b110 H
b10101 @
b1000111 ?
#795
0!
#800
1!
b1110111 F
b110011 G
b1000 H
b110011 @
b1110111 ?
#805
0!
#810
1!
b1011001 F
b10101 G
b0 H
b1010 D
b10101 @
b1011001 ?
#815
0!
#820
1!
b11 E
b1110111 F
b1000110 G
b1 H
b1000110 @
b1110111 ?
#825
0!
#830
1!
b1011010 F
b1100011 G
b10 H
b1100011 @
b1011010 ?
#835
0!
#840
1!
b101001 F
b1000110 G
b100 H
b1000110 @
b101001 ?
#845
0!
#850
1!
b1000110 F
b1100011 G
b11 H
b1100011 @
b1000110 ?
#855
0!
#860
1!
b101001 F
b110010 G
b101 H
b110010 @
b101001 ?
#865
0!
#870
1!
b1000110 F
b10101 G
b110 H
b10101 @
b1000110 ?
#875
0!
#880
1!
b1110111 F
b110010 G
b1000 H
b110010 @
b1110111 ?
#885
0!
#890
1!
b1011010 F
b10101 G
b0 H
b1011 D
b10101 @
b1011010 ?
#895
0!
#900
1!
b100110 C
b11111111111111111111111111001110 E
b1110110 F
b1000111 G
b1 H
b1000111 @
b1110110 ?
#905
0!
#910
1!
b1011011 F
b1100010 G
b10 H
b1100010 @
b1011011 ?
#915
0!
#920
1!
b101010 F
b1000111 G
b100 H
b1000111 @
b101010 ?
#925
0!
#930
1!
b1000101 F
b1100010 G
b11 H
b1100010 @
b1000101 ?
#935
0!
#940
1!
b101010 F
b110001 G
b101 H
b110001 @
b101010 ?
#945
0!
#950
1!
b1000101 F
b10110 G
b110 H
b10110 @
b1000101 ?
#955
0!
#960
1!
b1110110 F
b110001 G
b1000 H
b110001 @
b1110110 ?
#965
0!
#970
1!
b1011011 F
b10110 G
b0 H
b1100 D
b10110 @
b1011011 ?
#975
0!
#980
1!
b11111111111111111111111111100111 E
b1110110 F
b1001000 G
b1 H
b1001000 @
b1110110 ?
#985
0!
#990
1!
b1011100 F
b1100010 G
b10 H
b1100010 @
b1011100 ?
#995
0!
#1000
1!
b101010 F
b1001000 G
b100 H
b1001000 @
b101010 ?
#1005
0!
#1010
1!
b1000100 F
b1100010 G
b11 H
b1100010 @
b1000100 ?
#1015
0!
#1020
1!
b101010 F
b110000 G
b101 H
b110000 @
b101010 ?
#1025
0!
#1030
1!
b1000100 F
b10110 G
b110 H
b10110 @
b1000100 ?
#1035
0!
#1040
1!
b1110110 F
b110000 G
b1000 H
b110000 @
b1110110 ?
#1045
0!
#1050
1!
b1011100 F
b10110 G
b0 H
b1101 D
b10110 @
b1011100 ?
#1055
0!
#1060
1!
b10 E
b1110110 F
b1001001 G
b1 H
b1001001 @
b1110110 ?
#1065
0!
#1070
1!
b1011101 F
b1100010 G
b10 H
b1100010 @
b1011101 ?
#1075
0!
#1080
1!
b101010 F
b1001001 G
b100 H
b1001001 @
b101010 ?
#1085
0!
#1090
1!
b1000011 F
b1100010 G
b11 H
b1100010 @
b1000011 ?
#1095
0!
#1100
1!
b101010 F
b101111 G
b101 H
b101111 @
b101010 ?
#1105
0!
#1110
1!
b1000011 F
b10110 G
b110 H
b10110 @
b1000011 ?
#1115
0!
#1120
1!
b1110110 F
b101111 G
b1000 H
b101111 @
b1110110 ?
#1125
0!
#1130
1!
b1011101 F
b10110 G
b0 H
b1110 D
b10110 @
b1011101 ?
#1135
0!
#1140
1!
b100101 C
b11111111111111111111111111010101 E
b1110101 F
b1001010 G
b1 H
b1001010 @
b1110101 ?
#1145
0!
#1150
1!
b1011110 F
b1100001 G
b10 H
b1100001 @
b1011110 ?
#1155
0!
#1160
1!
b101011 F
b1001010 G
b100 H
b1001010 @
b101011 ?
#1165
0!
#1170
1!
b1000010 F
b1100001 G
b11 H
b1100001 @
b1000010 ?
#1175
0!
#1180
1!
b101011 F
b101110 G
b101 H
b101110 @
b101011 ?
#1185
0!
#1190
1!
b1000010 F
b10111 G
b110 H
b10111 @
b1000010 ?
#1195
0!
#1200
1!
b1110101 F
b101110 G
b1000 H
b101110 @
b1110101 ?
#1205
0!
#1210
1!
b1011110 F
b10111 G
b0 H
b1111 D
b10111 @
b1011110 ?
#1215
0!
#1220
1!
b11111111111111111111111111110100 E
b1110101 F
b1001011 G
b1 H
b1001011 @
b1110101 ?
#1225
0!
#1230
1!
b1011111 F
b1100001 G
b10 H
b1100001 @
b1011111 ?
#1235
0!
#1240
1!
b101011 F
b1001011 G
b100 H
b1001011 @
b101011 ?
#1245
0!
#1250
1!
b1000001 F
b1100001 G
b11 H
b1100001 @
b1000001 ?
#1255
0!
#1260
1!
b101011 F
b101101 G
b101 H
b101101 @
b101011 ?
#1265
0!
#1270
1!
b1000001 F
b10111 G
b110 H
b10111 @
b1000001 ?
#1275
0!
#1280
1!
b1110101 F
b101101 G
b1000 H
b101101 @
b1110101 ?
#1285
0!
#1290
1!
b1011111 F
b10111 G
b0 H
b10000 D
b10111 @
b1011111 ?
#1295
0!
#1300
1!
b10101 E
b1110101 F
b1001100 G
b1 H
b1001100 @
b1110101 ?
#1305
0!
#1310
1!
b1100000 F
b1100001 G
b10 H
b1100001 @
b1100000 ?
#1315
0!
#1320
1!
b101011 F
b1001100 G
b100 H
b1001100 @
b101011 ?
#1325
0!
#1330
1!
b1000000 F
b1100001 G
b11 H
b1100001 @
b1000000 ?
#1335
0!
#1340
1!
b101011 F
b101100 G
b101 H
b101100 @
b101011 ?
#1345
0!
#1350
1!
b1000000 F
b10111 G
b110 H
b10111 @
b1000000 ?
#1355
0!
#1360
1!
b1110101 F
b101100 G
b1000 H
b101100 @
b1110101 ?
#1365
0!
#1370
1!
b1100000 F
b10111 G
b0 H
b10001 D
b10111 @
b1100000 ?
#1375
0!
#1380
1!
b100100 C
b11111111111111111111111111110000 E
b1110100 F
b1001101 G
b1 H
b1001101 @
b1110100 ?
#1385
0!
#1390
1!
b1100001 F
b1100000 G
b10 H
b1100000 @
b1100001 ?
#1395
0!
#1400
1!
b101100 F
b1001101 G
b100 H
b1001101 @
b101100 ?
#1405
0!
#1410
1!
b111111 F
b1100000 G
b11 H
b1100000 @
b111111 ?
#1415
0!
#1420
1!
b101100 F
b101011 G
b101 H
b101011 @
b101100 ?
#1425
0!
#1430
1!
b111111 F
b11000 G
b110 H
b11000 @
b111111 ?
#1435
0!
#1440
1!
b1110100 F
b101011 G
b1000 H
b101011 @
b1110100 ?
#1445
0!
#1450
1!
b1100001 F
b11000 G
b0 H
b10010 D
b11000 @
b1100001 ?
#1455
0!
#1460
1!
b10101 E
b1110100 F
b1001110 G
b1 H
b1001110 @
b1110100 ?
#1465
0!
#1470
1!
b1100010 F
b1100000 G
b10 H
b1100000 @
b1100010 ?
#1475
0!
#1480
1!
b101100 F
b1001110 G
b100 H
b1001110 @
b101100 ?
#1485
0!
#1490
1!
b111110 F
b1100000 G
b11 H
b1100000 @
b111110 ?
#1495
0!
#1500
1!
b101100 F
b101010 G
b101 H
b101010 @
b101100 ?
#1505
0!
#1510
1!
b111110 F
b11000 G
b110 H
b11000 @
b111110 ?
#1515
0!
#1520
1!
b1110100 F
b101010 G
b1000 H
b101010 @
b1110100 ?
#1525
0!
#1530
1!
b1100010 F
b11000 G
b0 H
b10011 D
b11000 @
b1100010 ?
#1535
0!
#1540
1!
b100011 C
b11111111111111111111111111110110 E
b1110011 F
b1001111 G
b1 H
b1001111 @
b1110011 ?
#1545
0!
#1550
1!
b1100011 F
b1011111 G
b10 H
b1011111 @
b1100011 ?
#1555
0!
#1560
1!
b101101 F
b1001111 G
b100 H
b1001111 @
b101101 ?
#1565
0!
#1570
1!
b111101 F
b1011111 G
b11 H
b1011111 @
b111101 ?
#1575
0!
#1580
1!
b101101 F
b101001 G
b101 H
b101001 @
b101101 ?
#1585
0!
#1590
1!
b111101 F
b11001 G
b110 H
b11001 @
b111101 ?
#1595
0!
#1600
1!
b1110011 F
b101001 G
b1000 H
b101001 @
b1110011 ?
#1605
0!
#1610
1!
b1100011 F
b11001 G
b0 H
b10100 D
b11001 @
b1100011 ?
#1615
0!
#1620
1!
b11111 E
b1110011 F
b1010000 G
b1 H
b1010000 @
b1110011 ?
#1625
0!
#1630
1!
b1100100 F
b1011111 G
b10 H
b1011111 @
b1100100 ?
#1635
0!
#1640
1!
b101101 F
b1010000 G
b100 H
b1010000 @
b101101 ?
#1645
0!
#1650
1!
b111100 F
b1011111 G
b11 H
b1011111 @
b111100 ?
#1655
0!
#1660
1!
b101101 F
b101000 G
b101 H
b101000 @
b101101 ?
#1665
0!
#1670
1!
b111100 F
b11001 G
b110 H
b11001 @
b111100 ?
#1675
0!
#1680
1!
b1110011 F
b101000 G
b1000 H
b101000 @
b1110011 ?
#1685
0!
#1690
1!
b1100100 F
b11001 G
b0 H
b10101 D
b11001 @
b1100100 ?
#1695
0!
#1700
1!
b100010 C
b110 E
b1110010 F
b1010001 G
b1 H
b1010001 @
b1110010 ?
#1705
0!
#1710
1!
b1100101 F
b1011110 G
b10 H
b1011110 @
b1100101 ?
#1715
0!
#1720
1!
b101110 F
b1010001 G
b100 H
b1010001 @
b101110 ?
#1725
0!
#1730
1!
b111011 F
b1011110 G
b11 H
b1011110 @
b111011 ?
#1735
0!
#1740
1!
b101110 F
b100111 G
b101 H
b100111 @
b101110 ?
#1745
0!
#1750
1!
b111011 F
b11010 G
b110 H
b11010 @
b111011 ?
#1755
0!
#1760
1!
b1110010 F
b100111 G
b1000 H
b100111 @
b1110010 ?
#1765
0!
#1770
1!
b1100101 F
b11010 G
b0 H
b10110 D
b11010 @
b1100101 ?
#1775
0!
#1780
1!
b100001 C
b11111111111111111111111111110001 E
b1110001 F
b1010010 G
b1 H
b1010010 @
b1110001 ?
#1785
0!
#1790
1!
b1100110 F
b1011101 G
b10 H
b1011101 @
b1100110 ?
#1795
0!
#1800
1!
b101111 F
b1010010 G
b100 H
b1010010 @
b101111 ?
#1805
0!
#1810
1!
b111010 F
b1011101 G
b11 H
b1011101 @
b111010 ?
#1815
0!
#1820
1!
b101111 F
b100110 G
b101 H
b100110 @
b101111 ?
#1825
0!
#1830
1!
b111010 F
b11011 G
b110 H
b11011 @
b111010 ?
#1835
0!
#1840
1!
b1110001 F
b100110 G
b1000 H
b100110 @
b1110001 ?
#1845
0!
#1850
1!
b1100110 F
b11011 G
b0 H
b10111 D
b11011 @
b1100110 ?
#1855
0!
#1860
1!
b100000 E
b1110001 F
b1010011 G
b1 H
b1010011 @
b1110001 ?
#1865
0!
#1870
1!
b1100111 F
b1011101 G
b10 H
b1011101 @
b1100111 ?
#1875
0!
#1880
1!
b101111 F
b1010011 G
b100 H
b1010011 @
b101111 ?
#1885
0!
#1890
1!
b111001 F
b1011101 G
b11 H
b1011101 @
b111001 ?
#1895
0!
#1900
1!
b101111 F
b100101 G
b101 H
b100101 @
b101111 ?
#1905
0!
#1910
1!
b111001 F
b11011 G
b110 H
b11011 @
b111001 ?
#1915
0!
#1920
1!
b1110001 F
b100101 G
b1000 H
b100101 @
b1110001 ?
#1925
0!
#1930
1!
b1100111 F
b11011 G
b0 H
b11000 D
b11011 @
b1100111 ?
#1935
0!
#1940
1!
b100000 C
b10001 E
b1110000 F
b1010100 G
b1 H
b1010100 @
b1110000 ?
#1945
0!
#1950
1!
b1101000 F
b1011100 G
b10 H
b1011100 @
b1101000 ?
#1955
0!
#1960
1!
b110000 F
b1010100 G
b100 H
b1010100 @
b110000 ?
#1965
0!
#1970
1!
b111000 F
b1011100 G
b11 H
b1011100 @
b111000 ?
#1975
0!
#1980
1!
b110000 F
b100100 G
b101 H
b100100 @
b110000 ?
#1985
0!
#1990
1!
b111000 F
b11100 G
b110 H
b11100 @
b111000 ?
#1995
0!
#2000
1!
b1110000 F
b100100 G
b1000 H
b100100 @
b1110000 ?
#2005
0!
#2010
1!
b1101000 F
b11100 G
b0 H
b11001 D
b11100 @
b1101000 ?
#2015
0!
#2020
1!
b11111 C
b110 E
b1101111 F
b1010101 G
b1 H
b1010101 @
b1101111 ?
#2025
0!
#2030
1!
b1101001 F
b1011011 G
b10 H
b1011011 @
b1101001 ?
#2035
0!
#2040
1!
b110001 F
b1010101 G
b100 H
b1010101 @
b110001 ?
#2045
0!
#2050
1!
b110111 F
b1011011 G
b11 H
b1011011 @
b110111 ?
#2055
0!
#2060
1!
b110001 F
b100011 G
b101 H
b100011 @
b110001 ?
#2065
0!
#2070
1!
b110111 F
b11101 G
b110 H
b11101 @
b110111 ?
#2075
0!
#2080
1!
b1101111 F
b100011 G
b1000 H
b100011 @
b1101111 ?
#2085
0!
#2090
1!
b1101001 F
b11101 G
b0 H
b11010 D
b11101 @
b1101001 ?
#2095
0!
#2100
1!
b11110 C
b11111111111111111111111111111111 E
b1101110 F
b1010110 G
b1 H
b1010110 @
b1101110 ?
#2105
0!
#2110
1!
b1101010 F
b1011010 G
b10 H
b1011010 @
b1101010 ?
#2115
0!
#2120
1!
b110010 F
b1010110 G
b100 H
b1010110 @
b110010 ?
#2125
0!
#2130
1!
b110110 F
b1011010 G
b11 H
b1011010 @
b110110 ?
#2135
0!
#2140
1!
b110010 F
b100010 G
b101 H
b100010 @
b110010 ?
#2145
0!
#2150
1!
b110110 F
b11110 G
b110 H
b11110 @
b110110 ?
#2155
0!
#2160
1!
b1101110 F
b100010 G
b1000 H
b100010 @
b1101110 ?
#2165
0!
#2170
1!
b1101010 F
b11110 G
b0 H
b11011 D
b11110 @
b1101010 ?
#2175
0!
#2180
1!
b110110 E
b1101110 F
b1010111 G
b1 H
b1010111 @
b1101110 ?
#2185
0!
#2190
1!
b1101011 F
b1011010 G
b10 H
b1011010 @
b1101011 ?
#2195
0!
#2200
1!
b110010 F
b1010111 G
b100 H
b1010111 @
b110010 ?
#2205
0!
#2210
1!
b110101 F
b1011010 G
b11 H
b1011010 @
b110101 ?
#2215
0!
#2220
1!
b110010 F
b100001 G
b101 H
b100001 @
b110010 ?
#2225
0!
#2230
1!
b110101 F
b11110 G
b110 H
b11110 @
b110101 ?
#2235
0!
#2240
1!
b1101110 F
b100001 G
b1000 H
b100001 @
b1101110 ?
#2245
0!
#2250
1!
b1101011 F
b11110 G
b0 H
b11100 D
b11110 @
b1101011 ?
#2255
0!
#2260
1!
b11101 C
b110101 E
b1101101 F
b1011000 G
b1 H
b1011000 @
b1101101 ?
#2265
0!
#2270
1!
b1101100 F
b1011001 G
b10 H
b1011001 @
b1101100 ?
#2275
0!
#2280
1!
b110011 F
b1011000 G
b100 H
b1011000 @
b110011 ?
#2285
0!
#2290
1!
b110100 F
b1011001 G
b11 H
b1011001 @
b110100 ?
#2295
0!
#2300
1!
b110011 F
b100000 G
b101 H
b100000 @
b110011 ?
#2305
0!
#2310
1!
b110100 F
b11111 G
b110 H
b11111 @
b110100 ?
#2315
0!
#2320
1!
b1101101 F
b100000 G
b1000 H
b100000 @
b1101101 ?
#2325
0!
#2330
1!
b1101100 F
b11111 G
b0 H
b11101 D
b11111 @
b1101100 ?
#2335
0!
#2340
1!
b11100 C
b111000 E
b1001 H
b10 I
0B
1>
#2345
0!
#2350
1!
b101000 C
b0 D
b11111111111111111111111111011001 E
b0 F
b0 G
b0 @
b0 ?
0=
#2355
0!
#2360
1!
b0 H
b0 I
0>
