lab2/task2/fillscreen.rtl.vcd
$date
	Tue Oct 27 14:09:08 2020
$end
$version
	ModelSim Version 10.7c
$end
$timescale
	1ps
$end

$scope module fillscreen_ag $end

$scope module dut $end
$var wire 1 ! clk $end
$var wire 1 " rst_n $end
$var wire 1 # colour [2] $end
$var wire 1 $ colour [1] $end
$var wire 1 % colour [0] $end
$var wire 1 & start $end
$var reg 1 ' done $end
$var reg 8 ( vga_x [7:0] $end
$var reg 7 ) vga_y [6:0] $end
$var reg 3 * vga_colour [2:0] $end
$var reg 1 + vga_plot $end
$var reg 8 , current_x [7:0] $end
$var reg 7 - current_y [6:0] $end
$var reg 2 . state [1:0] $end
$var reg 2 / out [1:0] $end
$upscope $end
$upscope $end
$enddefinitions $end
#0
$dumpvars
x'
bx (
bx )
bx *
x+
bx ,
bx -
bx .
bx /
0&
1"
0!
z%
z$
z#
$end
#3
0"
b0 .
b0 ,
b0 -
b0 /
0+
0'
b0 )
b0 (
b0 *
#5
1!
#6
1"
#9
1&
#10
0!
#15
1!
b1 .
b1 /
1+
#20
0!
#25
1!
b1 -
b1 )
#30
0!
#35
1!
b10 -
b10 )
#40
0!
#45
1!
b11 -
b11 )
#50
0!
#55
1!
b100 -
b100 )
#60
0!
#65
1!
b101 -
b101 )
#70
0!
#75
1!
b110 -
b110 )
#80
0!
#85
1!
b111 -
b111 )
#90
0!
#95
1!
b1000 -
b1000 )
#100
0!
#105
1!
b1001 -
b1001 )
#110
0!
#115
1!
b1010 -
b1010 )
#120
0!
#125
1!
b1011 -
b1011 )
#130
0!
#135
1!
b1100 -
b1100 )
#140
0!
#145
1!
b1101 -
b1101 )
#150
0!
#155
1!
b1110 -
b1110 )
#160
0!
#165
1!
b1111 -
b1111 )
#170
0!
#175
1!
b10000 -
b10000 )
#180
0!
#185
1!
b10001 -
b10001 )
#190
0!
#195
1!
b10010 -
b10010 )
#200
0!
#205
1!
b10011 -
b10011 )
#210
0!
#215
1!
b10100 -
b10100 )
#220
0!
#225
1!
b10101 -
b10101 )
#230
0!
#235
1!
b10110 -
b10110 )
#240
0!
#245
1!
b10111 -
b10111 )
#250
0!
#255
1!
b11000 -
b11000 )
#260
0!
#265
1!
b11001 -
b11001 )
#270
0!
#275
1!
b11010 -
b11010 )
#280
0!
#285
1!
b11011 -
b11011 )
#290
0!
#295
1!
b11100 -
b11100 )
#300
0!
#305
1!
b11101 -
b11101 )
#310
0!
#315
1!
b11110 -
b11110 )
#320
0!
#325
1!
b11111 -
b11111 )
#330
0!
#335
1!
b100000 -
b100000 )
#340
0!
#345
1!
b100001 -
b100001 )
#350
0!
#355
1!
b100010 -
b100010 )
#360
0!
#365
1!
b100011 -
b100011 )
#370
0!
#375
1!
b100100 -
b100100 )
#380
0!
#385
1!
b100101 -
b100101 )
#390
0!
#395
1!
b100110 -
b100110 )
#400
0!
#405
1!
b100111 -
b100111 )
#410
0!
#415
1!
b101000 -
b101000 )
#420
0!
#425
1!
b101001 -
b101001 )
#430
0!
#435
1!
b101010 -
b101010 )
#440
0!
#445
1!
b101011 -
b101011 )
#450
0!
#455
1!
b101100 -
b101100 )
#460
0!
#465
1!
b101101 -
b101101 )
#470
0!
#475
1!
b101110 -
b101110 )
#480
0!
#485
1!
b101111 -
b101111 )
#490
0!
#495
1!
b110000 -
b110000 )
#500
0!
#505
1!
b110001 -
b110001 )
#510
0!
#515
1!
b110010 -
b110010 )
#520
0!
#525
1!
b110011 -
b110011 )
#530
0!
#535
1!
b110100 -
b110100 )
#540
0!
#545
1!
b110101 -
b110101 )
#550
0!
#555
1!
b110110 -
b110110 )
#560
0!
#565
1!
b110111 -
b110111 )
#570
0!
#575
1!
b111000 -
b111000 )
#580
0!
#585
1!
b111001 -
b111001 )
#590
0!
#595
1!
b111010 -
b111010 )
#600
0!
#605
1!
b111011 -
b111011 )
#610
0!
#615
1!
b111100 -
b111100 )
#620
0!
#625
1!
b111101 -
b111101 )
#630
0!
#635
1!
b111110 -
b111110 )
#640
0!
#645
1!
b111111 -
b111111 )
#650
0!
#655
1!
b1000000 -
b1000000 )
#660
0!
#665
1!
b1000001 -
b1000001 )
#670
0!
#675
1!
b1000010 -
b1000010 )
#680
0!
#685
1!
b1000011 -
b1000011 )
#690
0!
#695
1!
b1000100 -
b1000100 )
#700
0!
#705
1!
b1000101 -
b1000101 )
#710
0!
#715
1!
b1000110 -
b1000110 )
#720
0!
#725
1!
b1000111 -
b1000111 )
#730
0!
#735
1!
b1001000 -
b1001000 )
#740
0!
#745
1!
b1001001 -
b1001001 )
#750
0!
#755
1!
b1001010 -
b1001010 )
#760
0!
#765
1!
b1001011 -
b1001011 )
#770
0!
#775
1!
b1001100 -
b1001100 )
#780
0!
#785
1!
b1001101 -
b1001101 )
#790
0!
#795
1!
b1001110 -
b1001110 )
#800
0!
#805
1!
b1001111 -
b1001111 )
#810
0!
#815
1!
b1010000 -
b1010000 )
#820
0!
#825
1!
b1010001 -
b1010001 )
#830
0!
#835
1!
b1010010 -
b1010010 )
#840
0!
#845
1!
b1010011 -
b1010011 )
#850
0!
#855
1!
b1010100 -
b1010100 )
#860
0!
#865
1!
b1010101 -
b1010101 )
#870
0!
#875
1!
b1010110 -
b1010110 )
#880
0!
#885
1!
b1010111 -
b1010111 )
#890
0!
#895
1!
b1011000 -
b1011000 )
#900
0!
#905
1!
b1011001 -
b1011001 )
#910
0!
#915
1!
b1011010 -
b1011010 )
#920
0!
#925
1!
b1011011 -
b1011011 )
#930
0!
#935
1!
b1011100 -
b1011100 )
#940
0!
#945
1!
b1011101 -
b1011101 )
#950
0!
#955
1!
b1011110 -
b1011110 )
#960
0!
#965
1!
b1011111 -
b1011111 )
#970
0!
#975
1!
b1100000 -
b1100000 )
#980
0!
#985
1!
b1100001 -
b1100001 )
#990
0!
#995
1!
b1100010 -
b1100010 )
#1000
0!
#1005
1!
b1100011 -
b1100011 )
#1010
0!
#1015
1!
b1100100 -
b1100100 )
#1020
0!
#1025
1!
b1100101 -
b1100101 )
#1030
0!
#1035
1!
b1100110 -
b1100110 )
#1040
0!
#1045
1!
b1100111 -
b1100111 )
#1050
0!
#1055
1!
b1101000 -
b1101000 )
#1060
0!
#1065
1!
b1101001 -
b1101001 )
#1070
0!
#1075
1!
b1101010 -
b1101010 )
#1080
0!
#1085
1!
b1101011 -
b1101011 )
#1090
0!
#1095
1!
b1101100 -
b1101100 )
#1100
0!
#1105
1!
b1101101 -
b1101101 )
#1110
0!
#1115
1!
b1101110 -
b1101110 )
#1120
0!
#1125
1!
b1101111 -
b1101111 )
#1130
0!
#1135
1!
b1110000 -
b1110000 )
#1140
0!
#1145
1!
b1110001 -
b1110001 )
#1150
0!
#1155
1!
b1110010 -
b1110010 )
#1160
0!
#1165
1!
b1110011 -
b1110011 )
#1170
0!
#1175
1!
b1110100 -
b1110100 )
#1180
0!
#1185
1!
b1110101 -
b1110101 )
#1190
0!
#1195
1!
b1110110 -
b1110110 )
#1200
0!
#1205
1!
b1110111 -
b1110111 )
#1210
0!
#1215
1!
b1 ,
b1 (
b1 *
b0 -
b0 )
#1220
0!
#1225
1!
b1 -
b1 )
#1230
0!
#1235
1!
b10 -
b10 )
#1240
0!
#1245
1!
b11 -
b11 )
#1250
0!
#1255
1!
b100 -
b100 )
#1260
0!
#1265
1!
b101 -
b101 )
#1270
0!
#1275
1!
b110 -
b110 )
#1280
0!
#1285
1!
b111 -
b111 )
#1290
0!
#1295
1!
b1000 -
b1000 )
#1300
0!
#1305
1!
b1001 -
b1001 )
#1310
0!
#1315
1!
b1010 -
b1010 )
#1320
0!
#1325
1!
b1011 -
b1011 )
#1330
0!
#1335
1!
b1100 -
b1100 )
#1340
0!
#1345
1!
b1101 -
b1101 )
#1350
0!
#1355
1!
b1110 -
b1110 )
#1360
0!
#1365
1!
b1111 -
b1111 )
#1370
0!
#1375
1!
b10000 -
b10000 )
#1380
0!
#1385
1!
b10001 -
b10001 )
#1390
0!
#1395
1!
b10010 -
b10010 )
#1400
0!
#1405
1!
b10011 -
b10011 )
#1410
0!
#1415
1!
b10100 -
b10100 )
#1420
0!
#1425
1!
b10101 -
b10101 )
#1430
0!
#1435
1!
b10110 -
b10110 )
#1440
0!
#1445
1!
b10111 -
b10111 )
#1450
0!
#1455
1!
b11000 -
b11000 )
#1460
0!
#1465
1!
b11001 -
b11001 )
#1470
0!
#1475
1!
b11010 -
b11010 )
#1480
0!
#1485
1!
b11011 -
b11011 )
#1490
0!
#1495
1!
b11100 -
b11100 )
#1500
0!
#1505
1!
b11101 -
b11101 )
#1510
0!
#1515
1!
b11110 -
b11110 )
#1520
0!
#1525
1!
b11111 -
b11111 )
#1530
0!
#1535
1!
b100000 -
b100000 )
#1540
0!
#1545
1!
b100001 -
b100001 )
#1550
0!
#1555
1!
b100010 -
b100010 )
#1560
0!
#1565
1!
b100011 -
b100011 )
#1570
0!
#1575
1!
b100100 -
b100100 )
#1580
0!
#1585
1!
b100101 -
b100101 )
#1590
0!
#1595
1!
b100110 -
b100110 )
#1600
0!
#1605
1!
b100111 -
b100111 )
#1610
0!
#1615
1!
b101000 -
b101000 )
#1620
0!
#1625
1!
b101001 -
b101001 )
#1630
0!
#1635
1!
b101010 -
b101010 )
#1640
0!
#1645
1!
b101011 -
b101011 )
#1650
0!
#1655
1!
b101100 -
b101100 )
#1660
0!
#1665
1!
b101101 -
b101101 )
#1670
0!
#1675
1!
b101110 -
b101110 )
#1680
0!
#1685
1!
b101111 -
b101111 )
#1690
0!
#1695
1!
b110000 -
b110000 )
#1700
0!
#1705
1!
b110001 -
b110001 )
#1710
0!
#1715
1!
b110010 -
b110010 )
#1720
0!
#1725
1!
b110011 -
b110011 )
#1730
0!
#1735
1!
b110100 -
b110100 )
#1740
0!
#1745
1!
b110101 -
b110101 )
#1750
0!
#1755
1!
b110110 -
b110110 )
#1760
0!
#1765
1!
b110111 -
b110111 )
#1770
0!
#1775
1!
b111000 -
b111000 )
#1780
0!
#1785
1!
b111001 -
b111001 )
#1790
0!
#1795
1!
b111010 -
b111010 )
#1800
0!
#1805
1!
b111011 -
b111011 )
#1810
0!
#1815
1!
b111100 -
b111100 )
#1820
0!
#1825
1!
b111101 -
b111101 )
#1830
0!
#1835
1!
b111110 -
b111110 )
#1840
0!
#1845
1!
b111111 -
b111111 )
#1850
0!
#1855
1!
b1000000 -
b1000000 )
#1860
0!
#1865
1!
b1000001 -
b1000001 )
#1870
0!
#1875
1!
b1000010 -
b1000010 )
#1880
0!
#1885
1!
b1000011 -
b1000011 )
#1890
0!
#1895
1!
b1000100 -
b1000100 )
#1900
0!
#1905
1!
b1000101 -
b1000101 )
#1910
0!
#1915
1!
b1000110 -
b1000110 )
#1920
0!
#1925
1!
b1000111 -
b1000111 )
#1930
0!
#1935
1!
b1001000 -
b1001000 )
#1940
0!
#1945
1!
b1001001 -
b1001001 )
#1950
0!
#1955
1!
b1001010 -
b1001010 )
#1960
0!
#1965
1!
b1001011 -
b1001011 )
#1970
0!
#1975
1!
b1001100 -
b1001100 )
#1980
0!
#1985
1!
b1001101 -
b1001101 )
#1990
0!
#1995
1!
b1001110 -
b1001110 )
#2000
0!
#2005
1!
b1001111 -
b1001111 )
#2010
0!
#2015
1!
b1010000 -
b1010000 )
#2020
0!
#2025
1!
b1010001 -
b1010001 )
#2030
0!
#2035
1!
b1010010 -
b1010010 )
#2040
0!
#2045
1!
b1010011 -
b1010011 )
#2050
0!
#2055
1!
b1010100 -
b1010100 )
#2060
0!
#2065
1!
b1010101 -
b1010101 )
#2070
0!
#2075
1!
b1010110 -
b1010110 )
#2080
0!
#2085
1!
b1010111 -
b1010111 )
#2090
0!
#2095
1!
b1011000 -
b1011000 )
#2100
0!
#2105
1!
b1011001 -
b1011001 )
#2110
0!
#2115
1!
b1011010 -
b1011010 )
#2120
0!
#2125
1!
b1011011 -
b1011011 )
#2130
0!
#2135
1!
b1011100 -
b1011100 )
#2140
0!
#2145
1!
b1011101 -
b1011101 )
#2150
0!
#2155
1!
b1011110 -
b1011110 )
#2160
0!
#2165
1!
b1011111 -
b1011111 )
#2170
0!
#2175
1!
b1100000 -
b1100000 )
#2180
0!
#2185
1!
b1100001 -
b1100001 )
#2190
0!
#2195
1!
b1100010 -
b1100010 )
#2200
0!
#2205
1!
b1100011 -
b1100011 )
#2210
0!
#2215
1!
b1100100 -
b1100100 )
#2220
0!
#2225
1!
b1100101 -
b1100101 )
#2230
0!
#2235
1!
b1100110 -
b1100110 )
#2240
0!
#2245
1!
b1100111 -
b1100111 )
#2250
0!
#2255
1!
b1101000 -
b1101000 )
#2260
0!
#2265
1!
b1101001 -
b1101001 )
#2270
0!
#2275
1!
b1101010 -
b1101010 )
#2280
0!
#2285
1!
b1101011 -
b1101011 )
#2290
0!
#2295
1!
b1101100 -
b1101100 )
#2300
0!
#2305
1!
b1101101 -
b1101101 )
#2310
0!
#2315
1!
b1101110 -
b1101110 )
#2320
0!
#2325
1!
b1101111 -
b1101111 )
#2330
0!
#2335
1!
b1110000 -
b1110000 )
#2340
0!
#2345
1!
b1110001 -
b1110001 )
#2350
0!
#2355
1!
b1110010 -
b1110010 )
#2360
0!
#2365
1!
b1110011 -
b1110011 )
#2370
0!
#2375
1!
b1110100 -
b1110100 )
#2380
0!
#2385
1!
b1110101 -
b1110101 )
#2390
0!
#2395
1!
b1110110 -
b1110110 )
#2400
0!
#2405
1!
b1110111 -
b1110111 )
#2410
0!
#2415
1!
b10 ,
b10 (
b10 *
b0 -
b0 )
#2420
0!
#2425
1!
b1 -
b1 )
#2430
0!
#2435
1!
b10 -
b10 )
#2440
0!
#2445
1!
b11 -
b11 )
#2450
0!
#2455
1!
b100 -
b100 )
#2460
0!
#2465
1!
b101 -
b101 )
#2470
0!
#2475
1!
b110 -
b110 )
#2480
0!
#2485
1!
b111 -
b111 )
#2490
0!
#2495
1!
b1000 -
b1000 )
#2500
0!
#2505
1!
b1001 -
b1001 )
#2510
0!
#2515
1!
b1010 -
b1010 )
#2520
0!
#2525
1!
b1011 -
b1011 )
#2530
0!
#2535
1!
b1100 -
b1100 )
#2540
0!
#2545
1!
b1101 -
b1101 )
#2550
0!
#2555
1!
b1110 -
b1110 )
#2560
0!
#2565
1!
b1111 -
b1111 )
#2570
0!
#2575
1!
b10000 -
b10000 )
#2580
0!
#2585
1!
b10001 -
b10001 )
#2590
0!
#2595
1!
b10010 -
b10010 )
#2600
0!
#2605
1!
b10011 -
b10011 )
#2610
0!
#2615
1!
b10100 -
b10100 )
#2620
0!
#2625
1!
b10101 -
b10101 )
#2630
0!
#2635
1!
b10110 -
b10110 )
#2640
0!
#2645
1!
b10111 -
b10111 )
#2650
0!
#2655
1!
b11000 -
b11000 )
#2660
0!
#2665
1!
b11001 -
b11001 )
#2670
0!
#2675
1!
b11010 -
b11010 )
#2680
0!
#2685
1!
b11011 -
b11011 )
#2690
0!
#2695
1!
b11100 -
b11100 )
#2700
0!
#2705
1!
b11101 -
b11101 )
#2710
0!
#2715
1!
b11110 -
b11110 )
#2720
0!
#2725
1!
b11111 -
b11111 )
#2730
0!
#2735
1!
b100000 -
b100000 )
#2740
0!
#2745
1!
b100001 -
b100001 )
#2750
0!
#2755
1!
b100010 -
b100010 )
#2760
0!
#2765
1!
b100011 -
b100011 )
#2770
0!
#2775
1!
b100100 -
b100100 )
#2780
0!
#2785
1!
b100101 -
b100101 )
#2790
0!
#2795
1!
b100110 -
b100110 )
#2800
0!
#2805
1!
b100111 -
b100111 )
#2810
0!
#2815
1!
b101000 -
b101000 )
#2820
0!
#2825
1!
b101001 -
b101001 )
#2830
0!
#2835
1!
b101010 -
b101010 )
#2840
0!
#2845
1!
b101011 -
b101011 )
#2850
0!
#2855
1!
b101100 -
b101100 )
#2860
0!
#2865
1!
b101101 -
b101101 )
#2870
0!
#2875
1!
b101110 -
b101110 )
#2880
0!
#2885
1!
b101111 -
b101111 )
#2890
0!
#2895
1!
b110000 -
b110000 )
#2900
0!
#2905
1!
b110001 -
b110001 )
#2910
0!
#2915
1!
b110010 -
b110010 )
#2920
0!
#2925
1!
b110011 -
b110011 )
#2930
0!
#2935
1!
b110100 -
b110100 )
#2940
0!
#2945
1!
b110101 -
b110101 )
#2950
0!
#2955
1!
b110110 -
b110110 )
#2960
0!
#2965
1!
b110111 -
b110111 )
#2970
0!
#2975
1!
b111000 -
b111000 )
#2980
0!
#2985
1!
b111001 -
b111001 )
#2990
0!
#2995
1!
b111010 -
b111010 )
#3000
0!
#3005
1!
b111011 -
b111011 )
#3010
0!
#3015
1!
b111100 -
b111100 )
#3020
0!
#3025
1!
b111101 -
b111101 )
#3030
0!
#3035
1!
b111110 -
b111110 )
#3040
0!
#3045
1!
b111111 -
b111111 )
#3050
0!
#3055
1!
b1000000 -
b1000000 )
#3060
0!
#3065
1!
b1000001 -
b1000001 )
#3070
0!
#3075
1!
b1000010 -
b1000010 )
#3080
0!
#3085
1!
b1000011 -
b1000011 )
#3090
0!
#3095
1!
b1000100 -
b1000100 )
#3100
0!
#3105
1!
b1000101 -
b1000101 )
#3110
0!
#3115
1!
b1000110 -
b1000110 )
#3120
0!
#3125
1!
b1000111 -
b1000111 )
#3130
0!
#3135
1!
b1001000 -
b1001000 )
#3140
0!
#3145
1!
b1001001 -
b1001001 )
#3150
0!
#3155
1!
b1001010 -
b1001010 )
#3160
0!
#3165
1!
b1001011 -
b1001011 )
#3170
0!
#3175
1!
b1001100 -
b1001100 )
#3180
0!
#3185
1!
b1001101 -
b1001101 )
#3190
0!
#3195
1!
b1001110 -
b1001110 )
#3200
0!
#3205
1!
b1001111 -
b1001111 )
#3210
0!
#3215
1!
b1010000 -
b1010000 )
#3220
0!
#3225
1!
b1010001 -
b1010001 )
#3230
0!
#3235
1!
b1010010 -
b1010010 )
#3240
0!
#3245
1!
b1010011 -
b1010011 )
#3250
0!
#3255
1!
b1010100 -
b1010100 )
#3260
0!
#3265
1!
b1010101 -
b1010101 )
#3270
0!
#3275
1!
b1010110 -
b1010110 )
#3280
0!
#3285
1!
b1010111 -
b1010111 )
#3290
0!
#3295
1!
b1011000 -
b1011000 )
#3300
0!
#3305
1!
b1011001 -
b1011001 )
#3310
0!
#3315
1!
b1011010 -
b1011010 )
#3320
0!
#3325
1!
b1011011 -
b1011011 )
#3330
0!
#3335
1!
b1011100 -
b1011100 )
#3340
0!
#3345
1!
b1011101 -
b1011101 )
#3350
0!
#3355
1!
b1011110 -
b1011110 )
#3360
0!
#3365
1!
b1011111 -
b1011111 )
#3370
0!
#3375
1!
b1100000 -
b1100000 )
#3380
0!
#3385
1!
b1100001 -
b1100001 )
#3390
0!
#3395
1!
b1100010 -
b1100010 )
#3400
0!
#3405
1!
b1100011 -
b1100011 )
#3410
0!
#3415
1!
b1100100 -
b1100100 )
#3420
0!
#3425
1!
b1100101 -
b1100101 )
#3430
0!
#3435
1!
b1100110 -
b1100110 )
#3440
0!
#3445
1!
b1100111 -
b1100111 )
#3450
0!
#3455
1!
b1101000 -
b1101000 )
#3460
0!
#3465
1!
b1101001 -
b1101001 )
#3470
0!
#3475
1!
b1101010 -
b1101010 )
#3480
0!
#3485
1!
b1101011 -
b1101011 )
#3490
0!
#3495
1!
b1101100 -
b1101100 )
#3500
0!
#3505
1!
b1101101 -
b1101101 )
#3510
0!
#3515
1!
b1101110 -
b1101110 )
#3520
0!
#3525
1!
b1101111 -
b1101111 )
#3530
0!
#3535
1!
b1110000 -
b1110000 )
#3540
0!
#3545
1!
b1110001 -
b1110001 )
#3550
0!
#3555
1!
b1110010 -
b1110010 )
#3560
0!
#3565
1!
b1110011 -
b1110011 )
#3570
0!
#3575
1!
b1110100 -
b1110100 )
#3580
0!
#3585
1!
b1110101 -
b1110101 )
#3590
0!
#3595
1!
b1110110 -
b1110110 )
#3600
0!
#3605
1!
b1110111 -
b1110111 )
#3610
0!
#3615
1!
b11 ,
b11 (
b11 *
b0 -
b0 )
#3620
0!
#3625
1!
b1 -
b1 )
#3630
0!
#3635
1!
b10 -
b10 )
#3640
0!
#3645
1!
b11 -
b11 )
#3650
0!
#3655
1!
b100 -
b100 )
#3660
0!
#3665
1!
b101 -
b101 )
#3670
0!
#3675
1!
b110 -
b110 )
#3680
0!
#3685
1!
b111 -
b111 )
#3690
0!
#3695
1!
b1000 -
b1000 )
#3700
0!
#3705
1!
b1001 -
b1001 )
#3710
0!
#3715
1!
b1010 -
b1010 )
#3720
0!
#3725
1!
b1011 -
b1011 )
#3730
0!
#3735
1!
b1100 -
b1100 )
#3740
0!
#3745
1!
b1101 -
b1101 )
#3750
0!
#3755
1!
b1110 -
b1110 )
#3760
0!
#3765
1!
b1111 -
b1111 )
#3770
0!
#3775
1!
b10000 -
b10000 )
#3780
0!
#3785
1!
b10001 -
b10001 )
#3790
0!
#3795
1!
b10010 -
b10010 )
#3800
0!
#3805
1!
b10011 -
b10011 )
#3810
0!
#3815
1!
b10100 -
b10100 )
#3820
0!
#3825
1!
b10101 -
b10101 )
#3830
0!
#3835
1!
b10110 -
b10110 )
#3840
0!
#3845
1!
b10111 -
b10111 )
#3850
0!
#3855
1!
b11000 -
b11000 )
#3860
0!
#3865
1!
b11001 -
b11001 )
#3870
0!
#3875
1!
b11010 -
b11010 )
#3880
0!
#3885
1!
b11011 -
b11011 )
#3890
0!
#3895
1!
b11100 -
b11100 )
#3900
0!
#3905
1!
b11101 -
b11101 )
#3910
0!
#3915
1!
b11110 -
b11110 )
#3920
0!
#3925
1!
b11111 -
b11111 )
#3930
0!
#3935
1!
b100000 -
b100000 )
#3940
0!
#3945
1!
b100001 -
b100001 )
#3950
0!
#3955
1!
b100010 -
b100010 )
#3960
0!
#3965
1!
b100011 -
b100011 )
#3970
0!
#3975
1!
b100100 -
b100100 )
#3980
0!
#3985
1!
b100101 -
b100101 )
#3990
0!
#3995
1!
b100110 -
b100110 )
#4000
0!
#4005
1!
b100111 -
b100111 )
#4010
0!
#4015
1!
b101000 -
b101000 )
#4020
0!
#4025
1!
b101001 -
b101001 )
#4030
0!
#4035
1!
b101010 -
b101010 )
#4040
0!
#4045
1!
b101011 -
b101011 )
#4050
0!
#4055
1!
b101100 -
b101100 )
#4060
0!
#4065
1!
b101101 -
b101101 )
#4070
0!
#4075
1!
b101110 -
b101110 )
#4080
0!
#4085
1!
b101111 -
b101111 )
#4090
0!
#4095
1!
b110000 -
b110000 )
#4100
0!
#4105
1!
b110001 -
b110001 )
#4110
0!
#4115
1!
b110010 -
b110010 )
#4120
0!
#4125
1!
b110011 -
b110011 )
#4130
0!
#4135
1!
b110100 -
b110100 )
#4140
0!
#4145
1!
b110101 -
b110101 )
#4150
0!
#4155
1!
b110110 -
b110110 )
#4160
0!
#4165
1!
b110111 -
b110111 )
#4170
0!
#4175
1!
b111000 -
b111000 )
#4180
0!
#4185
1!
b111001 -
b111001 )
#4190
0!
#4195
1!
b111010 -
b111010 )
#4200
0!
#4205
1!
b111011 -
b111011 )
#4210
0!
#4215
1!
b111100 -
b111100 )
#4220
0!
#4225
1!
b111101 -
b111101 )
#4230
0!
#4235
1!
b111110 -
b111110 )
#4240
0!
#4245
1!
b111111 -
b111111 )
#4250
0!
#4255
1!
b1000000 -
b1000000 )
#4260
0!
#4265
1!
b1000001 -
b1000001 )
#4270
0!
#4275
1!
b1000010 -
b1000010 )
#4280
0!
#4285
1!
b1000011 -
b1000011 )
#4290
0!
#4295
1!
b1000100 -
b1000100 )
#4300
0!
#4305
1!
b1000101 -
b1000101 )
#4310
0!
#4315
1!
b1000110 -
b1000110 )
#4320
0!
#4325
1!
b1000111 -
b1000111 )
#4330
0!
#4335
1!
b1001000 -
b1001000 )
#4340
0!
#4345
1!
b1001001 -
b1001001 )
#4350
0!
#4355
1!
b1001010 -
b1001010 )
#4360
0!
#4365
1!
b1001011 -
b1001011 )
#4370
0!
#4375
1!
b1001100 -
b1001100 )
#4380
0!
#4385
1!
b1001101 -
b1001101 )
#4390
0!
#4395
1!
b1001110 -
b1001110 )
#4400
0!
#4405
1!
b1001111 -
b1001111 )
#4410
0!
#4415
1!
b1010000 -
b1010000 )
#4420
0!
#4425
1!
b1010001 -
b1010001 )
#4430
0!
#4435
1!
b1010010 -
b1010010 )
#4440
0!
#4445
1!
b1010011 -
b1010011 )
#4450
0!
#4455
1!
b1010100 -
b1010100 )
#4460
0!
#4465
1!
b1010101 -
b1010101 )
#4470
0!
#4475
1!
b1010110 -
b1010110 )
#4480
0!
#4485
1!
b1010111 -
b1010111 )
#4490
0!
#4495
1!
b1011000 -
b1011000 )
#4500
0!
#4505
1!
b1011001 -
b1011001 )
#4510
0!
#4515
1!
b1011010 -
b1011010 )
#4520
0!
#4525
1!
b1011011 -
b1011011 )
#4530
0!
#4535
1!
b1011100 -
b1011100 )
#4540
0!
#4545
1!
b1011101 -
b1011101 )
#4550
0!
#4555
1!
b1011110 -
b1011110 )
#4560
0!
#4565
1!
b1011111 -
b1011111 )
#4570
0!
#4575
1!
b1100000 -
b1100000 )
#4580
0!
#4585
1!
b1100001 -
b1100001 )
#4590
0!
#4595
1!
b1100010 -
b1100010 )
#4600
0!
#4605
1!
b1100011 -
b1100011 )
#4610
0!
#4615
1!
b1100100 -
b1100100 )
#4620
0!
#4625
1!
b1100101 -
b1100101 )
#4630
0!
#4635
1!
b1100110 -
b1100110 )
#4640
0!
#4645
1!
b1100111 -
b1100111 )
#4650
0!
#4655
1!
b1101000 -
b1101000 )
#4660
0!
#4665
1!
b1101001 -
b1101001 )
#4670
0!
#4675
1!
b1101010 -
b1101010 )
#4680
0!
#4685
1!
b1101011 -
b1101011 )
#4690
0!
#4695
1!
b1101100 -
b1101100 )
#4700
0!
#4705
1!
b1101101 -
b1101101 )
#4710
0!
#4715
1!
b1101110 -
b1101110 )
#4720
0!
#4725
1!
b1101111 -
b1101111 )
#4730
0!
#4735
1!
b1110000 -
b1110000 )
#4740
0!
#4745
1!
b1110001 -
b1110001 )
#4750
0!
#4755
1!
b1110010 -
b1110010 )
#4760
0!
#4765
1!
b1110011 -
b1110011 )
#4770
0!
#4775
1!
b1110100 -
b1110100 )
#4780
0!
#4785
1!
b1110101 -
b1110101 )
#4790
0!
#4795
1!
b1110110 -
b1110110 )
#4800
0!
#4805
1!
b1110111 -
b1110111 )
#4810
0!
#4815
1!
b100 ,
b100 (
b100 *
b0 -
b0 )
#4820
0!
#4825
1!
b1 -
b1 )
#4830
0!
#4835
1!
b10 -
b10 )
#4840
0!
#4845
1!
b11 -
b11 )
#4850
0!
#4855
1!
b100 -
b100 )
#4860
0!
#4865
1!
b101 -
b101 )
#4870
0!
#4875
1!
b110 -
b110 )
#4880
0!
#4885
1!
b111 -
b111 )
#4890
0!
#4895
1!
b1000 -
b1000 )
#4900
0!
#4905
1!
b1001 -
b1001 )
#4910
0!
#4915
1!
b1010 -
b1010 )
#4920
0!
#4925
1!
b1011 -
b1011 )
#4930
0!
#4935
1!
b1100 -
b1100 )
#4940
0!
#4945
1!
b1101 -
b1101 )
#4950
0!
#4955
1!
b1110 -
b1110 )
#4960
0!
#4965
1!
b1111 -
b1111 )
#4970
0!
#4975
1!
b10000 -
b10000 )
#4980
0!
#4985
1!
b10001 -
b10001 )
#4990
0!
#4995
1!
b10010 -
b10010 )
#5000
0!
#5005
1!
b10011 -
b10011 )
#5010
0!
#5015
1!
b10100 -
b10100 )
#5020
0!
#5025
1!
b10101 -
b10101 )
#5030
0!
#5035
1!
b10110 -
b10110 )
#5040
0!
#5045
1!
b10111 -
b10111 )
#5050
0!
#5055
1!
b11000 -
b11000 )
#5060
0!
#5065
1!
b11001 -
b11001 )
#5070
0!
#5075
1!
b11010 -
b11010 )
#5080
0!
#5085
1!
b11011 -
b11011 )
#5090
0!
#5095
1!
b11100 -
b11100 )
#5100
0!
#5105
1!
b11101 -
b11101 )
#5110
0!
#5115
1!
b11110 -
b11110 )
#5120
0!
#5125
1!
b11111 -
b11111 )
#5130
0!
#5135
1!
b100000 -
b100000 )
#5140
0!
#5145
1!
b100001 -
b100001 )
#5150
0!
#5155
1!
b100010 -
b100010 )
#5160
0!
#5165
1!
b100011 -
b100011 )
#5170
0!
#5175
1!
b100100 -
b100100 )
#5180
0!
#5185
1!
b100101 -
b100101 )
#5190
0!
#5195
1!
b100110 -
b100110 )
#5200
0!
#5205
1!
b100111 -
b100111 )
#5210
0!
#5215
1!
b101000 -
b101000 )
#5220
0!
#5225
1!
b101001 -
b101001 )
#5230
0!
#5235
1!
b101010 -
b101010 )
#5240
0!
#5245
1!
b101011 -
b101011 )
#5250
0!
#5255
1!
b101100 -
b101100 )
#5260
0!
#5265
1!
b101101 -
b101101 )
#5270
0!
#5275
1!
b101110 -
b101110 )
#5280
0!
#5285
1!
b101111 -
b101111 )
#5290
0!
#5295
1!
b110000 -
b110000 )
#5300
0!
#5305
1!
b110001 -
b110001 )
#5310
0!
#5315
1!
b110010 -
b110010 )
#5320
0!
#5325
1!
b110011 -
b110011 )
#5330
0!
#5335
1!
b110100 -
b110100 )
#5340
0!
#5345
1!
b110101 -
b110101 )
#5350
0!
#5355
1!
b110110 -
b110110 )
#5360
0!
#5365
1!
b110111 -
b110111 )
#5370
0!
#5375
1!
b111000 -
b111000 )
#5380
0!
#5385
1!
b111001 -
b111001 )
#5390
0!
#5395
1!
b111010 -
b111010 )
#5400
0!
#5405
1!
b111011 -
b111011 )
#5410
0!
#5415
1!
b111100 -
b111100 )
#5420
0!
#5425
1!
b111101 -
b111101 )
#5430
0!
#5435
1!
b111110 -
b111110 )
#5440
0!
#5445
1!
b111111 -
b111111 )
#5450
0!
#5455
1!
b1000000 -
b1000000 )
#5460
0!
#5465
1!
b1000001 -
b1000001 )
#5470
0!
#5475
1!
b1000010 -
b1000010 )
#5480
0!
