lab2/task2/fillscreen.gate.vcd
$date
	Tue Oct 27 13:41:54 2020
$end
$version
	ModelSim Version 10.7c
$end
$timescale
	1ps
$end

$scope module fillscreen_ag $end

$scope module dut $end
$var wire 1 ! clk $end
$var wire 1 " rst_n $end
$var wire 1 # colour [2] $end
$var wire 1 $ colour [1] $end
$var wire 1 % colour [0] $end
$var wire 1 & start $end
$var wire 1 ' done $end
$var wire 1 ( vga_x [7] $end
$var wire 1 ) vga_x [6] $end
$var wire 1 * vga_x [5] $end
$var wire 1 + vga_x [4] $end
$var wire 1 , vga_x [3] $end
$var wire 1 - vga_x [2] $end
$var wire 1 . vga_x [1] $end
$var wire 1 / vga_x [0] $end
$var wire 1 0 vga_y [6] $end
$var wire 1 1 vga_y [5] $end
$var wire 1 2 vga_y [4] $end
$var wire 1 3 vga_y [3] $end
$var wire 1 4 vga_y [2] $end
$var wire 1 5 vga_y [1] $end
$var wire 1 6 vga_y [0] $end
$var wire 1 7 vga_colour [2] $end
$var wire 1 8 vga_colour [1] $end
$var wire 1 9 vga_colour [0] $end
$var wire 1 : vga_plot $end
$var wire 1 ; gnd $end
$var wire 1 < vcc $end
$var wire 1 = unknown $end
$var tri1 1 > devclrn $end
$var tri1 1 ? devpor $end
$var tri1 1 @ devoe $end
$var wire 1 A colour[0]~input_o $end
$var wire 1 B colour[1]~input_o $end
$var wire 1 C colour[2]~input_o $end
$var wire 1 D ~QUARTUS_CREATED_GND~I_combout $end
$var wire 1 E clk~input_o $end
$var wire 1 F clk~inputCLKENA0_outclk $end
$var wire 1 G start~input_o $end
$var wire 1 H Add0~1_sumout $end
$var wire 1 I rst_n~input_o $end
$var wire 1 J Equal1~0_combout $end
$var wire 1 K current_y[2]~0_combout $end
$var wire 1 L Add1~1_sumout $end
$var wire 1 M state[1]~0_combout $end
$var wire 1 N Add1~2 $end
$var wire 1 O Add1~5_sumout $end
$var wire 1 P Add1~6 $end
$var wire 1 Q Add1~9_sumout $end
$var wire 1 R Add1~10 $end
$var wire 1 S Add1~13_sumout $end
$var wire 1 T Add1~14 $end
$var wire 1 U Add1~17_sumout $end
$var wire 1 V Add1~18 $end
$var wire 1 W Add1~21_sumout $end
$var wire 1 X Add1~22 $end
$var wire 1 Y Add1~25_sumout $end
$var wire 1 Z Equal0~0_combout $end
$var wire 1 [ current_x[1]~0_combout $end
$var wire 1 \ Add1~26 $end
$var wire 1 ] Add1~29_sumout $end
$var wire 1 ^ Equal0~1_combout $end
$var wire 1 _ Equal0~2_combout $end
$var wire 1 ` state[0]~2_combout $end
$var wire 1 a current_y[2]~1_combout $end
$var wire 1 b Add0~2 $end
$var wire 1 c Add0~5_sumout $end
$var wire 1 d Add0~6 $end
$var wire 1 e Add0~9_sumout $end
$var wire 1 f Add0~10 $end
$var wire 1 g Add0~13_sumout $end
$var wire 1 h Add0~14 $end
$var wire 1 i Add0~17_sumout $end
$var wire 1 j Add0~18 $end
$var wire 1 k Add0~21_sumout $end
$var wire 1 l Add0~22 $end
$var wire 1 m Add0~25_sumout $end
$var wire 1 n Equal1~1_combout $end
$var wire 1 o state[1]~1_combout $end
$var wire 1 p Decoder0~0_combout $end
$var wire 1 q state [1] $end
$var wire 1 r state [0] $end
$var wire 1 s out [1] $end
$var wire 1 t out [0] $end
$var wire 1 u current_y [6] $end
$var wire 1 v current_y [5] $end
$var wire 1 w current_y [4] $end
$var wire 1 x current_y [3] $end
$var wire 1 y current_y [2] $end
$var wire 1 z current_y [1] $end
$var wire 1 { current_y [0] $end
$var wire 1 | current_x [7] $end
$var wire 1 } current_x [6] $end
$var wire 1 ~ current_x [5] $end
$var wire 1 !! current_x [4] $end
$var wire 1 "! current_x [3] $end
$var wire 1 #! current_x [2] $end
$var wire 1 $! current_x [1] $end
$var wire 1 %! current_x [0] $end

$scope module done~output $end
$var wire 1 s i $end
$var tri1 1 < oe $end
$var tri1 1 @ devoe $end
$var tri0 1 ; dynamicterminationcontrol $end
$var wire 1 ' o $end
$var wire 1 &! obar $end
$upscope $end

$scope module vga_x[0]~output $end
$var wire 1 %! i $end
$var tri1 1 < oe $end
$var tri1 1 @ devoe $end
$var tri0 1 ; dynamicterminationcontrol $end
$var wire 1 / o $end
$var wire 1 '! obar $end
$upscope $end

$scope module vga_x[1]~output $end
$var wire 1 $! i $end
$var tri1 1 < oe $end
$var tri1 1 @ devoe $end
$var tri0 1 ; dynamicterminationcontrol $end
$var wire 1 . o $end
$var wire 1 (! obar $end
$upscope $end

$scope module vga_x[2]~output $end
$var wire 1 #! i $end
$var tri1 1 < oe $end
$var tri1 1 @ devoe $end
$var tri0 1 ; dynamicterminationcontrol $end
$var wire 1 - o $end
$var wire 1 )! obar $end
$upscope $end

$scope module vga_x[3]~output $end
$var wire 1 "! i $end
$var tri1 1 < oe $end
$var tri1 1 @ devoe $end
$var tri0 1 ; dynamicterminationcontrol $end
$var wire 1 , o $end
$var wire 1 *! obar $end
$upscope $end

$scope module vga_x[4]~output $end
$var wire 1 !! i $end
$var tri1 1 < oe $end
$var tri1 1 @ devoe $end
$var tri0 1 ; dynamicterminationcontrol $end
$var wire 1 + o $end
$var wire 1 +! obar $end
$upscope $end

$scope module vga_x[5]~output $end
$var wire 1 ~ i $end
$var tri1 1 < oe $end
$var tri1 1 @ devoe $end
$var tri0 1 ; dynamicterminationcontrol $end
$var wire 1 * o $end
$var wire 1 ,! obar $end
$upscope $end

$scope module vga_x[6]~output $end
$var wire 1 } i $end
$var tri1 1 < oe $end
$var tri1 1 @ devoe $end
$var tri0 1 ; dynamicterminationcontrol $end
$var wire 1 ) o $end
$var wire 1 -! obar $end
$upscope $end

$scope module vga_x[7]~output $end
$var wire 1 | i $end
$var tri1 1 < oe $end
$var tri1 1 @ devoe $end
$var tri0 1 ; dynamicterminationcontrol $end
$var wire 1 ( o $end
$var wire 1 .! obar $end
$upscope $end

$scope module vga_y[0]~output $end
$var wire 1 { i $end
$var tri1 1 < oe $end
$var tri1 1 @ devoe $end
$var tri0 1 ; dynamicterminationcontrol $end
$var wire 1 6 o $end
$var wire 1 /! obar $end
$upscope $end

$scope module vga_y[1]~output $end
$var wire 1 z i $end
$var tri1 1 < oe $end
$var tri1 1 @ devoe $end
$var tri0 1 ; dynamicterminationcontrol $end
$var wire 1 5 o $end
$var wire 1 0! obar $end
$upscope $end

$scope module vga_y[2]~output $end
$var wire 1 y i $end
$var tri1 1 < oe $end
$var tri1 1 @ devoe $end
$var tri0 1 ; dynamicterminationcontrol $end
$var wire 1 4 o $end
$var wire 1 1! obar $end
$upscope $end

$scope module vga_y[3]~output $end
$var wire 1 x i $end
$var tri1 1 < oe $end
$var tri1 1 @ devoe $end
$var tri0 1 ; dynamicterminationcontrol $end
$var wire 1 3 o $end
$var wire 1 2! obar $end
$upscope $end

$scope module vga_y[4]~output $end
$var wire 1 w i $end
$var tri1 1 < oe $end
$var tri1 1 @ devoe $end
$var tri0 1 ; dynamicterminationcontrol $end
$var wire 1 2 o $end
$var wire 1 3! obar $end
$upscope $end

$scope module vga_y[5]~output $end
$var wire 1 v i $end
$var tri1 1 < oe $end
$var tri1 1 @ devoe $end
$var tri0 1 ; dynamicterminationcontrol $end
$var wire 1 1 o $end
$var wire 1 4! obar $end
$upscope $end

$scope module vga_y[6]~output $end
$var wire 1 u i $end
$var tri1 1 < oe $end
$var tri1 1 @ devoe $end
$var tri0 1 ; dynamicterminationcontrol $end
$var wire 1 0 o $end
$var wire 1 5! obar $end
$upscope $end

$scope module vga_colour[0]~output $end
$var wire 1 %! i $end
$var tri1 1 < oe $end
$var tri1 1 @ devoe $end
$var tri0 1 ; dynamicterminationcontrol $end
$var wire 1 9 o $end
$var wire 1 6! obar $end
$upscope $end

$scope module vga_colour[1]~output $end
$var wire 1 $! i $end
$var tri1 1 < oe $end
$var tri1 1 @ devoe $end
$var tri0 1 ; dynamicterminationcontrol $end
$var wire 1 8 o $end
$var wire 1 7! obar $end
$upscope $end

$scope module vga_colour[2]~output $end
$var wire 1 #! i $end
$var tri1 1 < oe $end
$var tri1 1 @ devoe $end
$var tri0 1 ; dynamicterminationcontrol $end
$var wire 1 7 o $end
$var wire 1 8! obar $end
$upscope $end

$scope module vga_plot~output $end
$var wire 1 t i $end
$var tri1 1 < oe $end
$var tri1 1 @ devoe $end
$var tri0 1 ; dynamicterminationcontrol $end
$var wire 1 : o $end
$var wire 1 9! obar $end
$upscope $end

$scope module clk~input $end
$var wire 1 ! i $end
$var wire 1 ; ibar $end
$var wire 1 E o $end
$upscope $end

$scope module clk~inputCLKENA0 $end
$var wire 1 < ena $end
$var wire 1 :! enaout $end
$var wire 1 F outclk $end
$upscope $end

$scope module start~input $end
$var wire 1 & i $end
$var wire 1 ; ibar $end
$var wire 1 G o $end
$upscope $end

$scope module Add0~1 $end
$var wire 1 ; dataa $end
$var wire 1 ; datab $end
$var wire 1 ; datac $end
$var wire 1 ;! datad $end
$var wire 1 ; datae $end
$var wire 1 ; dataf $end
$var wire 1 ; datag $end
$var wire 1 ; cin $end
$var wire 1 ; sharein $end
$var wire 1 <! combout $end
$var wire 1 H sumout $end
$var wire 1 b cout $end
$var wire 1 =! shareout $end
$upscope $end

$scope module rst_n~input $end
$var wire 1 " i $end
$var wire 1 ; ibar $end
$var wire 1 I o $end
$upscope $end

$scope module Equal1~0 $end
$var wire 1 >! dataa $end
$var wire 1 ?! datab $end
$var wire 1 @! datac $end
$var wire 1 A! datad $end
$var wire 1 B! datae $end
$var wire 1 C! dataf $end
$var wire 1 ; datag $end
$var wire 1 ; cin $end
$var wire 1 ; sharein $end
$var wire 1 J combout $end
$var wire 1 D! sumout $end
$var wire 1 E! cout $end
$var wire 1 F! shareout $end
$upscope $end

$scope module current_y[2]~0 $end
$var wire 1 ; dataa $end
$var wire 1 G! datab $end
$var wire 1 H! datac $end
$var wire 1 I! datad $end
$var wire 1 ; datae $end
$var wire 1 J! dataf $end
$var wire 1 ; datag $end
$var wire 1 ; cin $end
$var wire 1 ; sharein $end
$var wire 1 K combout $end
$var wire 1 K! sumout $end
$var wire 1 L! cout $end
$var wire 1 M! shareout $end
$upscope $end

$scope module Add1~1 $end
$var wire 1 ; dataa $end
$var wire 1 ; datab $end
$var wire 1 ; datac $end
$var wire 1 N! datad $end
$var wire 1 ; datae $end
$var wire 1 ; dataf $end
$var wire 1 ; datag $end
$var wire 1 ; cin $end
$var wire 1 ; sharein $end
$var wire 1 O! combout $end
$var wire 1 L sumout $end
$var wire 1 N cout $end
$var wire 1 P! shareout $end
$upscope $end

$scope module state[1]~0 $end
$var wire 1 ; dataa $end
$var wire 1 Q! datab $end
$var wire 1 ; datac $end
$var wire 1 ; datad $end
$var wire 1 ; datae $end
$var wire 1 R! dataf $end
$var wire 1 ; datag $end
$var wire 1 ; cin $end
$var wire 1 ; sharein $end
$var wire 1 M combout $end
$var wire 1 S! sumout $end
$var wire 1 T! cout $end
$var wire 1 U! shareout $end
$upscope $end

$scope module Add1~5 $end
$var wire 1 ; dataa $end
$var wire 1 ; datab $end
$var wire 1 ; datac $end
$var wire 1 V! datad $end
$var wire 1 ; datae $end
$var wire 1 ; dataf $end
$var wire 1 ; datag $end
$var wire 1 N cin $end
$var wire 1 ; sharein $end
$var wire 1 W! combout $end
$var wire 1 O sumout $end
$var wire 1 P cout $end
$var wire 1 X! shareout $end
$upscope $end

$scope module Add1~9 $end
$var wire 1 ; dataa $end
$var wire 1 ; datab $end
$var wire 1 ; datac $end
$var wire 1 Y! datad $end
$var wire 1 ; datae $end
$var wire 1 ; dataf $end
$var wire 1 ; datag $end
$var wire 1 P cin $end
$var wire 1 ; sharein $end
$var wire 1 Z! combout $end
$var wire 1 Q sumout $end
$var wire 1 R cout $end
$var wire 1 [! shareout $end
$upscope $end

$scope module Add1~13 $end
$var wire 1 ; dataa $end
$var wire 1 ; datab $end
$var wire 1 ; datac $end
$var wire 1 \! datad $end
$var wire 1 ; datae $end
$var wire 1 ; dataf $end
$var wire 1 ; datag $end
$var wire 1 R cin $end
$var wire 1 ; sharein $end
$var wire 1 ]! combout $end
$var wire 1 S sumout $end
$var wire 1 T cout $end
$var wire 1 ^! shareout $end
$upscope $end

$scope module Add1~17 $end
$var wire 1 ; dataa $end
$var wire 1 ; datab $end
$var wire 1 ; datac $end
$var wire 1 _! datad $end
$var wire 1 ; datae $end
$var wire 1 ; dataf $end
$var wire 1 ; datag $end
$var wire 1 T cin $end
$var wire 1 ; sharein $end
$var wire 1 `! combout $end
$var wire 1 U sumout $end
$var wire 1 V cout $end
$var wire 1 a! shareout $end
$upscope $end

$scope module Add1~21 $end
$var wire 1 ; dataa $end
$var wire 1 ; datab $end
$var wire 1 ; datac $end
$var wire 1 b! datad $end
$var wire 1 ; datae $end
$var wire 1 ; dataf $end
$var wire 1 ; datag $end
$var wire 1 V cin $end
$var wire 1 ; sharein $end
$var wire 1 c! combout $end
$var wire 1 W sumout $end
$var wire 1 X cout $end
$var wire 1 d! shareout $end
$upscope $end

$scope module Add1~25 $end
$var wire 1 ; dataa $end
$var wire 1 ; datab $end
$var wire 1 ; datac $end
$var wire 1 e! datad $end
$var wire 1 ; datae $end
$var wire 1 ; dataf $end
$var wire 1 ; datag $end
$var wire 1 X cin $end
$var wire 1 ; sharein $end
$var wire 1 f! combout $end
$var wire 1 Y sumout $end
$var wire 1 \ cout $end
$var wire 1 g! shareout $end
$upscope $end

$scope module Equal0~0 $end
$var wire 1 h! dataa $end
$var wire 1 i! datab $end
$var wire 1 j! datac $end
$var wire 1 k! datad $end
$var wire 1 l! datae $end
$var wire 1 m! dataf $end
$var wire 1 ; datag $end
$var wire 1 ; cin $end
$var wire 1 ; sharein $end
$var wire 1 Z combout $end
$var wire 1 n! sumout $end
$var wire 1 o! cout $end
$var wire 1 p! shareout $end
$upscope $end

$scope module current_x[1]~0 $end
$var wire 1 q! dataa $end
$var wire 1 r! datab $end
$var wire 1 s! datac $end
$var wire 1 t! datad $end
$var wire 1 u! datae $end
$var wire 1 v! dataf $end
$var wire 1 ; datag $end
$var wire 1 ; cin $end
$var wire 1 ; sharein $end
$var wire 1 [ combout $end
$var wire 1 w! sumout $end
$var wire 1 x! cout $end
$var wire 1 y! shareout $end
$upscope $end

$scope module Add1~29 $end
$var wire 1 ; dataa $end
$var wire 1 ; datab $end
$var wire 1 ; datac $end
$var wire 1 z! datad $end
$var wire 1 ; datae $end
$var wire 1 ; dataf $end
$var wire 1 ; datag $end
$var wire 1 \ cin $end
$var wire 1 ; sharein $end
$var wire 1 {! combout $end
$var wire 1 ] sumout $end
$var wire 1 |! cout $end
$var wire 1 }! shareout $end
$upscope $end

$scope module Equal0~1 $end
$var wire 1 ; dataa $end
$var wire 1 ; datab $end
$var wire 1 ; datac $end
$var wire 1 ; datad $end
$var wire 1 ~! datae $end
$var wire 1 !" dataf $end
$var wire 1 ; datag $end
$var wire 1 ; cin $end
$var wire 1 ; sharein $end
$var wire 1 ^ combout $end
$var wire 1 "" sumout $end
$var wire 1 #" cout $end
$var wire 1 $" shareout $end
$upscope $end

$scope module Equal0~2 $end
$var wire 1 ; dataa $end
$var wire 1 ; datab $end
$var wire 1 ; datac $end
$var wire 1 %" datad $end
$var wire 1 ; datae $end
$var wire 1 &" dataf $end
$var wire 1 ; datag $end
$var wire 1 ; cin $end
$var wire 1 ; sharein $end
$var wire 1 _ combout $end
$var wire 1 '" sumout $end
$var wire 1 (" cout $end
$var wire 1 )" shareout $end
$upscope $end

$scope module state[0]~2 $end
$var wire 1 ; dataa $end
$var wire 1 *" datab $end
$var wire 1 +" datac $end
$var wire 1 ," datad $end
$var wire 1 -" datae $end
$var wire 1 ." dataf $end
$var wire 1 ; datag $end
$var wire 1 ; cin $end
$var wire 1 ; sharein $end
$var wire 1 ` combout $end
$var wire 1 /" sumout $end
$var wire 1 0" cout $end
$var wire 1 1" shareout $end
$upscope $end

$scope module current_y[2]~1 $end
$var wire 1 2" dataa $end
$var wire 1 3" datab $end
$var wire 1 4" datac $end
$var wire 1 5" datad $end
$var wire 1 6" datae $end
$var wire 1 7" dataf $end
$var wire 1 ; datag $end
$var wire 1 ; cin $end
$var wire 1 ; sharein $end
$var wire 1 a combout $end
$var wire 1 8" sumout $end
$var wire 1 9" cout $end
$var wire 1 :" shareout $end
$upscope $end

$scope module Add0~5 $end
$var wire 1 ; dataa $end
$var wire 1 ; datab $end
$var wire 1 ; datac $end
$var wire 1 ;" datad $end
$var wire 1 ; datae $end
$var wire 1 ; dataf $end
$var wire 1 ; datag $end
$var wire 1 b cin $end
$var wire 1 ; sharein $end
$var wire 1 <" combout $end
$var wire 1 c sumout $end
$var wire 1 d cout $end
$var wire 1 =" shareout $end
$upscope $end

$scope module Add0~9 $end
$var wire 1 ; dataa $end
$var wire 1 ; datab $end
$var wire 1 ; datac $end
$var wire 1 >" datad $end
$var wire 1 ; datae $end
$var wire 1 ; dataf $end
$var wire 1 ; datag $end
$var wire 1 d cin $end
$var wire 1 ; sharein $end
$var wire 1 ?" combout $end
$var wire 1 e sumout $end
$var wire 1 f cout $end
$var wire 1 @" shareout $end
$upscope $end

$scope module Add0~13 $end
$var wire 1 ; dataa $end
$var wire 1 ; datab $end
$var wire 1 ; datac $end
$var wire 1 A" datad $end
$var wire 1 ; datae $end
$var wire 1 ; dataf $end
$var wire 1 ; datag $end
$var wire 1 f cin $end
$var wire 1 ; sharein $end
$var wire 1 B" combout $end
$var wire 1 g sumout $end
$var wire 1 h cout $end
$var wire 1 C" shareout $end
$upscope $end

$scope module Add0~17 $end
$var wire 1 ; dataa $end
$var wire 1 ; datab $end
$var wire 1 ; datac $end
$var wire 1 D" datad $end
$var wire 1 ; datae $end
$var wire 1 ; dataf $end
$var wire 1 ; datag $end
$var wire 1 h cin $end
$var wire 1 ; sharein $end
$var wire 1 E" combout $end
$var wire 1 i sumout $end
$var wire 1 j cout $end
$var wire 1 F" shareout $end
$upscope $end

$scope module Add0~21 $end
$var wire 1 ; dataa $end
$var wire 1 ; datab $end
$var wire 1 ; datac $end
$var wire 1 G" datad $end
$var wire 1 ; datae $end
$var wire 1 ; dataf $end
$var wire 1 ; datag $end
$var wire 1 j cin $end
$var wire 1 ; sharein $end
$var wire 1 H" combout $end
$var wire 1 k sumout $end
$var wire 1 l cout $end
$var wire 1 I" shareout $end
$upscope $end

$scope module Add0~25 $end
$var wire 1 ; dataa $end
$var wire 1 ; datab $end
$var wire 1 ; datac $end
$var wire 1 J" datad $end
$var wire 1 ; datae $end
$var wire 1 ; dataf $end
$var wire 1 ; datag $end
$var wire 1 l cin $end
$var wire 1 ; sharein $end
$var wire 1 K" combout $end
$var wire 1 m sumout $end
$var wire 1 L" cout $end
$var wire 1 M" shareout $end
$upscope $end

$scope module Equal1~1 $end
$var wire 1 N" dataa $end
$var wire 1 ; datab $end
$var wire 1 ; datac $end
$var wire 1 ; datad $end
$var wire 1 ; datae $end
$var wire 1 O" dataf $end
$var wire 1 ; datag $end
$var wire 1 ; cin $end
$var wire 1 ; sharein $end
$var wire 1 n combout $end
$var wire 1 P" sumout $end
$var wire 1 Q" cout $end
$var wire 1 R" shareout $end
$upscope $end

$scope module state[1]~1 $end
$var wire 1 S" dataa $end
$var wire 1 T" datab $end
$var wire 1 U" datac $end
$var wire 1 V" datad $end
$var wire 1 ; datae $end
$var wire 1 W" dataf $end
$var wire 1 ; datag $end
$var wire 1 ; cin $end
$var wire 1 ; sharein $end
$var wire 1 o combout $end
$var wire 1 X" sumout $end
$var wire 1 Y" cout $end
$var wire 1 Z" shareout $end
$upscope $end

$scope module Decoder0~0 $end
$var wire 1 ; dataa $end
$var wire 1 [" datab $end
$var wire 1 \" datac $end
$var wire 1 ; datad $end
$var wire 1 ; datae $end
$var wire 1 ]" dataf $end
$var wire 1 ; datag $end
$var wire 1 ; cin $end
$var wire 1 ; sharein $end
$var wire 1 p combout $end
$var wire 1 ^" sumout $end
$var wire 1 _" cout $end
$var wire 1 `" shareout $end
$upscope $end

$scope module colour[0]~input $end
$var wire 1 % i $end
$var wire 1 ; ibar $end
$var wire 1 A o $end
$upscope $end

$scope module colour[1]~input $end
$var wire 1 $ i $end
$var wire 1 ; ibar $end
$var wire 1 B o $end
$upscope $end

$scope module colour[2]~input $end
$var wire 1 # i $end
$var wire 1 ; ibar $end
$var wire 1 C o $end
$upscope $end

$scope module ~QUARTUS_CREATED_GND~I $end
$var wire 1 ; dataa $end
$var wire 1 ; datab $end
$var wire 1 ; datac $end
$var wire 1 ; datad $end
$var wire 1 ; datae $end
$var wire 1 ; dataf $end
$var wire 1 ; datag $end
$var wire 1 ; cin $end
$var wire 1 ; sharein $end
$var wire 1 D combout $end
$var wire 1 a" sumout $end
$var wire 1 b" cout $end
$var wire 1 c" shareout $end
$upscope $end
$upscope $end
$upscope $end
$enddefinitions $end
#0
$dumpvars
0;
1<
x=
1>
1?
1@
zA
zB
zC
0D
0E
0F
0G
1H
1I
0J
1K
1L
0M
0N
0O
0P
0Q
0R
0S
0T
0U
0V
0W
0X
0Y
0Z
1[
0\
0]
0^
0_
0`
1a
0b
0c
0d
0e
0f
0g
0h
0i
0j
0k
0l
0m
0n
0o
0p
0r
0q
0t
0s
0{
0z
0y
0x
0w
0v
0u
0%!
0$!
0#!
0"!
0!!
0~
0}
0|
0&
1"
0!
0'
0/
0.
0-
0,
0+
0*
0)
0(
06
05
04
03
02
01
00
09
08
07
0:
z%
z$
z#
1]"
1\"
1["
1W"
1V"
1U"
1T"
1S"
1O"
1N"
1J"
1G"
1D"
1A"
1>"
1;"
17"
16"
15"
14"
13"
12"
1."
1-"
1,"
1+"
1*"
1&"
1%"
1!"
1~!
1z!
1v!
1u!
1t!
1s!
1r!
1q!
1m!
1l!
1k!
1j!
1i!
1h!
1e!
1b!
1_!
1\!
1Y!
1V!
1R!
1Q!
1N!
1J!
1I!
1H!
1G!
1C!
1B!
1A!
1@!
1?!
1>!
1;!
1&!
1'!
1(!
1)!
1*!
1+!
1,!
1-!
1.!
1/!
10!
11!
12!
13!
14!
15!
16!
17!
18!
19!
1:!
0<!
0=!
1D!
0E!
0F!
1K!
0L!
1M!
0O!
0P!
1S!
0T!
0U!
0W!
1X!
0Z!
1[!
0]!
1^!
0`!
1a!
0c!
1d!
0f!
1g!
1n!
0o!
0p!
1w!
0x!
1y!
0{!
0|!
1}!
0""
1#"
0$"
1'"
0("
0)"
1/"
00"
01"
18"
09"
0:"
0<"
1="
0?"
1@"
0B"
1C"
0E"
1F"
0H"
1I"
0K"
0L"
1M"
1P"
0Q"
0R"
1X"
0Y"
0Z"
1^"
0_"
0`"
1a"
0b"
0c"
$end
#3
0"
0I
#5
1!
1E
1F
#6
1"
1I
#9
1&
1G
0I!
0Q!
0*"
0U"
0["
0K!
0K
0M!
0S!
1M
1U!
1`
11"
0s!
06"
0[
0y!
0a
#10
0!
0E
0F
#15
1!
1E
1F
1r
1t
0q!
0-"
03"
0W"
0]"
1a
1:"
0X"
1:
09!
#20
0!
0E
0F
#25
1!
1E
1F
1{
0;!
0>!
1b
0H
1<!
16
0/!
1c
#30
0!
0E
0F
#35
1!
1E
1F
0{
1z
1;!
1>!
0@!
0;"
0b
1H
0<!
1d
0c
1<"
15
00!
06
1/!
0d
1c
1e
0e
#40
0!
0E
0F
#45
1!
1E
1F
1{
0;!
0>!
1b
0H
1<!
16
0/!
1d
0c
1e
#50
0!
0E
0F
#55
1!
1E
1F
1y
0{
0z
0B!
0>"
1;!
1>!
1@!
1;"
1f
0e
1?"
0b
1H
0<!
0d
1c
0<"
05
10!
06
1/!
14
01!
1g
0c
0f
1e
0g
#60
0!
0E
0F
#65
1!
1E
1F
1{
0;!
0>!
1b
0H
1<!
16
0/!
1c
#70
0!
0E
0F
#75
1!
1E
1F
0{
1z
1;!
1>!
0@!
0;"
0b
1H
0<!
1d
0c
1<"
15
00!
06
1/!
0d
1c
1f
0e
0f
1e
1g
0g
#80
0!
0E
0F
#85
1!
1E
1F
1{
0;!
0>!
1b
0H
1<!
16
0/!
1d
0c
1f
0e
1g
#90
0!
0E
0F
#95
1!
1E
1F
1x
0y
0{
0z
0A!
0A"
1B!
1>"
1;!
1>!
1@!
1;"
1h
0g
1B"
0f
1e
0?"
0b
1H
0<!
0d
1c
0<"
05
10!
06
1/!
04
11!
13
02!
1i
0h
1g
0c
0e
0i
#100
0!
0E
0F
#105
1!
1E
1F
1{
0;!
0>!
1b
0H
1<!
16
0/!
1c
#110
0!
0E
0F
#115
1!
1E
1F
0{
1z
1;!
1>!
0@!
0;"
0b
1H
0<!
1d
0c
1<"
15
00!
06
1/!
0d
1c
1e
0e
#120
0!
0E
0F
#125
1!
1E
1F
1{
0;!
0>!
1b
0H
1<!
16
0/!
1d
0c
1e
#130
0!
0E
0F
#135
1!
1E
1F
1y
0{
0z
0B!
0>"
1;!
1>!
1@!
1;"
1f
0e
1?"
0b
1H
0<!
0d
1c
0<"
05
10!
06
1/!
14
01!
1h
0g
0c
0f
1e
1i
0h
1g
0i
#140
0!
0E
0F
#145
1!
1E
1F
1{
0;!
0>!
1b
0H
1<!
16
0/!
1c
#150
0!
0E
0F
#155
1!
1E
1F
0{
1z
1;!
1>!
0@!
0;"
0b
1H
0<!
1d
0c
1<"
15
00!
06
1/!
0d
1c
1f
0e
0f
1e
1h
0g
0h
1g
1i
0i
#160
0!
0E
0F
#165
1!
1E
1F
1{
0;!
0>!
1b
0H
1<!
16
0/!
1d
0c
1f
0e
1h
0g
1i
#170
0!
0E
0F
#175
1!
1E
1F
1w
0x
0y
0{
0z
0C!
0D"
1A!
1A"
1B!
1>"
1;!
1>!
1@!
1;"
1j
0i
1E"
0h
1g
0B"
0f
1e
0?"
0b
1H
0<!
0d
1c
0<"
05
10!
06
1/!
04
11!
03
12!
12
03!
1k
0j
1i
0g
0c
0e
0k
#180
0!
0E
0F
#185
1!
1E
1F
1{
0;!
0>!
1b
0H
1<!
16
0/!
1c
#190
0!
0E
0F
#195
1!
1E
1F
0{
1z
1;!
1>!
0@!
0;"
0b
1H
0<!
1d
0c
1<"
15
00!
06
1/!
0d
1c
1e
0e
#200
0!
0E
0F
#205
1!
1E
1F
1{
0;!
0>!
1b
0H
1<!
16
0/!
1d
0c
1e
#210
0!
0E
0F
#215
1!
1E
1F
1y
0{
0z
0B!
0>"
1;!
1>!
1@!
1;"
1f
0e
1?"
0b
1H
0<!
0d
1c
0<"
05
10!
06
1/!
14
01!
1g
0c
0f
1e
0g
#220
0!
0E
0F
#225
1!
1E
1F
1{
0;!
0>!
1b
0H
1<!
16
0/!
1c
#230
0!
0E
0F
#235
1!
1E
1F
0{
1z
1;!
1>!
0@!
0;"
0b
1H
0<!
1d
0c
1<"
15
00!
06
1/!
0d
1c
1f
0e
0f
1e
1g
0g
#240
0!
0E
0F
#245
1!
1E
1F
1{
0;!
0>!
1b
0H
1<!
16
0/!
1d
0c
1f
0e
1g
#250
0!
0E
0F
#255
1!
1E
1F
1x
0y
0{
0z
0A!
0A"
1B!
1>"
1;!
1>!
1@!
1;"
1h
0g
1B"
0f
1e
0?"
0b
1H
0<!
0d
1c
0<"
05
10!
06
1/!
04
11!
13
02!
1j
0i
0h
1g
0c
0e
1k
0j
1i
0k
#260
0!
0E
0F
#265
1!
1E
1F
1{
0;!
0>!
1b
0H
1<!
16
0/!
1c
#270
0!
0E
0F
#275
1!
1E
1F
0{
1z
1;!
1>!
0@!
0;"
0b
1H
0<!
1d
0c
1<"
15
00!
06
1/!
0d
1c
1e
0e
#280
0!
0E
0F
#285
1!
1E
1F
1{
0;!
0>!
1b
0H
1<!
16
0/!
1d
0c
1e
#290
0!
0E
0F
#295
1!
1E
1F
1y
0{
0z
0B!
0>"
1;!
1>!
1@!
1;"
1f
0e
1?"
0b
1H
0<!
0d
1c
0<"
05
10!
06
1/!
14
01!
1h
0g
0c
0f
1e
1j
0i
0h
1g
1k
0j
1i
0k
#300
0!
0E
0F
#305
1!
1E
1F
1{
0;!
0>!
1b
0H
1<!
16
0/!
1c
#310
0!
0E
0F
#315
1!
1E
1F
0{
1z
1;!
1>!
0@!
0;"
0b
1H
0<!
1d
0c
1<"
15
00!
06
1/!
0d
1c
1f
0e
0f
1e
1h
0g
0h
1g
1j
0i
0j
1i
1k
0k
#320
0!
0E
0F
#325
1!
1E
1F
1{
0;!
0>!
1b
0H
1<!
16
0/!
1d
0c
1f
0e
1h
0g
1j
0i
1k
#330
0!
0E
0F
#335
1!
1E
1F
1v
0w
0x
0y
0{
0z
0?!
0G"
1C!
1D"
1A!
1A"
1B!
1>"
1;!
1>!
1@!
1;"
1l
0k
1H"
0j
1i
0E"
0h
1g
0B"
0f
1e
0?"
0b
1H
0<!
0d
1c
0<"
05
10!
06
1/!
04
11!
03
12!
02
13!
11
04!
1m
0l
1k
0i
0g
0c
0e
0m
#340
0!
0E
0F
#345
1!
1E
1F
1{
0;!
0>!
1b
0H
1<!
16
0/!
1c
#350
0!
0E
0F
#355
1!
1E
1F
0{
1z
1;!
1>!
0@!
0;"
0b
1H
0<!
1d
0c
1<"
15
00!
06
1/!
0d
1c
1e
0e
#360
0!
0E
0F
#365
1!
1E
1F
1{
0;!
0>!
1b
0H
1<!
1E!
0D!
16
0/!
1d
0c
1e
#370
0!
0E
0F
#375
1!
1E
1F
1y
0{
0z
0B!
0>"
1;!
1>!
1@!
1;"
0E!
1D!
1f
0e
1?"
0b
1H
0<!
0d
1c
0<"
05
10!
06
1/!
14
01!
1g
0c
0f
1e
0g
#380
0!
0E
0F
#385
1!
1E
1F
1{
0;!
0>!
1b
0H
1<!
16
0/!
1c
#390
0!
0E
0F
